<svg width="50" height="50" viewBox="0 0 50 50" fill="none" xmlns="http://www.w3.org/2000/svg">
<path d="M21.7285 37.3196C21.4695 37.3196 21.2211 37.2166 21.038 37.0335L10.4194 26.4153C10.038 26.0338 10.038 25.4154 10.4194 25.0339L15.9435 19.5099C16.325 19.1284 16.9433 19.1284 17.3248 19.5099L21.7285 23.9136L32.6751 12.9665C32.8582 12.7834 33.1069 12.6804 33.366 12.6804C33.6246 12.6804 33.8733 12.7834 34.0564 12.9665L39.5805 18.491C39.9619 18.8721 39.9619 19.4904 39.5805 19.8719L22.4189 37.0338C22.2358 37.2169 21.9875 37.3196 21.7285 37.3196ZM12.4912 25.7248L21.7285 34.9621L37.5091 19.1814L33.366 15.0379L22.4189 25.985C22.0375 26.3664 21.4191 26.3664 21.038 25.985L16.6343 21.5813L12.4912 25.7248Z" fill="#D22630"/>
<path d="M24.9939 50C24.356 50 23.7175 49.9756 23.0777 49.9268C17.1367 49.4713 11.5413 46.8967 7.3223 42.6781C2.60048 37.9559 0 31.678 0 25C0 18.3224 2.60048 12.0441 7.3223 7.32231C12.0441 2.60048 18.3223 0 25 0C31.678 0 37.9558 2.60048 42.678 7.32231C46.8967 11.5414 49.4712 17.1368 49.9267 23.0778C50.3772 28.9543 48.7407 34.8118 45.3189 39.5718C45.0042 40.0097 44.3939 40.1093 43.9559 39.7945C43.518 39.4798 43.4184 38.8695 43.7331 38.4315C50.3471 29.2316 49.3224 16.7294 41.2967 8.70323C32.3108 -0.282669 17.6895 -0.282669 8.7036 8.70323C-0.282669 17.6895 -0.282669 32.3105 8.7036 41.2968C16.7293 49.3221 29.232 50.3471 38.4319 43.7328C38.8698 43.4181 39.4798 43.5181 39.7949 43.956C40.1096 44.3939 40.0096 45.0039 39.5717 45.319C35.3298 48.3685 30.2158 50 24.9939 50Z" fill="#D22630"/>
</svg>
