<svg width="50" height="50" viewBox="0 0 50 50" fill="none" xmlns="http://www.w3.org/2000/svg">
<path d="M35.7361 22.54C36.2884 22.54 36.7361 22.0923 36.7361 21.54C36.7361 20.9877 36.2884 20.54 35.7361 20.54L16.9371 20.54L19.9703 17.5068C20.3608 17.1163 20.3608 16.4831 19.9703 16.0926C19.5798 15.7021 18.9466 15.7021 18.5561 16.0926L14.0174 20.6313C13.9712 20.6775 13.9305 20.727 13.8953 20.7791C13.6804 20.9625 13.5442 21.2354 13.5442 21.54C13.5442 22.0923 13.9919 22.54 14.5442 22.54L35.7361 22.54ZM14.264 27.4599C13.7117 27.4599 13.264 27.9076 13.264 28.4599C13.264 29.0121 13.7117 29.4599 14.264 29.4599L33.063 29.4599L30.0298 32.4931C29.6393 32.8836 29.6393 33.5168 30.0298 33.9073C30.4204 34.2978 31.0535 34.2978 31.444 33.9073L35.9828 29.3686C36.0289 29.3224 36.0696 29.2729 36.1048 29.2208C36.3197 29.0374 36.456 28.7645 36.456 28.4599C36.456 27.9076 36.0082 27.4599 35.456 27.4599L14.264 27.4599ZM49 25C49 38.2548 38.2548 49 25 49C11.7452 49 1 38.2548 1 25C1 11.7452 11.7452 1 25 1C38.2548 1 49 11.7452 49 25Z" stroke="#D22630" stroke-width="2" stroke-linecap="round" stroke-linejoin="round"/>
</svg>
