<svg width="20" height="20" viewBox="0 0 20 20" fill="none" xmlns="http://www.w3.org/2000/svg">
<path d="M6.10156 6.14453C7.07552 5.17057 8.25 4.68359 9.625 4.68359C11 4.68359 12.1602 5.17057 13.1055 6.14453C14.0794 7.08984 14.5664 8.25 14.5664 9.625C14.5664 11 14.0794 12.1745 13.1055 13.1484C12.1602 14.0938 11 14.5664 9.625 14.5664C8.25 14.5664 7.07552 14.0938 6.10156 13.1484C5.15625 12.1745 4.68359 11 4.68359 9.625C4.68359 8.25 5.15625 7.08984 6.10156 6.14453ZM7.34766 11.9023C7.97786 12.5326 8.73698 12.8477 9.625 12.8477C10.513 12.8477 11.2721 12.5326 11.9023 11.9023C12.5326 11.2721 12.8477 10.513 12.8477 9.625C12.8477 8.73698 12.5326 7.97786 11.9023 7.34766C11.2721 6.71745 10.513 6.40234 9.625 6.40234C8.73698 6.40234 7.97786 6.71745 7.34766 7.34766C6.71745 7.97786 6.40234 8.73698 6.40234 9.625C6.40234 10.513 6.71745 11.2721 7.34766 11.9023ZM15.5547 3.69531C15.7839 3.89583 15.8984 4.15365 15.8984 4.46875C15.8984 4.78385 15.7839 5.05599 15.5547 5.28516C15.3542 5.51432 15.0964 5.62891 14.7812 5.62891C14.4661 5.62891 14.194 5.51432 13.9648 5.28516C13.7357 5.05599 13.6211 4.78385 13.6211 4.46875C13.6211 4.15365 13.7357 3.89583 13.9648 3.69531C14.194 3.46615 14.4661 3.35156 14.7812 3.35156C15.0964 3.35156 15.3542 3.46615 15.5547 3.69531ZM19.207 5.67188C19.2357 6.44531 19.25 7.76302 19.25 9.625C19.25 11.487 19.2357 12.8047 19.207 13.5781C19.1211 15.3255 18.5911 16.6862 17.6172 17.6602C16.6719 18.6055 15.3255 19.1068 13.5781 19.1641C12.8047 19.2214 11.487 19.25 9.625 19.25C7.76302 19.25 6.44531 19.2214 5.67188 19.1641C3.92448 19.0781 2.57812 18.5625 1.63281 17.6172C1.26042 17.2734 0.959635 16.8724 0.730469 16.4141C0.501302 15.9557 0.329427 15.5117 0.214844 15.082C0.128906 14.6523 0.0859375 14.151 0.0859375 13.5781C0.0286458 12.8047 0 11.487 0 9.625C0 7.76302 0.0286458 6.43099 0.0859375 5.62891C0.171875 3.91016 0.6875 2.57812 1.63281 1.63281C2.57812 0.658854 3.92448 0.128906 5.67188 0.0429688C6.44531 0.0143229 7.76302 0 9.625 0C11.487 0 12.8047 0.0143229 13.5781 0.0429688C15.3255 0.128906 16.6719 0.658854 17.6172 1.63281C18.5911 2.57812 19.1211 3.92448 19.207 5.67188ZM17.1445 15.2969C17.2305 15.0677 17.3021 14.7812 17.3594 14.4375C17.4167 14.0651 17.4596 13.6354 17.4883 13.1484C17.5169 12.6328 17.5312 12.2174 17.5312 11.9023C17.5312 11.5872 17.5312 11.1432 17.5312 10.5703C17.5312 9.9974 17.5312 9.68229 17.5312 9.625C17.5312 9.53906 17.5312 9.22396 17.5312 8.67969C17.5312 8.10677 17.5312 7.66276 17.5312 7.34766C17.5312 7.03255 17.5169 6.63151 17.4883 6.14453C17.4596 5.62891 17.4167 5.19922 17.3594 4.85547C17.3021 4.48307 17.2305 4.18229 17.1445 3.95312C16.8008 3.0651 16.1849 2.44922 15.2969 2.10547C15.0677 2.01953 14.7669 1.94792 14.3945 1.89062C14.0508 1.83333 13.6211 1.79036 13.1055 1.76172C12.6185 1.73307 12.2174 1.71875 11.9023 1.71875C11.6159 1.71875 11.1719 1.71875 10.5703 1.71875C9.9974 1.71875 9.68229 1.71875 9.625 1.71875C9.56771 1.71875 9.2526 1.71875 8.67969 1.71875C8.10677 1.71875 7.66276 1.71875 7.34766 1.71875C7.03255 1.71875 6.61719 1.73307 6.10156 1.76172C5.61458 1.79036 5.1849 1.83333 4.8125 1.89062C4.46875 1.94792 4.18229 2.01953 3.95312 2.10547C3.0651 2.44922 2.44922 3.0651 2.10547 3.95312C2.01953 4.18229 1.94792 4.48307 1.89062 4.85547C1.83333 5.19922 1.79036 5.62891 1.76172 6.14453C1.73307 6.63151 1.71875 7.03255 1.71875 7.34766C1.71875 7.63411 1.71875 8.07812 1.71875 8.67969C1.71875 9.2526 1.71875 9.56771 1.71875 9.625C1.71875 9.73958 1.71875 10.0117 1.71875 10.4414C1.71875 10.8424 1.71875 11.1862 1.71875 11.4727C1.71875 11.7305 1.71875 12.0742 1.71875 12.5039C1.7474 12.9336 1.77604 13.306 1.80469 13.6211C1.83333 13.9076 1.8763 14.2083 1.93359 14.5234C1.99089 14.8385 2.04818 15.0964 2.10547 15.2969C2.47786 16.1849 3.09375 16.8008 3.95312 17.1445C4.18229 17.2305 4.46875 17.3021 4.8125 17.3594C5.1849 17.4167 5.61458 17.4596 6.10156 17.4883C6.61719 17.5169 7.01823 17.5312 7.30469 17.5312C7.61979 17.5312 8.0638 17.5312 8.63672 17.5312C9.23828 17.5312 9.56771 17.5312 9.625 17.5312C9.71094 17.5312 10.026 17.5312 10.5703 17.5312C11.1432 17.5312 11.5872 17.5312 11.9023 17.5312C12.2174 17.5312 12.6185 17.5169 13.1055 17.4883C13.6211 17.4596 14.0508 17.4167 14.3945 17.3594C14.7669 17.3021 15.0677 17.2305 15.2969 17.1445C16.1849 16.7721 16.8008 16.1562 17.1445 15.2969Z" fill="#9B9B9B"/>
</svg>
