<svg width="160" height="50" viewBox="0 0 160 50" fill="none" xmlns="http://www.w3.org/2000/svg">
<path d="M160 45.2871C160 45.9064 159.876 46.5197 159.636 47.0918C159.396 47.6639 159.044 48.1837 158.6 48.6214C158.155 49.0591 157.628 49.4062 157.048 49.6427C156.468 49.8793 155.847 50.0007 155.219 50H4.78674C3.51876 50.0013 2.30216 49.5056 1.40451 48.6218C0.506856 47.7381 0.00165205 46.5387 0 45.2874V4.71876C0.0016513 3.46692 0.506657 2.26688 1.40413 1.38215C2.3016 0.497426 3.51818 0.000324782 4.78674 1.003e-08H155.218C155.846 -4.03946e-05 156.468 0.121993 157.048 0.35913C157.628 0.596267 158.155 0.943862 158.599 1.38206C159.043 1.82026 159.395 2.34047 159.635 2.91299C159.876 3.48551 159.999 4.09912 159.999 4.71876L160 45.2871Z" fill="#202020"/>
<path d="M19.6191 9V39L34.6191 24.0001L19.6191 9Z" fill="url(#paint0_linear)"/>
<path d="M38.6191 20L32.5733 16.5L19.6191 9L34.6191 24L38.6191 20Z" fill="url(#paint1_linear)"/>
<path d="M19.6191 39L38.6191 28L34.6191 24L19.6191 39Z" fill="url(#paint2_linear)"/>
<path d="M38.6191 20L34.6191 24.0003L38.6191 28L45.6191 24L38.6191 20Z" fill="url(#paint3_linear)"/>
<path d="M115.276 33.9064C114.704 33.9064 114.183 33.8032 113.711 33.597C113.239 33.3907 112.842 33.0732 112.522 32.6453H112.426C112.49 33.1467 112.522 33.6221 112.522 34.0711V37.6045H111.194V25.1628H112.274L112.458 26.3381H112.522C112.864 25.8677 113.262 25.5287 113.715 25.3197C114.169 25.1107 114.689 25.0062 115.276 25.0062C116.439 25.0062 117.337 25.3955 117.969 26.1737C118.602 26.9518 118.918 28.0437 118.918 29.4483C118.918 30.8587 118.596 31.954 117.954 32.7355C117.311 33.5162 116.418 33.9064 115.276 33.9064ZM115.084 26.1108C114.187 26.1108 113.539 26.354 113.139 26.8395C112.738 27.3252 112.533 28.0985 112.522 29.1588V29.4483C112.522 30.6552 112.728 31.5183 113.139 32.0382C113.55 32.5581 114.209 32.8174 115.116 32.8174C115.874 32.8174 116.468 32.5174 116.897 31.9167C117.326 31.3163 117.541 30.4884 117.541 29.4327C117.541 28.3624 117.326 27.5405 116.897 26.9687C116.468 26.3965 115.863 26.1108 115.084 26.1108ZM121.995 33.7495H120.666V21.5587H121.995V33.7495ZM129.634 33.7495L129.37 32.5273H129.306C128.868 33.0657 128.432 33.4303 127.997 33.6202C127.562 33.8113 127.019 33.9064 126.368 33.9064C125.498 33.9064 124.817 33.687 124.323 33.2484C123.829 32.8098 123.582 32.1859 123.582 31.376C123.582 29.6422 124.999 28.7332 127.833 28.6493L129.322 28.6022V28.0695C129.322 27.3956 129.174 26.8979 128.878 26.5771C128.582 26.2555 128.107 26.095 127.457 26.095C126.726 26.095 125.898 26.3144 124.975 26.753L124.567 25.758C125 25.5282 125.473 25.3481 125.988 25.2175C126.503 25.087 127.019 25.0216 127.537 25.0216C128.583 25.0216 129.358 25.2486 129.863 25.703C130.367 26.1575 130.619 26.8861 130.619 27.8892V33.7493L129.634 33.7495ZM126.632 32.8332C127.459 32.8332 128.109 32.6112 128.581 32.1674C129.053 31.7236 129.29 31.1018 129.29 30.3023V29.5268L127.96 29.5812C126.904 29.6185 126.143 29.7785 125.675 30.0639C125.208 30.3484 124.975 30.7912 124.975 31.3919C124.975 31.8617 125.12 32.2198 125.411 32.4647C125.702 32.7105 126.109 32.8332 126.632 32.8332ZM131.39 25.1628H132.814L134.736 30.0597C135.157 31.1776 135.419 31.9845 135.521 32.4809H135.584C135.654 32.214 135.8 31.7588 136.021 31.113C136.242 30.4678 136.967 28.4849 138.194 25.1628H139.619L135.849 34.9407C135.475 35.907 135.039 36.5926 134.539 36.9981C134.041 37.4025 133.428 37.6045 132.703 37.6045C132.297 37.6045 131.897 37.5602 131.502 37.4716V36.4297C131.795 36.4923 132.124 36.5238 132.487 36.5238C133.399 36.5238 134.05 36.0224 134.44 35.0194L134.928 33.7974L131.39 25.1628ZM90.6615 25.9607C91.0832 26.3024 91.964 27.0201 91.964 28.3859C91.964 29.7141 91.1932 30.344 90.4224 30.9358C90.1838 31.169 89.9085 31.4213 89.9085 31.8169C89.9085 32.2112 90.1836 32.427 90.3862 32.5888L91.047 33.0907C91.8543 33.7555 92.5875 34.3666 92.5875 35.6062C92.5875 37.2944 90.9176 39 87.762 39C85.1009 39 83.8171 37.7611 83.8171 36.4313C83.8171 35.785 84.1459 34.8695 85.23 34.2402C86.3669 33.5577 87.9093 33.4688 88.7346 33.4136C88.4769 33.0907 88.1841 32.7493 88.1841 32.1935C88.1841 31.8886 88.2762 31.7088 88.3675 31.4922C88.1649 31.5104 87.9634 31.5284 87.7797 31.5284C85.8352 31.5284 84.7343 30.1095 84.7343 28.7093C84.7343 27.8829 85.1201 26.9664 85.9082 26.3026C86.9545 25.4586 88.2022 25.3145 89.194 25.3145H92.9731L91.7986 25.961L90.6615 25.9607ZM89.3582 33.9356C89.2115 33.9168 89.1194 33.9168 88.9367 33.9168C88.7717 33.9168 87.7794 33.9535 87.0096 34.2055C86.606 34.3481 85.4313 34.7791 85.4313 36.055C85.4313 37.3296 86.6981 38.2469 88.6617 38.2469C90.4221 38.2469 91.359 37.419 91.359 36.3065C91.3591 35.3887 90.7533 34.9058 89.3582 33.9356ZM89.8907 30.5225C90.3121 30.1089 90.3484 29.5348 90.3484 29.2112C90.3484 27.9184 89.5597 25.9068 88.0371 25.9068C87.5594 25.9068 87.0461 26.14 86.7524 26.4997C86.4409 26.8767 86.3483 27.3612 86.3483 27.8287C86.3483 29.0319 87.0639 31.0257 88.6428 31.0257C89.1015 31.0257 89.596 30.8102 89.8907 30.5225ZM79.1093 33.6481C76.1968 33.6481 74.6395 31.4244 74.6395 29.4158C74.6395 27.0664 76.5994 25.0591 79.3851 25.0591C82.0769 25.0591 83.7625 27.1204 83.7625 29.2906C83.7627 31.4057 82.0963 33.6481 79.1093 33.6481ZM81.399 32.1958C81.8394 31.6215 81.9493 30.9045 81.9493 30.2046C81.9493 28.6261 81.1799 25.6142 78.908 25.6142C78.3036 25.6142 77.6992 25.8477 77.2597 26.225C76.545 26.8517 76.4162 27.6411 76.4162 28.413C76.4162 30.1869 77.3139 33.1089 79.5313 33.1089C80.2456 33.1089 80.9786 32.7689 81.399 32.1958ZM69.1795 33.6481C66.2665 33.6481 64.709 31.4244 64.709 29.4158C64.709 27.0664 66.6696 25.0591 69.4546 25.0591C72.1471 25.0591 73.8325 27.1204 73.8325 29.2906C73.8328 31.4057 72.166 33.6481 69.1795 33.6481ZM71.4698 32.1958C71.9094 31.6215 72.0196 30.9045 72.0196 30.2046C72.0196 28.6261 71.2496 25.6142 68.9777 25.6142C68.3736 25.6142 67.7687 25.8477 67.3294 26.225C66.6148 26.8517 66.4867 27.6411 66.4867 28.413C66.4867 30.1869 67.3839 33.1089 69.6015 33.1089C70.3162 33.1089 71.0486 32.7689 71.4698 32.1958ZM63.3096 33.3669L60.6753 33.9619C59.6066 34.1245 58.6492 34.2676 57.6366 34.2676C52.5524 34.2676 50.6191 30.6077 50.6191 27.7411C50.6191 24.2442 53.3631 21 58.0605 21C59.0555 21 60.0124 21.1439 60.8779 21.3784C62.2592 21.7571 62.9038 22.2253 63.3093 22.4961L61.78 23.9203L61.1357 24.0639L61.596 23.3425C60.9701 22.7481 59.8271 21.6486 57.6545 21.6486C54.7441 21.6486 52.5519 23.8129 52.5519 26.9674C52.5519 30.3557 55.0573 33.5467 59.0717 33.5467C60.2517 33.5467 60.8583 33.3128 61.4112 33.0959V30.1942L58.6305 30.3383L60.1034 29.5622H64.0085L63.53 30.0128C63.4001 30.1215 63.3823 30.158 63.3455 30.3008C63.3264 30.4634 63.3091 30.9867 63.3091 31.1667L63.3096 33.3669Z" fill="#F9F9FA"/>
<path d="M96.5445 33.1765C95.9344 33.1226 95.8066 33.0156 95.8066 32.3159V22.173C95.8104 22.1344 95.8128 22.0948 95.8165 22.0574C95.8911 21.4305 96.0756 21.323 96.6492 21H94.0056L92.6191 21.6453H94.0321V21.6533L94.031 21.6469V32.7107C94.031 33.0684 93.9581 33.1229 93.5325 33.6599H96.8039L97.4878 33.2666C97.1739 33.2296 96.8592 33.2122 96.5445 33.1765ZM104.065 33.3412C103.863 33.4482 103.661 33.5733 103.46 33.6617C102.854 33.9285 102.23 34 101.678 34C101.092 34 100.174 33.9632 99.237 33.3055C97.935 32.4149 97.366 30.8844 97.366 29.55C97.366 26.7919 99.6783 25.4394 101.569 25.4394C102.23 25.4394 102.909 25.5992 103.46 25.9381C104.377 26.5243 104.615 27.2895 104.743 27.6991L100.431 29.3905L99.0177 29.4972C99.4759 31.7574 101.054 33.0734 102.798 33.0734C103.734 33.0734 104.413 32.7537 105.037 32.4516L104.065 33.3412ZM102.34 28.0369C102.688 27.9128 102.871 27.8056 102.871 27.5566C102.871 26.8452 102.046 26.0261 101.054 26.0261C100.319 26.0261 98.9437 26.5782 98.9437 28.4998C98.9437 28.8024 98.9805 29.1226 98.9995 29.4441L102.34 28.0369ZM105.836 25.5611V26.7354H105.689V25.5611H105.288V25.4394H106.236V25.5611H105.836ZM107.487 26.7354V25.5502H107.48L107.107 26.7354H106.992L106.616 25.5502H106.611V26.7354H106.478V25.4394H106.707L107.047 26.487H107.052L107.387 25.4394H107.619V26.7354H107.487Z" fill="#F9F9FA"/>
<path d="M54.254 17.8947H53.3366C53.3366 17.7659 53.2496 17.4015 53.0756 16.801H51.7513C51.5718 17.3917 51.4818 17.7561 51.4818 17.8947H50.6191C50.6191 17.8187 50.8422 17.1948 51.2884 16.0233C51.7345 14.8517 51.9576 14.2063 51.9576 14.0877H53.0412C53.0412 14.1987 53.2432 14.8346 53.6475 15.9955C54.0517 17.1565 54.254 17.7893 54.254 17.8947ZM52.9297 16.2424C52.6028 15.2366 52.4395 14.6928 52.4395 14.6108H52.3936C52.3936 14.6868 52.2244 15.2306 51.8864 16.2424H52.9297ZM57.9502 17.8947H57.2423C57.2423 17.8147 56.9795 17.3927 56.4541 16.6287C55.9039 15.8235 55.5903 15.2731 55.514 14.9767H55.4681C55.5159 15.4035 55.5399 15.7895 55.5399 16.1346C55.5399 16.6162 55.5533 17.203 55.58 17.895H54.8747C54.9032 17.2907 54.9177 16.6271 54.9177 15.9038C54.9177 15.1923 54.9033 14.5869 54.8747 14.088H55.7259C55.7259 14.1914 55.9618 14.6038 56.4338 15.3248C56.9363 16.0908 57.225 16.6105 57.2995 16.8835H57.3424C57.2966 16.4488 57.2736 16.059 57.2736 15.7138C57.2736 15.1858 57.2602 14.6435 57.2336 14.088H57.9503C57.9233 14.5714 57.9102 15.1768 57.9102 15.9038C57.9099 16.6363 57.9233 17.2999 57.9502 17.8947ZM62.1046 15.8595C62.1046 16.4131 61.9307 16.8965 61.583 17.3097C61.235 17.7232 60.7477 17.9295 60.121 17.9295C59.8381 17.9295 59.4483 17.9178 58.9514 17.8944C58.9762 17.3057 58.9888 16.6417 58.9888 15.9033C58.9888 15.1939 58.9762 14.5885 58.9514 14.0874H59.4531C59.5353 14.0874 59.6575 14.0844 59.82 14.0787C59.9822 14.073 60.0884 14.07 60.138 14.07C60.8278 14.07 61.3279 14.2455 61.6387 14.5964C61.9493 14.9473 62.1046 15.3681 62.1046 15.8595ZM61.3222 15.9852C61.3222 15.6109 61.2152 15.2957 61.0012 15.039C60.7872 14.7829 60.4604 14.6547 60.0209 14.6547C59.9387 14.6547 59.8261 14.6634 59.6825 14.6811C59.7015 15.0711 59.7111 15.4783 59.7111 15.9033C59.7111 16.3693 59.7207 16.8312 59.7396 17.2893C59.8622 17.3145 59.987 17.3273 60.1121 17.3274C60.523 17.3274 60.8272 17.1971 61.025 16.9368C61.2227 16.6766 61.3222 16.3594 61.3222 15.9852ZM65.9356 17.8947H65.0871C64.8653 17.2047 64.6954 16.7787 64.5769 16.617C64.4584 16.455 64.2674 16.3742 64.0037 16.3742C63.8927 16.3742 63.7868 16.3753 63.6857 16.3772C63.6857 16.8783 63.6942 17.384 63.7116 17.8947H62.9148C62.9396 17.3059 62.9521 16.642 62.9521 15.9035C62.9521 15.1942 62.9396 14.5888 62.9148 14.0877H63.4105C63.4679 14.0877 63.5877 14.0847 63.7703 14.079C63.9528 14.0732 64.1214 14.0702 64.2762 14.0702C65.1533 14.0702 65.592 14.3762 65.592 14.9884C65.592 15.4737 65.3417 15.8118 64.8411 16.0032V16.047C65.034 16.1014 65.2032 16.2552 65.3483 16.5073C65.4932 16.7596 65.6891 17.2221 65.9356 17.8947ZM64.8608 15.2045C64.8608 14.8166 64.6161 14.6225 64.127 14.6225C63.9474 14.6225 63.7886 14.6362 63.6512 14.6634C63.6723 14.9655 63.6827 15.3594 63.6827 15.8447C63.7879 15.8488 63.8767 15.8504 63.9493 15.8504C64.5569 15.8507 64.8608 15.6354 64.8608 15.2045ZM70.0444 15.9209C70.0444 16.5192 69.8648 17.0154 69.5054 17.4093C69.1459 17.8029 68.7017 18 68.1725 18C67.668 18 67.2455 17.8193 66.9056 17.4575C66.5654 17.096 66.3954 16.6363 66.3954 16.0791C66.3954 15.4808 66.575 14.9846 66.9344 14.5907C67.2936 14.1971 67.7378 14 68.2672 14C68.7718 14 69.194 14.1802 69.5342 14.5409C69.8744 14.9016 70.0444 15.3613 70.0444 15.9209ZM69.2535 16.0056C69.2535 15.5981 69.1513 15.2677 68.9469 15.0142C68.7422 14.7608 68.4901 14.6343 68.1901 14.6343C67.911 14.6343 67.6741 14.7619 67.4793 15.0172C67.2845 15.2726 67.1866 15.5951 67.1866 15.9852C67.1866 16.3905 67.2893 16.7204 67.4947 16.9749C67.7002 17.2294 67.9518 17.3566 68.2502 17.3566C68.529 17.3566 68.7662 17.2284 68.961 16.9719C69.1558 16.7158 69.2535 16.3935 69.2535 16.0056ZM71.6652 17.8947H70.854C70.8788 17.2904 70.8913 16.6268 70.8913 15.9035C70.8913 15.192 70.8788 14.5866 70.854 14.0877H71.6652C71.6403 14.579 71.6278 15.1841 71.6278 15.9035C71.6278 16.6382 71.6403 17.3021 71.6652 17.8947ZM75.8198 15.8595C75.8198 16.4131 75.6458 16.8965 75.2982 17.3097C74.9502 17.7232 74.4629 17.9295 73.8361 17.9295C73.5533 17.9295 73.1635 17.9178 72.6666 17.8944C72.6914 17.3057 72.704 16.6417 72.704 15.9033C72.704 15.1939 72.6914 14.5885 72.6666 14.0874H73.1683C73.2504 14.0874 73.3727 14.0844 73.5352 14.0787C73.6974 14.073 73.8036 14.07 73.8532 14.07C74.543 14.07 75.0431 14.2455 75.3539 14.5964C75.6645 14.9473 75.8198 15.3681 75.8198 15.8595ZM75.0375 15.9852C75.0375 15.6109 74.9305 15.2957 74.7164 15.039C74.5024 14.7829 74.1756 14.6547 73.7361 14.6547C73.6539 14.6547 73.5413 14.6634 73.3977 14.6811C73.4167 15.0711 73.4262 15.4783 73.4262 15.9033C73.4262 16.3693 73.4359 16.8312 73.4548 17.2893C73.5774 17.3145 73.7022 17.3273 73.8273 17.3274C74.2382 17.3274 74.5424 17.1971 74.7402 16.9368C74.9379 16.6766 75.0375 16.3594 75.0375 15.9852ZM81.3316 17.8947H80.4142C80.4142 17.7659 80.3272 17.4015 80.153 16.801H78.8287C78.6491 17.3917 78.5592 17.7561 78.5592 17.8947H77.6968C77.6968 17.8187 77.9198 17.1948 78.366 16.0233C78.8121 14.8517 79.0352 14.2063 79.0352 14.0877H80.1188C80.1188 14.1987 80.3211 14.8346 80.7251 15.9955C81.1291 17.1565 81.3316 17.7893 81.3316 17.8947ZM80.0073 16.2424C79.6804 15.2366 79.5168 14.6928 79.5168 14.6108H79.4709C79.4709 14.6868 79.302 15.2306 78.964 16.2424H80.0073ZM84.6751 15.0845C84.6751 15.5505 84.5054 15.8945 84.1662 16.1167C83.8271 16.3388 83.4111 16.4501 82.9179 16.4501C82.828 16.4501 82.7642 16.4482 82.7258 16.4444C82.7258 16.811 82.7362 17.2942 82.7573 17.8947H81.9517C81.9765 17.3315 81.9891 16.6676 81.9891 15.9035C81.9891 15.2018 81.9765 14.5964 81.9517 14.0877H82.4504C82.5211 14.0877 82.6567 14.0847 82.8573 14.079C83.058 14.0732 83.2317 14.0702 83.379 14.0702C83.7419 14.0702 84.0488 14.1541 84.2991 14.3217C84.5494 14.4894 84.6751 14.7434 84.6751 15.0845ZM83.9357 15.2453C83.9357 14.8283 83.6643 14.6196 83.1216 14.6196C82.9857 14.6196 82.8425 14.6342 82.6917 14.6634C82.7128 15.0319 82.7232 15.449 82.7232 15.915C82.7709 15.919 82.8264 15.9207 82.8894 15.9207C83.5869 15.9209 83.9357 15.6958 83.9357 15.2453ZM88.113 15.0845C88.113 15.5505 87.9433 15.8945 87.6044 16.1167C87.2653 16.3388 86.849 16.4501 86.3559 16.4501C86.266 16.4501 86.2022 16.4482 86.1638 16.4444C86.1638 16.811 86.1742 17.2942 86.1953 17.8947H85.3897C85.4145 17.3315 85.4271 16.6676 85.4271 15.9035C85.4271 15.2018 85.4145 14.5964 85.3897 14.0877H85.8884C85.9591 14.0877 86.0947 14.0847 86.2953 14.079C86.496 14.0732 86.6697 14.0702 86.817 14.0702C87.1799 14.0702 87.4868 14.1541 87.7371 14.3217C87.9873 14.4894 88.113 14.7434 88.113 15.0845ZM87.3736 15.2453C87.3736 14.8283 87.1022 14.6196 86.5595 14.6196C86.4237 14.6196 86.2804 14.6342 86.1296 14.6634C86.1507 15.0319 86.1611 15.449 86.1611 15.915C86.2089 15.919 86.2644 15.9207 86.3274 15.9207C87.0249 15.9209 87.3736 15.6958 87.3736 15.2453ZM93.734 15.9209C93.734 16.5192 93.5544 17.0154 93.195 17.4093C92.8355 17.8032 92.3912 18 91.8621 18C91.3575 18 90.9351 17.8193 90.5952 17.4575C90.2552 17.096 90.085 16.6363 90.085 16.0791C90.085 15.4808 90.2646 14.9846 90.624 14.5907C90.9834 14.1968 91.4277 14 91.9568 14C92.4614 14 92.8838 14.1802 93.2238 14.5409C93.5637 14.9016 93.734 15.3613 93.734 15.9209ZM92.9428 16.0056C92.9428 15.5981 92.8406 15.2677 92.6362 15.0142C92.4318 14.7608 92.1794 14.6343 91.8795 14.6343C91.6003 14.6343 91.3634 14.7619 91.1686 15.0172C90.9738 15.2726 90.8761 15.5951 90.8761 15.9852C90.8761 16.3905 90.9789 16.7204 91.1843 16.9749C91.3898 17.2294 91.6414 17.3566 91.9395 17.3566C92.2186 17.3566 92.4555 17.2284 92.6503 16.9719C92.8454 16.7158 92.9428 16.3935 92.9428 16.0056ZM97.6191 17.8947H96.9112C96.9112 17.8147 96.6486 17.3927 96.123 16.6287C95.5727 15.8235 95.2592 15.2731 95.1829 14.9767H95.137C95.1848 15.4035 95.2088 15.7895 95.2088 16.1346C95.2088 16.6162 95.2221 17.203 95.2488 17.895H94.5436C94.5721 17.2907 94.5865 16.6271 94.5865 15.9038C94.5865 15.1923 94.5722 14.5869 94.5436 14.088H95.3948C95.3948 14.1914 95.6309 14.6038 96.1027 15.3248C96.6054 16.0908 96.8939 16.6105 96.9683 16.8835H97.0113C96.9654 16.4488 96.9425 16.059 96.9425 15.7138C96.9425 15.1858 96.9291 14.6435 96.9024 14.088H97.6191C97.5922 14.5714 97.5791 15.1768 97.5791 15.9038C97.5791 16.6363 97.5924 17.2999 97.6191 17.8947Z" fill="#F9F9FA"/>
<defs>
<linearGradient id="paint0_linear" x1="27.1191" y1="9.00004" x2="27.1191" y2="39" gradientUnits="userSpaceOnUse">
<stop stop-color="#257CB0"/>
<stop offset="0.286" stop-color="#4A93B5"/>
<stop offset="0.767" stop-color="#78BCBB"/>
<stop offset="1" stop-color="#89CFBD"/>
</linearGradient>
<linearGradient id="paint1_linear" x1="19.6194" y1="16.4998" x2="38.6194" y2="16.4998" gradientUnits="userSpaceOnUse">
<stop stop-color="#52C1AD"/>
<stop offset="1" stop-color="#DEE89A"/>
</linearGradient>
<linearGradient id="paint2_linear" x1="29.1191" y1="24" x2="29.1191" y2="40" gradientUnits="userSpaceOnUse">
<stop stop-color="#EC413D"/>
<stop offset="0.167" stop-color="#DA4452"/>
<stop offset="0.575" stop-color="#B0487A"/>
<stop offset="0.862" stop-color="#954A92"/>
<stop offset="1" stop-color="#8A4A9D"/>
</linearGradient>
<linearGradient id="paint3_linear" x1="40.1193" y1="20" x2="40.1193" y2="27.9998" gradientUnits="userSpaceOnUse">
<stop stop-color="#F58879"/>
<stop offset="0.119" stop-color="#F69079"/>
<stop offset="0.713" stop-color="#FCB877"/>
<stop offset="1" stop-color="#FEC874"/>
</linearGradient>
</defs>
</svg>
