<svg width="109" height="44" viewBox="0 0 109 44" fill="none" xmlns="http://www.w3.org/2000/svg">
<path d="M23.1238 36.5V36.4828C23.501 36.3276 23.8096 36.069 24.0496 35.7414C24.2896 35.3966 24.4096 35.0345 24.4096 34.6207C24.4096 32.9828 23.3124 32.1724 21.1007 32.1724C20.535 32.1724 19.7978 32.2586 18.9062 32.431V40.8966C19.3006 40.9655 19.6777 41.0173 20.0378 41.0517C20.3978 41.0862 20.7407 41.1035 21.0836 41.1035C23.5181 41.1035 24.7354 40.2586 24.7354 38.5862C24.7354 38.069 24.5982 37.6207 24.3067 37.2414C24.0153 36.8621 23.621 36.6207 23.1238 36.5ZM20.4835 33.6035C20.6035 33.5862 20.7236 33.569 20.8436 33.5517C20.9636 33.5345 21.0664 33.5345 21.1693 33.5345C21.6665 33.5345 22.0437 33.5862 22.2837 33.7069C22.6266 33.8793 22.7809 34.2069 22.7809 34.6552C22.7809 35.431 22.2666 35.8276 21.2379 35.8276H20.4664V33.6035H20.4835ZM21.1865 39.7069C21.0836 39.7069 20.9636 39.7069 20.8436 39.6897C20.7236 39.6724 20.6035 39.6552 20.4835 39.6379V37.1897H21.2893C22.5066 37.1897 23.1066 37.6035 23.1066 38.4483C23.1066 39.2931 22.4551 39.7069 21.1865 39.7069Z" fill="#54585A"/>
<path d="M28.61 34.5C27.6671 34.5 26.8956 34.8104 26.3126 35.431C25.7297 36.0517 25.4383 36.8448 25.4383 37.7931C25.4383 38.7414 25.7297 39.5345 26.2955 40.1552C26.8956 40.7759 27.6671 41.0862 28.5929 41.0862C29.5358 41.0862 30.3073 40.7759 30.8902 40.1552C31.4731 39.5345 31.7646 38.7414 31.7646 37.7931C31.7646 36.8448 31.4731 36.0517 30.8902 35.431C30.3244 34.8104 29.5701 34.5 28.61 34.5ZM29.7758 39.1724C29.5015 39.6035 29.1243 39.8104 28.61 39.8104C28.1128 39.8104 27.7185 39.6035 27.4442 39.1724C27.2213 38.8276 27.1184 38.3793 27.1184 37.8104C27.1184 37.2586 27.2213 36.8104 27.4442 36.4483C27.7185 36.0345 28.0957 35.8104 28.61 35.8104C29.1072 35.8104 29.5015 36.0345 29.7758 36.4483C29.9987 36.8104 30.1016 37.2586 30.1016 37.8104C30.1016 38.3793 29.9987 38.8276 29.7758 39.1724Z" fill="#54585A"/>
<path d="M38.2623 39.5862V34.6379H36.7536V39.2414C36.7536 39.2586 36.7536 39.2931 36.7536 39.3448C36.7536 39.3793 36.7707 39.4483 36.7707 39.5173C36.2907 39.7069 35.8621 39.7931 35.5021 39.7931C34.662 39.7931 34.2505 39.3966 34.2505 38.6207V34.6379H32.7418V38.8621C32.7418 40.3621 33.6505 41.1035 35.4849 41.1035C36.2393 41.1035 37.1822 40.8966 38.348 40.4828C38.3137 40.2759 38.2966 40.1035 38.2795 39.9655C38.2623 39.8104 38.2623 39.6897 38.2623 39.5862Z" fill="#54585A"/>
<path d="M42.5484 34.5C42.0341 34.5 41.5712 34.6207 41.1426 34.8448V31.6724H39.6339V39.931C39.6339 40.0173 39.6339 40.1207 39.6167 40.2414C39.5996 40.3621 39.5824 40.5173 39.5653 40.6897C40.3025 40.9655 41.1083 41.1035 41.9655 41.1035C42.9427 41.1035 43.7657 40.7931 44.4172 40.1724C45.0858 39.5517 45.4287 38.7586 45.4287 37.8104C45.4287 36.8621 45.1887 36.0862 44.7086 35.4828C44.1943 34.8276 43.4742 34.5 42.5484 34.5ZM43.3199 39.1897C42.9942 39.6035 42.5656 39.7931 42.0169 39.7931C41.6569 39.7931 41.3655 39.7414 41.1083 39.6552C41.1083 39.6207 41.1254 39.569 41.1254 39.5345C41.1254 39.5 41.1254 39.4828 41.1254 39.4655V36.1207C41.3826 35.9138 41.7255 35.8104 42.1541 35.8104C42.6856 35.8104 43.0799 36.0173 43.3714 36.4138C43.6114 36.7759 43.7314 37.2242 43.7314 37.7759C43.7314 38.3448 43.5942 38.8276 43.3199 39.1897Z" fill="#54585A"/>
<path d="M49.2005 39.4483L47.4003 34.6379H45.703L48.0518 40.2931C48.2404 40.7414 48.4632 40.9828 48.7547 41.0345C48.3604 42.0173 47.7089 42.6379 46.7659 42.8966L47.5546 44C48.6518 43.7586 49.4576 42.8621 50.0063 41.3448L52.4065 34.6379H50.812L49.2005 39.4483Z" fill="#54585A"/>
<path d="M57.9441 36.569C57.9441 35.8621 57.7212 35.3448 57.2755 34.9828C56.8469 34.6552 56.2983 34.5 55.5953 34.5C54.721 34.5 53.898 34.6897 53.1094 35.0517L53.6237 36.2069C54.2066 35.9483 54.7895 35.8276 55.3725 35.8276C56.0754 35.8276 56.4354 36.0173 56.4354 36.4138C56.4354 36.6897 56.0925 36.9138 55.4239 37.0517C54.4295 37.2759 53.7952 37.4483 53.538 37.5862C52.8694 37.931 52.5265 38.4655 52.5265 39.1897C52.5265 39.8621 52.8522 40.3793 53.4866 40.7069C53.9838 40.9655 54.601 41.1035 55.3553 41.1035C56.0582 41.1035 56.9497 40.9483 58.047 40.6207C57.9956 40.2759 57.9613 40 57.9613 39.8276V36.569H57.9441ZM55.3553 39.8448C54.5667 39.8448 54.1895 39.5862 54.1895 39.069C54.1895 38.7931 54.3438 38.6035 54.6524 38.4655C54.7895 38.3966 55.1153 38.3104 55.6296 38.2069C56.0411 38.1207 56.2983 38.0173 56.4354 37.8793V39.431C56.4354 39.4483 56.4354 39.4828 56.4354 39.5345C56.4354 39.569 56.4526 39.6207 56.4526 39.6724C56.0754 39.7931 55.7153 39.8448 55.3553 39.8448Z" fill="#54585A"/>
<path d="M62.1445 34.5C61.4244 34.5 60.4643 34.7069 59.2814 35.1379C59.3157 35.3448 59.3328 35.5173 59.35 35.6724C59.3671 35.8276 59.3671 35.9483 59.3671 36.0345V40.9828H60.8758V36.3793C60.8758 36.3448 60.8758 36.3104 60.8758 36.2586C60.8758 36.2242 60.8587 36.1724 60.8587 36.1035C61.3387 35.9138 61.7673 35.8276 62.1274 35.8276C62.9674 35.8276 63.3789 36.2242 63.3789 37V40.9828H64.8876V36.7586C64.8876 35.2414 63.9618 34.5 62.1445 34.5Z" fill="#54585A"/>
<path d="M69.2766 22.6897H67.8365V23.9138H69.2766V22.6897Z" fill="#54585A"/>
<path d="M70.4938 24.8104C70.4938 26.1207 69.5338 26.9828 68.4537 26.9828C67.425 26.9828 66.4478 25.9828 66.4478 24.8448C66.4478 23.8621 66.7564 23.2241 66.7564 23.2241H65.2819C65.1105 23.7931 65.0591 24.1379 65.0591 24.8448C65.0591 26.8621 66.5849 28.4138 68.4365 28.4138C70.3738 28.4138 71.8997 27.0173 71.8997 24.8621V21.8793H70.4938V24.8104Z" fill="#54585A"/>
<path d="M82.0149 27.1897H80.5748V28.4138H82.0149V27.1897Z" fill="#54585A"/>
<path d="M84.1065 27.1897H82.6664V28.4138H84.1065V27.1897Z" fill="#54585A"/>
<path d="M92.1816 24.5345C92.1816 24.9483 91.9415 25.1724 91.5643 25.1724H85.0838C84.4494 25.1724 84.0722 24.7759 84.0722 24.1379V22.1897H82.6493V24.3276C82.6493 24.931 82.3578 25.1724 81.8092 25.1724H75.38C75.0028 25.1724 74.78 24.9483 74.78 24.5345V19.7069H73.3741V24.4483C73.3741 25.0517 73.4941 26.5862 75.2771 26.5862H82.2206C82.8721 26.5862 83.4207 26.2931 83.6779 25.8448C83.9522 26.2241 84.4151 26.5862 85.1866 26.5862H91.7015C93.4674 26.5862 93.6045 25.0517 93.6045 24.4483V21.8621H92.1816V24.5345Z" fill="#54585A"/>
<path d="M93.2959 27.1897H91.8558V28.4138H93.2959V27.1897Z" fill="#54585A"/>
<path d="M108.657 27.1897H107.217V28.4138H108.657V27.1897Z" fill="#54585A"/>
<path d="M107.543 24.5517C107.543 24.9655 107.303 25.1897 106.926 25.1897H99.6051V21.8793H97.3249C95.799 21.8793 94.8389 22.8621 94.8389 24.1724C94.8389 25.5345 95.919 26.5862 97.3249 26.5862H98.1135C97.8564 27.1724 97.0849 27.1724 96.862 27.1724C96.5191 27.1724 96.1934 27.1035 95.9533 27.0173L96.3305 28.2759C96.5191 28.3276 96.8105 28.3793 97.0677 28.3966C98.0792 28.431 99.3994 28.0173 99.6051 26.5862H107.097C108.863 26.5862 109 25.0517 109 24.4483V21.8621H107.543V24.5517ZM98.165 25.1724H97.2735C96.6562 25.1724 96.2962 24.6897 96.2962 24.1724C96.2962 23.6897 96.6562 23.1379 97.2735 23.1379H98.165V25.1724Z" fill="#54585A"/>
<path d="M36.6676 1.31034C36.9762 1.32759 37.0963 0.913793 36.8048 0.844828C34.4046 0.275862 32.0044 0 29.6041 0C17.4316 0 5.96197 7.18966 0.270021 18.7759C-0.278601 19.8966 -0.00429029 21.0517 1.21296 21.5L7.77928 23.8793C8.80795 24.2586 9.95662 23.7586 10.3338 22.7759C15.8029 8.89655 25.318 0.948276 36.6676 1.31034Z" fill="#D22630"/>
<path d="M47.3143 10.6034C44.3655 5.53448 39.7022 2.87931 34.5246 2.87931C33.9931 2.87931 33.4616 2.91379 32.913 2.96552C32.8444 2.98276 32.7759 3.05172 32.7416 3.12069C32.7244 3.17241 32.7073 3.22414 32.7073 3.2931C32.7073 3.43103 32.793 3.56897 32.8959 3.60345L32.9987 3.62069C35.3132 4.22414 36.9248 5.74138 38.4678 8.60345C38.5364 8.72414 38.7593 9.17241 39.445 9.32759L46.7657 11.4828C46.8172 11.5 46.8514 11.5 46.9029 11.5C47.1943 11.5 47.4172 11.2414 47.4172 10.9138C47.4001 10.8103 47.3658 10.7069 47.3143 10.6034Z" fill="#D22630"/>
<path d="M68.3506 33.6724H70.8879V40.9655H72.4652V33.6724H75.1569V32.3103H68.3506V33.6724Z" fill="#D22630"/>
<path d="M80.9003 36.569C80.9003 35.8621 80.6774 35.3448 80.2317 34.9828C79.8202 34.6552 79.2544 34.5 78.5515 34.5C77.6771 34.5 76.8542 34.6897 76.0656 35.0517L76.5799 36.2069C77.1628 35.9483 77.7457 35.8276 78.3286 35.8276C79.0315 35.8276 79.3916 36.0172 79.3916 36.4138C79.3916 36.6897 79.0487 36.9138 78.3801 37.0517C77.3857 37.2759 76.7513 37.4483 76.4942 37.5862C75.8255 37.931 75.4826 38.4655 75.4826 39.1897C75.4826 39.8621 75.8084 40.3793 76.4427 40.7069C76.9399 40.9655 77.5571 41.1034 78.3115 41.1034C79.0144 41.1034 79.9059 40.9483 81.0032 40.6207C80.9517 40.2759 80.9174 40 80.9174 39.8276V36.569H80.9003ZM78.3115 39.8448C77.5228 39.8448 77.1457 39.5862 77.1457 39.069C77.1457 38.7931 77.3 38.6035 77.6086 38.4655C77.7457 38.3966 78.0715 38.3103 78.5858 38.2069C78.9801 38.1207 79.2544 38.0172 79.3916 37.8793V39.431C79.3916 39.4483 79.3916 39.4828 79.3916 39.5345C79.3916 39.569 79.4087 39.6207 79.4087 39.6724C79.0315 39.7931 78.6715 39.8448 78.3115 39.8448Z" fill="#D22630"/>
<path d="M84.9635 37.431L87.8781 34.6379H85.8893L83.8491 36.7931V31.6724H82.3404V40.9828H83.8491V38.0345C84.0891 38.2069 84.2777 38.3621 84.3978 38.5L86.4036 40.9655H88.2381L85.495 37.7586C85.3407 37.6035 85.1693 37.4828 84.9635 37.431Z" fill="#D22630"/>
<path d="M93.9815 36.569C93.9815 35.8621 93.7586 35.3448 93.3128 34.9828C92.8842 34.6552 92.3356 34.5 91.6156 34.5C90.7412 34.5 89.9183 34.6897 89.1296 35.0517L89.6439 36.2069C90.2269 35.9483 90.8098 35.8276 91.3927 35.8276C92.0956 35.8276 92.4556 36.0172 92.4556 36.4138C92.4556 36.6897 92.1127 36.9138 91.4441 37.0517C90.4497 37.2759 89.8154 37.4483 89.5582 37.5862C88.8896 37.931 88.5467 38.4655 88.5467 39.1897C88.5467 39.8621 88.8724 40.3793 89.5068 40.7069C90.004 40.9655 90.6212 41.1034 91.3755 41.1034C92.0785 41.1034 92.97 40.9483 94.0672 40.6207C94.0158 40.2759 93.9815 40 93.9815 39.8276V36.569ZM91.3927 39.8448C90.604 39.8448 90.2269 39.5862 90.2269 39.069C90.2269 38.7931 90.3811 38.6035 90.6898 38.4655C90.8269 38.3966 91.1526 38.3103 91.667 38.2069C92.0785 38.1207 92.3356 38.0172 92.4728 37.8793V39.431C92.4728 39.4483 92.4728 39.4828 92.4728 39.5345C92.4728 39.569 92.4899 39.6207 92.4899 39.6724C92.1127 39.7931 91.7527 39.8448 91.3927 39.8448Z" fill="#D22630"/>
<path d="M96.1245 31.931C95.7474 32.2241 95.5588 32.6724 95.5588 33.2414V34.6379L94.8387 34.6724V35.8966L95.5588 35.9138V40.9655H97.0675V35.931H98.7648V34.6207H97.0675V33.3621C97.0675 32.9655 97.2732 32.7586 97.6847 32.7586C98.0276 32.7586 98.439 32.8793 98.9362 33.1034L99.3306 31.9138C98.5591 31.6552 97.959 31.5172 97.5132 31.5172C96.9475 31.5345 96.4846 31.6724 96.1245 31.931Z" fill="#D22630"/>
<path d="M104.954 39.5862V34.6379H103.445V39.2414C103.445 39.2586 103.445 39.2931 103.445 39.3448C103.445 39.3793 103.462 39.4483 103.462 39.5172C102.982 39.7069 102.554 39.7931 102.194 39.7931C101.354 39.7931 100.942 39.3966 100.942 38.6207V34.6379H99.4334V38.8621C99.4334 40.3621 100.342 41.1034 102.177 41.1034C102.931 41.1034 103.874 40.8966 105.04 40.4828C105.005 40.2759 104.988 40.1035 104.971 39.9655C104.954 39.8103 104.954 39.6897 104.954 39.5862Z" fill="#D22630"/>
<path d="M108.623 39.6897C108.4 39.7759 108.229 39.8276 108.143 39.8276C107.937 39.8276 107.834 39.6897 107.834 39.431V31.6552H106.325V39.7759C106.325 40.6379 106.788 41.0862 107.714 41.0862C108.108 41.0862 108.52 41.0172 108.966 40.8621L108.623 39.6897Z" fill="#D22630"/>
<path d="M33.9074 26.5862C35.6733 26.5862 35.8104 25.0517 35.8104 24.4483L35.8276 21.3793C33.5131 21.3793 31.5929 21.2241 31.5415 23.1207C31.5072 24.0517 32.3644 24.569 33.0845 24.569C33.6331 24.569 34.0617 24.3966 34.3874 24V24.5345C34.3874 24.9483 34.1646 25.1724 33.7874 25.1724H26.7753C26.141 25.1724 25.7638 24.7759 25.7638 24.1379V19.7069H24.3579V24.7931C24.3579 26.1034 23.3979 26.9655 22.3178 26.9655C21.2891 26.9655 20.3119 25.9655 20.3119 24.8276C20.3119 23.8448 20.6205 23.2069 20.6205 23.2069H19.146C18.9746 23.7759 18.9232 24.1379 18.9232 24.8276C18.9232 26.8448 20.449 28.3966 22.3006 28.3966C23.8265 28.3966 25.1123 27.5345 25.5752 26.1034C25.8667 26.3621 26.2781 26.5862 26.861 26.5862H33.9074ZM33.5988 23.6207C33.2045 23.6207 32.8959 23.3276 32.8959 22.9483C32.8959 22.1724 33.9074 22.1897 34.4046 22.1897C34.4046 22.7586 34.3703 23.6207 33.5988 23.6207Z" fill="#D22630"/>
<path d="M34.696 19.2241H33.2559V20.4483H34.696V19.2241Z" fill="#D22630"/>
<path d="M59.7612 19.7241H58.3211V20.9483H59.7612V19.7241Z" fill="#D22630"/>
<path d="M53.4692 25.1724C53.6063 24.8793 53.6921 24.5345 53.6921 24.1724C53.6921 22.8448 52.732 21.7414 51.2061 21.7414H48.103C48.343 21.3966 48.7716 21.0862 49.5945 21.0862H51.1718V19.7241H49.4917C47.7258 19.7241 46.2685 21 46.2685 23.1552H51.189C51.8233 23.1552 52.2176 23.6207 52.2176 24.1897C52.2176 24.7241 51.7547 25.1724 51.2233 25.1897H39.2565C38.8964 25.1897 38.6564 24.9655 38.6564 24.5517V19.7241H37.2506V24.4655C37.2506 25.069 37.3706 26.6034 39.1536 26.6034H59.9498C61.7157 26.6034 61.8528 25.069 61.8528 24.4655V21.8793H60.4298V24.5517C60.4298 24.9655 60.1898 25.1897 59.8126 25.1897H53.4692V25.1724Z" fill="#D22630"/>
<path d="M61.8357 19.7241H60.3955V20.9483H61.8357V19.7241Z" fill="#D22630"/>
</svg>
