<svg width="18" height="8" viewBox="0 0 18 8" fill="none" xmlns="http://www.w3.org/2000/svg">
<path d="M0.313765 4.35355C0.118503 4.15829 0.118503 3.84171 0.313765 3.64645L3.49575 0.464466C3.69101 0.269204 4.00759 0.269204 4.20285 0.464466C4.39811 0.659728 4.39811 0.976311 4.20285 1.17157L1.37443 4L4.20285 6.82843C4.39811 7.02369 4.39811 7.34027 4.20285 7.53553C4.00759 7.7308 3.69101 7.7308 3.49575 7.53553L0.313765 4.35355ZM17.334 4.5H0.667318V3.5H17.334V4.5Z" fill="white"/>
</svg>
