<svg width="100" height="100" viewBox="0 0 100 100" fill="none" xmlns="http://www.w3.org/2000/svg">
<circle cx="50" cy="50" r="50" fill="#D22630"/>
<path d="M50 25C36.2142 25 25 36.2152 25 50C25 63.7848 36.2142 75 50 75C63.7858 75 75 63.7848 75 50C75 36.2152 63.7858 25 50 25ZM50 72.9167C37.3637 72.9167 27.0833 62.6363 27.0833 50C27.0833 37.3637 37.3637 27.0833 50 27.0833C62.6363 27.0833 72.9167 37.3637 72.9167 50C72.9167 62.6363 62.6363 72.9167 50 72.9167Z" fill="white"/>
<path d="M59.9386 49.1241L45.3553 39.7491C45.0358 39.5406 44.6229 39.5294 44.2933 39.7105C43.9575 39.8936 43.75 40.2436 43.75 40.625V59.375C43.75 59.7564 43.9575 60.1064 44.2933 60.2896C44.4479 60.374 44.6208 60.4167 44.7917 60.4167C44.987 60.4167 45.1844 60.3617 45.3553 60.2509L59.9386 50.8759C60.2356 50.6847 60.4167 50.354 60.4167 50C60.4167 49.646 60.2356 49.3154 59.9386 49.1241ZM45.8333 57.4666V42.5334L57.4483 50L45.8333 57.4666Z" fill="white"/>
</svg>
