<svg width="160" height="51" viewBox="0 0 160 51" fill="none" xmlns="http://www.w3.org/2000/svg">
<path d="M160 45.3974C160 46.0293 159.876 46.655 159.636 47.2388C159.396 47.8226 159.044 48.3529 158.6 48.7995C158.155 49.2461 157.628 49.6002 157.048 49.8415C156.468 50.0829 155.847 50.2068 155.219 50.2061H4.78674C3.51876 50.2074 2.30216 49.7016 1.40451 48.7999C0.506856 47.8982 0.00165205 46.6744 0 45.3977V5.02068C0.0016513 3.7434 0.506656 2.51899 1.40413 1.61629C2.3016 0.713586 3.51818 0.206386 4.78674 0.206055H155.218C155.846 0.206013 156.468 0.330526 157.048 0.57248C157.628 0.814435 158.155 1.16909 158.599 1.61619C159.043 2.06329 159.395 2.59407 159.635 3.17822C159.876 3.76237 159.999 4.38844 159.999 5.02068L160 45.3974Z" fill="#202020"/>
<path d="M39.2101 23.8904C39.178 20.3529 42.1345 18.6318 42.2696 18.5518C40.5953 16.134 38.0002 15.8037 37.0881 15.7774C34.9086 15.55 32.7944 17.0691 31.6838 17.0691C30.5514 17.0691 28.8417 15.799 26.9991 15.8366C24.6276 15.8728 22.409 17.2329 21.1924 19.3442C18.6814 23.6501 20.5542 29.9773 22.9597 33.4575C24.1633 35.1631 25.5693 37.0652 27.41 36.9983C29.2108 36.9259 29.8833 35.8624 32.0562 35.8624C34.2092 35.8624 34.841 36.998 36.718 36.9555C38.6506 36.9259 39.8671 35.2432 41.0286 33.5233C42.4191 31.5708 42.9778 29.6459 43 29.5469C42.9557 29.5316 39.2478 28.129 39.2101 23.8904ZM35.6642 13.4877C36.6327 12.2882 37.2952 10.656 37.1114 9C35.7096 9.06145 33.9567 9.96009 32.9472 11.1336C32.054 12.1675 31.2563 13.8621 31.4623 15.4556C33.0369 15.5719 34.6536 14.6689 35.6642 13.4877Z" fill="white"/>
<path d="M64.6631 37.1084H62.1651L60.7967 32.81H56.0407L54.7372 37.1084H52.3054L57.0186 22.4745H59.929L64.6631 37.1084ZM60.3844 31.0068L59.1469 27.1855C59.016 26.7952 58.7695 25.8756 58.4089 24.4286H58.365C58.2196 25.0511 57.9876 25.9704 57.6696 27.1852L56.4532 31.0068H60.3844ZM76.7602 31.7026C76.7602 33.4973 76.2729 34.9157 75.2972 35.9571C74.4238 36.8841 73.3382 37.3472 72.0435 37.3472C70.6457 37.3472 69.6403 36.8489 69.0296 35.8504V41.3873H66.6847V30.0248C66.6847 28.8974 66.6551 27.7417 66.5979 26.5564H68.6603L68.7911 28.229H68.8351C69.6172 26.9689 70.804 26.3387 72.3969 26.3387C73.6419 26.3387 74.6813 26.8301 75.5127 27.8146C76.3433 28.8007 76.7602 30.0962 76.7602 31.7026ZM74.371 31.7884C74.371 30.7613 74.1402 29.9146 73.6757 29.2473C73.1689 28.5533 72.4879 28.2057 71.6345 28.2057C71.0557 28.2057 70.53 28.3994 70.0605 28.7809C69.5897 29.1657 69.2817 29.6686 69.1376 30.2908C69.0732 30.5236 69.0366 30.7632 69.0285 31.0046V32.7649C69.0285 33.5317 69.2641 34.1792 69.7349 34.7091C70.2056 35.2367 70.8172 35.502 71.5694 35.502C72.4527 35.502 73.1403 35.1601 73.632 34.4815C74.1245 33.8007 74.371 32.9034 74.371 31.7884ZM88.9001 31.7026C88.9001 33.4973 88.4129 34.9157 87.4372 35.9571C86.5627 36.8841 85.4782 37.3472 84.1823 37.3472C82.7845 37.3472 81.7792 36.8489 81.1685 35.8504V41.3873H78.8236V30.0248C78.8236 28.8974 78.7939 27.7417 78.7368 26.5564H80.7991L80.93 28.229H80.9739C81.7547 26.9689 82.9417 26.3387 84.5355 26.3387C85.7794 26.3387 86.8188 26.8301 87.6527 27.8146C88.4821 28.8007 88.9001 30.0962 88.9001 31.7026ZM86.5099 31.7884C86.5099 30.7613 86.2777 29.9146 85.8135 29.2473C85.3064 28.5533 84.6278 28.2057 83.7742 28.2057C83.1957 28.2057 82.6699 28.3994 82.198 28.7809C81.7273 29.1657 81.4203 29.6686 81.2765 30.2908C81.2051 30.581 81.1666 30.8174 81.1666 31.0046V32.7649C81.1666 33.5317 81.403 34.1792 81.8715 34.7091C82.3423 35.2359 82.9538 35.502 83.7083 35.502C84.5927 35.502 85.2803 35.1601 85.7706 34.4815C86.2634 33.8007 86.5099 32.9034 86.5099 31.7884ZM102.473 33.0037C102.473 34.2495 102.037 35.2623 101.172 36.0442C100.219 36.8973 98.8895 37.3249 97.1848 37.3249C95.6097 37.3249 94.3468 37.0218 93.3942 36.4136L93.9365 34.4595C94.9649 35.0688 96.0948 35.372 97.3244 35.372C98.2088 35.372 98.8964 35.1722 99.3867 34.775C99.8787 34.3771 100.127 33.8447 100.127 33.1807C100.127 32.5857 99.9213 32.0877 99.5175 31.6818C99.1119 31.2772 98.4407 30.8999 97.4981 30.5536C94.9352 29.598 93.6529 28.2004 93.6529 26.3618C93.6529 25.1608 94.1061 24.178 95.0103 23.4093C95.9145 22.6416 97.1133 22.2577 98.6048 22.2577C99.9367 22.2577 101.046 22.4899 101.928 22.953L101.339 24.8639C100.51 24.4154 99.5736 24.1912 98.5265 24.1912C97.6992 24.1912 97.0506 24.3945 96.5862 24.7991C96.1959 25.161 95.998 25.6019 95.998 26.1254C95.998 26.7026 96.2234 27.1822 96.6722 27.5581C97.0616 27.9044 97.7721 28.2818 98.7994 28.6863C100.06 29.1945 100.986 29.786 101.579 30.4656C102.176 31.1453 102.473 31.9931 102.473 33.0037ZM110.246 28.3159H107.661V33.439C107.661 34.742 108.117 35.392 109.03 35.392C109.449 35.392 109.797 35.3568 110.071 35.2832L110.136 37.0636C109.675 37.2362 109.066 37.323 108.313 37.323C107.387 37.323 106.663 37.0405 106.14 36.4751C105.62 35.9098 105.358 34.9633 105.358 33.6306V28.3112H103.818V26.552H105.358V24.6199L107.661 23.9248V26.5523H110.246V28.3159ZM121.886 31.7458C121.886 33.3673 121.422 34.6992 120.496 35.7405C119.527 36.8126 118.237 37.3472 116.63 37.3472C115.079 37.3472 113.846 36.8335 112.927 35.8076C112.007 34.7797 111.548 33.4841 111.548 31.9214C111.548 30.2862 112.023 28.9469 112.97 27.9055C113.919 26.8631 115.197 26.3417 116.804 26.3417C118.353 26.3417 119.597 26.8565 120.539 27.8836C121.438 28.8798 121.886 30.1669 121.886 31.7458ZM119.455 31.7994C119.455 30.8328 119.246 30.0039 118.827 29.3099C118.335 28.472 117.631 28.0531 116.719 28.0531C115.78 28.0531 115.059 28.472 114.569 29.3099C114.149 30.0039 113.94 30.8471 113.94 31.8434C113.94 32.8111 114.149 33.6424 114.569 34.3342C115.076 35.1722 115.783 35.591 116.7 35.591C117.596 35.591 118.299 35.1634 118.807 34.313C119.239 33.6028 119.455 32.7685 119.455 31.7994ZM129.512 28.6182C129.268 28.5742 129.02 28.5524 128.772 28.5533C127.948 28.5533 127.31 28.8633 126.861 29.488C126.471 30.0377 126.275 30.733 126.275 31.5718V37.1086H123.931V29.8794C123.933 28.7717 123.91 27.6641 123.862 26.5575H125.905L125.991 28.5764H126.056C126.304 27.8825 126.694 27.3229 127.228 26.9038C127.718 26.5378 128.312 26.3396 128.923 26.3387C129.14 26.3387 129.335 26.3541 129.509 26.3816L129.512 28.6182ZM139.999 31.3333C140.005 31.6896 139.977 32.0458 139.914 32.3966H132.879C132.905 33.439 133.246 34.2374 133.899 34.7871C134.492 35.2777 135.259 35.5239 136.2 35.5239C137.242 35.5239 138.192 35.359 139.047 35.0259L139.414 36.6521C138.416 37.0877 137.236 37.3043 135.876 37.3043C134.239 37.3043 132.954 36.8225 132.019 35.8614C131.087 34.8995 130.619 33.6061 130.619 31.9863C130.619 30.3964 131.054 29.0714 131.924 28.0146C132.835 26.8862 134.065 26.3222 135.614 26.3222C137.135 26.3222 138.287 26.8862 139.069 28.0146C139.688 28.9084 139.999 30.0171 139.999 31.3333ZM137.763 30.7251C137.78 30.0292 137.626 29.4298 137.308 28.9227C136.902 28.2697 136.277 27.9443 135.44 27.9443C134.674 27.9443 134.049 28.262 133.574 28.8996C133.183 29.4067 132.951 30.016 132.88 30.7229L137.763 30.7251ZM55.3643 17.3008C54.7119 17.3008 54.1476 17.2689 53.6779 17.215V10.14C54.3348 10.0385 54.9987 9.98856 55.6633 9.99047C58.3529 9.99047 59.5913 11.3132 59.5913 13.4696C59.5913 15.9568 58.1283 17.3008 55.3643 17.3008ZM55.7579 10.8974C55.3951 10.8974 55.0859 10.9194 54.8298 10.9725V16.3507C54.9683 16.3727 55.2343 16.3826 55.6084 16.3826C57.3706 16.3826 58.3738 15.3794 58.3738 13.5015C58.3738 11.8266 57.4663 10.8974 55.7579 10.8974ZM63.451 17.3547C61.9353 17.3547 60.9528 16.2232 60.9528 14.6868C60.9528 13.0859 61.9559 11.9443 63.5368 11.9443C65.0305 11.9443 66.0348 13.0222 66.0348 14.6022C66.0348 16.2232 64.9997 17.3547 63.451 17.3547ZM63.495 12.7869C62.6623 12.7869 62.1288 13.5652 62.1288 14.6539C62.1288 15.7216 62.6733 16.5002 63.4838 16.5002C64.2942 16.5002 64.839 15.6677 64.839 14.6319C64.839 13.5765 64.3058 12.7869 63.495 12.7869ZM74.678 12.0512L73.0554 17.237H71.9984L71.3264 14.985C71.1593 14.4341 71.0201 13.8751 70.9095 13.3102H70.8875C70.8029 13.8753 70.6424 14.4417 70.4717 14.985L69.7568 17.237H68.6888L67.1621 12.0509H68.3467L68.934 14.5164C69.0728 15.1038 69.1893 15.6578 69.2861 16.1814H69.308C69.3927 15.7447 69.5312 15.1994 69.7349 14.5274L70.4717 12.0523H71.4111L72.1163 14.4747C72.2798 15.0377 72.4188 15.6075 72.5329 16.1825H72.5637C72.6388 15.6493 72.7561 15.0829 72.9158 14.4747L73.546 12.0523L74.678 12.0512ZM80.6504 17.237H79.4978V14.2592C79.4978 13.3421 79.146 12.8823 78.4518 12.8823C77.7688 12.8823 77.2991 13.4696 77.2991 14.1526V17.237H76.1462V13.5331C76.1462 13.0747 76.1352 12.583 76.1033 12.0498H77.1175L77.1713 12.8501H77.2035C77.5135 12.2961 78.1426 11.944 78.8478 11.944C79.9367 11.944 80.6515 12.7767 80.6515 14.1314L80.6504 17.237ZM83.8295 17.237H82.6754V9.67139H83.8295V17.237ZM88.0322 17.3547C86.5176 17.3547 85.534 16.2232 85.534 14.6868C85.534 13.0859 86.5371 11.9443 88.1169 11.9443C89.6117 11.9443 90.6148 13.0222 90.6148 14.6022C90.6159 16.2232 89.5798 17.3547 88.0322 17.3547ZM88.0751 12.7869C87.2424 12.7869 86.7092 13.5652 86.7092 14.6539C86.7092 15.7216 87.2544 16.5002 88.063 16.5002C88.8746 16.5002 89.4179 15.6677 89.4179 14.6319C89.4193 13.5765 88.8867 12.7869 88.0751 12.7869ZM95.1598 17.237L95.0762 16.6398H95.0454C94.6934 17.1205 94.1797 17.3544 93.5284 17.3544C92.5991 17.3544 91.939 16.7036 91.939 15.8282C91.939 14.5483 93.049 13.8862 94.9704 13.8862V13.7906C94.9704 13.1079 94.6087 12.7657 93.8936 12.7657C93.3824 12.7657 92.9333 12.8944 92.5387 13.1505L92.3042 12.3931C92.7838 12.0941 93.3821 11.9443 94.0852 11.9443C95.4401 11.9443 96.1244 12.6591 96.1244 14.0899V16C96.1244 16.5233 96.1475 16.9289 96.1992 17.2381L95.1598 17.237ZM95.0012 14.6539C93.721 14.6539 93.0787 14.9641 93.0787 15.6996C93.0787 16.2438 93.4096 16.5101 93.8694 16.5101C94.4557 16.5101 95.0012 16.0627 95.0012 15.4544V14.6539ZM101.722 17.237L101.668 16.4043H101.636C101.305 17.0336 100.749 17.3547 99.9707 17.3547C98.7203 17.3547 97.7941 16.255 97.7941 14.708C97.7941 13.0859 98.7543 11.9432 100.065 11.9432C100.76 11.9432 101.251 12.1776 101.528 12.6481H101.551V9.67166H102.705V15.8389C102.705 16.3405 102.717 16.8099 102.748 17.2367L101.722 17.237ZM101.552 14.1855C101.552 13.4597 101.071 12.8405 100.337 12.8405C99.4824 12.8405 98.9602 13.5982 98.9602 14.6648C98.9602 15.7106 99.5022 16.4265 100.314 16.4265C101.039 16.4265 101.551 15.7963 101.551 15.0496L101.552 14.1855ZM110.021 17.3544C108.506 17.3544 107.524 16.2232 107.524 14.6868C107.524 13.0859 108.527 11.9443 110.107 11.9443C111.602 11.9443 112.605 13.0222 112.605 14.6022C112.606 16.2232 111.571 17.3544 110.021 17.3544ZM110.064 12.7866C109.232 12.7866 108.699 13.5652 108.699 14.6539C108.699 15.7216 109.243 16.5002 110.053 16.5002C110.865 16.5002 111.408 15.6677 111.408 14.6319C111.41 13.5765 110.877 12.7866 110.064 12.7866ZM118.804 17.237H117.65V14.2592C117.65 13.3421 117.298 12.8823 116.604 12.8823C115.921 12.8823 115.452 13.4696 115.452 14.1526V17.237H114.298V13.5331C114.298 13.0747 114.287 12.583 114.256 12.0498H115.27L115.324 12.8501H115.355C115.665 12.2961 116.295 11.9432 116.999 11.9432C118.088 11.9432 118.804 12.7754 118.804 14.1303V17.237ZM126.56 12.9153H125.291V15.4336C125.291 16.0747 125.513 16.3947 125.962 16.3947C126.165 16.3947 126.336 16.3727 126.474 16.3408L126.505 17.2161C126.282 17.3019 125.983 17.3448 125.611 17.3448C124.703 17.3448 124.159 16.8432 124.159 15.5303V12.9153H123.403V12.0512H124.159V11.1008L125.291 10.7586V12.0498H126.559L126.56 12.9153ZM132.662 17.237H131.51V14.2812C131.51 13.3531 131.159 12.8834 130.464 12.8834C129.867 12.8834 129.31 13.2893 129.31 14.1108V17.237H128.159V9.67139H129.31V12.7866H129.333C129.696 12.2216 130.222 11.9432 130.893 11.9432C131.991 11.9432 132.662 12.7965 132.662 14.1526V17.237ZM138.914 14.921H135.455C135.477 15.903 136.127 16.4573 137.089 16.4573C137.601 16.4573 138.071 16.3716 138.487 16.2122L138.666 17.0128C138.176 17.226 137.598 17.3327 136.926 17.3327C135.304 17.3327 134.344 16.3075 134.344 14.719C134.344 13.1288 135.327 11.9333 136.797 11.9333C138.122 11.9333 138.954 12.9153 138.954 14.3985C138.961 14.5736 138.948 14.749 138.914 14.921ZM137.857 14.0998C137.857 13.2992 137.453 12.7339 136.716 12.7339C136.054 12.7339 135.53 13.3102 135.456 14.0998H137.857Z" fill="white"/>
</svg>
