<svg width="25" height="25" viewBox="0 0 25 25" fill="none" xmlns="http://www.w3.org/2000/svg">
<path d="M24.9507 10.1985C24.4104 4.41607 19.5557 -0.00352597 13.7483 0.000136117C8.33133 -0.0264262 3.67589 3.83736 2.70358 9.16677C2.59573 9.19069 2.49227 9.23132 2.39691 9.28718L1.08244 10.0772C0.634419 10.3412 0.305923 10.7684 0.165843 11.2692C-0.322067 13.0371 0.0329408 16.0771 4.47726 20.5217C8.00454 24.0491 10.6473 25 12.4714 25C12.8961 25.0019 13.3192 24.9465 13.7292 24.8354C14.2301 24.6955 14.6574 24.3669 14.9212 23.9187L15.7128 22.6025C15.7681 22.507 15.8081 22.4036 15.8316 22.2958C21.539 21.2235 25.4909 15.9809 24.9507 10.1985ZM14.9962 22.1733L14.2067 23.4896C14.0524 23.7534 13.8022 23.9474 13.5084 24.0312C11.311 24.6333 8.31282 23.1783 5.06594 19.9312C1.81907 16.6842 0.363732 13.6875 0.966626 11.49C1.05031 11.1961 1.24434 10.9459 1.50824 10.7917L2.82565 10.0001C2.93545 9.93414 3.07773 9.96627 3.14853 10.073L5.24884 13.2225C5.31808 13.3269 5.29542 13.467 5.19675 13.5442L4.01806 14.4608C3.59831 14.7828 3.47868 15.3642 3.73726 15.8258L3.83018 15.9962C4.42204 17.0824 5.1902 18.0626 6.10338 18.897C6.9378 19.8107 7.91851 20.5791 9.00531 21.1707L9.17449 21.2632C9.63589 21.5227 10.2179 21.403 10.5394 20.9824L11.456 19.8041C11.5335 19.7054 11.6737 19.6826 11.7785 19.7516L14.9258 21.8503C15.0318 21.9219 15.0628 22.0642 14.9962 22.1733ZM15.6936 21.4738C15.6141 21.3482 15.5095 21.2405 15.3861 21.1575L12.238 19.0583C11.7696 18.7494 11.1426 18.8515 10.7964 19.2929L9.87982 20.4712C9.80912 20.5647 9.68051 20.5922 9.57774 20.5358L9.40231 20.4396C8.3862 19.8848 7.46966 19.1645 6.69041 18.3083C5.8345 17.5294 5.11443 16.6132 4.55972 15.5975L4.46305 15.4209C4.40651 15.3182 4.43405 15.1897 4.52765 15.1192L5.7059 14.2026C6.14815 13.8567 6.2501 13.2289 5.94006 12.7609L3.84185 9.61222C3.75884 9.48879 3.65099 9.38405 3.52521 9.3047C4.52584 4.02457 9.38058 0.373766 14.7307 0.87801C20.0807 1.3823 24.1679 5.87597 24.1644 11.2501C24.1892 16.2598 20.6204 20.5671 15.6936 21.4738Z" fill="#D22630"/>
<path d="M13.7483 2.08347C10.0655 2.08972 6.74211 4.2941 5.30382 7.6847C5.26071 7.7865 5.25988 7.9013 5.30143 8.00374C5.34298 8.10618 5.42359 8.18792 5.52544 8.23093C5.57665 8.25291 5.63178 8.26423 5.68749 8.26428C5.85481 8.26433 6.00598 8.16424 6.07121 8.01013C7.37376 4.92339 10.3981 2.91691 13.7482 2.91686C13.9784 2.91686 14.1649 2.73034 14.1649 2.50021C14.1649 2.27009 13.9785 2.08347 13.7483 2.08347Z" fill="#D22630"/>
<path d="M16.9881 18.9275C16.851 18.9855 16.7553 19.1123 16.7371 19.2601C16.7188 19.4079 16.7807 19.5541 16.8996 19.6438C17.0184 19.7335 17.176 19.753 17.3131 19.695C20.7079 18.2618 22.9144 14.935 22.9144 11.25C22.9144 11.0199 22.7279 10.8334 22.4978 10.8334C22.2677 10.8334 22.0812 11.0199 22.0812 11.25C22.0753 14.5987 20.0709 17.6203 16.9881 18.9275Z" fill="#D22630"/>
<path d="M12.4984 7.50008H9.99856C9.53833 7.50008 9.16526 7.87317 9.16526 8.33342V9.16677C9.16526 9.39689 9.35177 9.58341 9.58189 9.58341C9.812 9.58341 9.99851 9.39689 9.99851 9.16677V8.33342H12.4984V9.2634C12.4983 9.36637 12.4602 9.46564 12.3913 9.54215L9.48145 12.7759C9.26135 13.0204 9.20574 13.3717 9.33957 13.6723C9.4734 13.9729 9.77157 14.1666 10.1006 14.1667H12.915C13.1452 14.1667 13.3317 13.9802 13.3317 13.7501C13.3317 13.52 13.1451 13.3334 12.915 13.3334H10.1006L13.0104 10.1001C13.2176 9.87077 13.3321 9.57253 13.3317 9.26345V8.33347C13.3317 8.11248 13.2439 7.90052 13.0876 7.74422C12.9314 7.58787 12.7194 7.50008 12.4984 7.50008Z" fill="#D22630"/>
<path d="M17.0815 13.75C17.0815 13.9802 17.268 14.1667 17.4981 14.1667C17.7282 14.1667 17.9147 13.9802 17.9147 13.75V12.5H18.3314C18.5615 12.5 18.748 12.3135 18.748 12.0834C18.748 11.8533 18.5615 11.6667 18.3314 11.6667H17.9147V10.8334C17.9147 10.6033 17.7282 10.4168 17.4981 10.4168C17.268 10.4168 17.0815 10.6033 17.0815 10.8334V11.6667H15.2558L17.0398 8.10301C17.1427 7.89705 17.0591 7.64671 16.8532 7.54383C16.6472 7.44095 16.3969 7.52454 16.294 7.7305L14.5125 11.2942C14.3836 11.5522 14.3972 11.8585 14.5485 12.104C14.6999 12.3496 14.9674 12.4994 15.2558 12.5001H17.0815V13.75Z" fill="#D22630"/>
</svg>
