<svg width="30" height="30" viewBox="0 0 30 30" fill="none" xmlns="http://www.w3.org/2000/svg">
<circle cx="15" cy="15" r="14.5" fill="#D22630" stroke="white"/>
<path d="M16.1426 22.5H13.8477V11.6992H16.1426V22.5ZM13.7109 8.83789C13.7109 8.42773 13.8216 8.11198 14.043 7.89062C14.2708 7.66927 14.5931 7.55859 15.0098 7.55859C15.4134 7.55859 15.7259 7.66927 15.9473 7.89062C16.1751 8.11198 16.2891 8.42773 16.2891 8.83789C16.2891 9.22852 16.1751 9.53776 15.9473 9.76562C15.7259 9.98698 15.4134 10.0977 15.0098 10.0977C14.5931 10.0977 14.2708 9.98698 14.043 9.76562C13.8216 9.53776 13.7109 9.22852 13.7109 8.83789Z" fill="white"/>
</svg>
