<svg width="14" height="7" viewBox="0 0 14 7" fill="none" xmlns="http://www.w3.org/2000/svg">
<path d="M0.5 3.5H13.5M13.5 3.5L11 1M13.5 3.5L11 6" stroke="#D22630" stroke-linecap="round" stroke-linejoin="round"/>
</svg>
