<svg width="14" height="7" viewBox="0 0 14 7" fill="none" xmlns="http://www.w3.org/2000/svg">
<path d="M13.5 3.5H0.5M0.5 3.5L3 1M0.5 3.5L3 6" stroke="#D22630" stroke-linecap="round" stroke-linejoin="round"/>
</svg>
