<svg width="243" height="32" viewBox="0 0 243 32" fill="none" xmlns="http://www.w3.org/2000/svg">
<path d="M134.082 8.00586H135.333L131.73 18H130.582L127 8.00586H128.23L130.527 14.4727C130.792 15.2155 131.001 15.9378 131.156 16.6396C131.32 15.9014 131.535 15.1654 131.799 14.4316L134.082 8.00586ZM136.714 18V8.00586H137.876V18H136.714ZM146.264 15.3408C146.264 16.2204 145.945 16.9062 145.307 17.3984C144.669 17.8906 143.803 18.1367 142.709 18.1367C141.524 18.1367 140.613 17.984 139.975 17.6787V16.5576C140.385 16.7308 140.831 16.8675 141.314 16.9678C141.798 17.068 142.276 17.1182 142.75 17.1182C143.525 17.1182 144.108 16.9723 144.5 16.6807C144.892 16.3844 145.088 15.9743 145.088 15.4502C145.088 15.1038 145.017 14.8213 144.876 14.6025C144.739 14.3792 144.507 14.1742 144.179 13.9873C143.855 13.8005 143.361 13.5885 142.695 13.3516C141.766 13.0189 141.1 12.6247 140.699 12.1689C140.303 11.7132 140.104 11.1185 140.104 10.3848C140.104 9.61458 140.394 9.00163 140.973 8.5459C141.551 8.09017 142.317 7.8623 143.27 7.8623C144.263 7.8623 145.177 8.0446 146.011 8.40918L145.648 9.4209C144.824 9.07454 144.021 8.90137 143.242 8.90137C142.627 8.90137 142.146 9.03353 141.8 9.29785C141.453 9.56217 141.28 9.92904 141.28 10.3984C141.28 10.7448 141.344 11.0296 141.472 11.2529C141.599 11.4717 141.813 11.6745 142.114 11.8613C142.42 12.0436 142.884 12.2464 143.509 12.4697C144.557 12.8434 145.277 13.2445 145.669 13.6729C146.065 14.1012 146.264 14.6572 146.264 15.3408ZM154.59 18L153.346 14.8213H149.34L148.109 18H146.934L150.885 7.96484H151.862L155.793 18H154.59ZM152.983 13.7754L151.821 10.6787C151.671 10.2868 151.516 9.80599 151.356 9.23633C151.256 9.67383 151.113 10.1546 150.926 10.6787L149.75 13.7754H152.983ZM164.427 8.00586L160.701 18H159.566L163.292 8.00586H164.427ZM174.004 18L170.613 9.14062H170.559C170.622 9.84245 170.654 10.6764 170.654 11.6426V18H169.581V8.00586H171.331L174.496 16.25H174.551L177.743 8.00586H179.479V18H178.317V11.5605C178.317 10.8223 178.349 10.0202 178.413 9.1543H178.358L174.94 18H174.004ZM186.664 18L186.438 16.9336H186.384C186.01 17.403 185.636 17.722 185.263 17.8906C184.894 18.0547 184.431 18.1367 183.875 18.1367C183.132 18.1367 182.549 17.9453 182.125 17.5625C181.706 17.1797 181.496 16.6351 181.496 15.9287C181.496 14.4157 182.706 13.6227 185.126 13.5498L186.397 13.5088V13.0439C186.397 12.4561 186.27 12.0231 186.015 11.7451C185.764 11.4626 185.361 11.3213 184.805 11.3213C184.18 11.3213 183.474 11.5127 182.686 11.8955L182.337 11.0273C182.706 10.8268 183.109 10.6696 183.547 10.5557C183.989 10.4417 184.431 10.3848 184.873 10.3848C185.766 10.3848 186.427 10.583 186.855 10.9795C187.288 11.376 187.505 12.0117 187.505 12.8867V18H186.664ZM184.101 17.2002C184.807 17.2002 185.361 17.0065 185.762 16.6191C186.167 16.2318 186.37 15.6895 186.37 14.9922V14.3154L185.235 14.3633C184.333 14.3952 183.681 14.5365 183.28 14.7871C182.884 15.0332 182.686 15.4183 182.686 15.9424C182.686 16.3525 182.809 16.6647 183.055 16.8789C183.305 17.0931 183.654 17.2002 184.101 17.2002ZM194.683 15.9561C194.683 16.6533 194.423 17.1911 193.903 17.5693C193.384 17.9476 192.655 18.1367 191.716 18.1367C190.722 18.1367 189.948 17.9795 189.392 17.665V16.6123C189.752 16.7946 190.137 16.9382 190.547 17.043C190.962 17.1478 191.36 17.2002 191.743 17.2002C192.336 17.2002 192.791 17.1068 193.11 16.9199C193.429 16.7285 193.589 16.4391 193.589 16.0518C193.589 15.7601 193.461 15.5117 193.206 15.3066C192.955 15.097 192.463 14.8509 191.729 14.5684C191.032 14.3086 190.535 14.083 190.239 13.8916C189.948 13.6956 189.729 13.4746 189.583 13.2285C189.442 12.9824 189.371 12.6885 189.371 12.3467C189.371 11.736 189.619 11.2552 190.116 10.9043C190.613 10.5488 191.294 10.3711 192.16 10.3711C192.967 10.3711 193.755 10.5352 194.525 10.8633L194.122 11.7861C193.37 11.4762 192.689 11.3213 192.078 11.3213C191.54 11.3213 191.135 11.4056 190.861 11.5742C190.588 11.7428 190.451 11.9753 190.451 12.2715C190.451 12.472 190.501 12.6429 190.602 12.7842C190.706 12.9255 190.873 13.0599 191.101 13.1875C191.328 13.3151 191.766 13.4997 192.413 13.7412C193.302 14.0648 193.901 14.3906 194.211 14.7188C194.525 15.0469 194.683 15.4593 194.683 15.9561ZM198.955 17.2002C199.156 17.2002 199.349 17.1865 199.536 17.1592C199.723 17.1273 199.871 17.0954 199.98 17.0635V17.9316C199.857 17.9909 199.675 18.0387 199.434 18.0752C199.197 18.1162 198.982 18.1367 198.791 18.1367C197.342 18.1367 196.617 17.3734 196.617 15.8467V11.3896H195.544V10.8428L196.617 10.3711L197.096 8.77148H197.752V10.5078H199.926V11.3896H197.752V15.7988C197.752 16.25 197.859 16.5964 198.073 16.8379C198.287 17.0794 198.581 17.2002 198.955 17.2002ZM204.649 18.1367C203.542 18.1367 202.667 17.7995 202.024 17.125C201.386 16.4505 201.067 15.514 201.067 14.3154C201.067 13.1077 201.364 12.1484 201.956 11.4375C202.553 10.7266 203.353 10.3711 204.355 10.3711C205.294 10.3711 206.037 10.681 206.584 11.3008C207.131 11.916 207.404 12.7295 207.404 13.7412V14.459H202.243C202.266 15.3385 202.487 16.0062 202.906 16.4619C203.33 16.9176 203.925 17.1455 204.69 17.1455C205.497 17.1455 206.295 16.9769 207.083 16.6396V17.6514C206.682 17.8245 206.301 17.9476 205.941 18.0205C205.586 18.098 205.155 18.1367 204.649 18.1367ZM204.342 11.3213C203.74 11.3213 203.259 11.5173 202.899 11.9092C202.544 12.3011 202.334 12.8434 202.271 13.5361H206.188C206.188 12.8206 206.028 12.2738 205.709 11.8955C205.39 11.5127 204.934 11.3213 204.342 11.3213ZM212.764 10.3711C213.096 10.3711 213.395 10.3984 213.659 10.4531L213.502 11.5059C213.192 11.4375 212.919 11.4033 212.682 11.4033C212.076 11.4033 211.556 11.6494 211.123 12.1416C210.695 12.6338 210.48 13.2467 210.48 13.9805V18H209.346V10.5078H210.282L210.412 11.8955H210.467C210.745 11.4079 211.08 11.0319 211.472 10.7676C211.864 10.5033 212.294 10.3711 212.764 10.3711ZM218.055 18.1367C216.97 18.1367 216.129 17.804 215.532 17.1387C214.94 16.4688 214.644 15.5231 214.644 14.3018C214.644 13.0485 214.944 12.0801 215.546 11.3965C216.152 10.7129 217.013 10.3711 218.13 10.3711C218.49 10.3711 218.85 10.4098 219.21 10.4873C219.57 10.5648 219.853 10.6559 220.058 10.7607L219.709 11.7246C219.458 11.6243 219.185 11.5423 218.889 11.4785C218.592 11.4102 218.33 11.376 218.103 11.376C216.58 11.376 215.819 12.3467 215.819 14.2881C215.819 15.2087 216.004 15.915 216.373 16.4072C216.747 16.8994 217.298 17.1455 218.027 17.1455C218.652 17.1455 219.292 17.0111 219.948 16.7422V17.7471C219.447 18.0068 218.816 18.1367 218.055 18.1367ZM226.34 18L226.114 16.9336H226.06C225.686 17.403 225.312 17.722 224.938 17.8906C224.569 18.0547 224.107 18.1367 223.551 18.1367C222.808 18.1367 222.225 17.9453 221.801 17.5625C221.382 17.1797 221.172 16.6351 221.172 15.9287C221.172 14.4157 222.382 13.6227 224.802 13.5498L226.073 13.5088V13.0439C226.073 12.4561 225.946 12.0231 225.69 11.7451C225.44 11.4626 225.036 11.3213 224.48 11.3213C223.856 11.3213 223.15 11.5127 222.361 11.8955L222.013 11.0273C222.382 10.8268 222.785 10.6696 223.223 10.5557C223.665 10.4417 224.107 10.3848 224.549 10.3848C225.442 10.3848 226.103 10.583 226.531 10.9795C226.964 11.376 227.181 12.0117 227.181 12.8867V18H226.34ZM223.776 17.2002C224.483 17.2002 225.036 17.0065 225.438 16.6191C225.843 16.2318 226.046 15.6895 226.046 14.9922V14.3154L224.911 14.3633C224.009 14.3952 223.357 14.5365 222.956 14.7871C222.56 15.0332 222.361 15.4183 222.361 15.9424C222.361 16.3525 222.484 16.6647 222.73 16.8789C222.981 17.0931 223.33 17.2002 223.776 17.2002ZM232.943 10.3711C233.276 10.3711 233.575 10.3984 233.839 10.4531L233.682 11.5059C233.372 11.4375 233.098 11.4033 232.861 11.4033C232.255 11.4033 231.736 11.6494 231.303 12.1416C230.874 12.6338 230.66 13.2467 230.66 13.9805V18H229.525V10.5078H230.462L230.592 11.8955H230.646C230.924 11.4079 231.259 11.0319 231.651 10.7676C232.043 10.5033 232.474 10.3711 232.943 10.3711ZM240.34 16.9951H240.278C239.754 17.7562 238.97 18.1367 237.927 18.1367C236.947 18.1367 236.184 17.8018 235.637 17.1318C235.094 16.4619 234.823 15.5094 234.823 14.2744C234.823 13.0394 235.097 12.0801 235.644 11.3965C236.19 10.7129 236.951 10.3711 237.927 10.3711C238.943 10.3711 239.722 10.7402 240.265 11.4785H240.354L240.306 10.9385L240.278 10.4121V7.36328H241.413V18H240.49L240.34 16.9951ZM238.07 17.1865C238.845 17.1865 239.406 16.9769 239.752 16.5576C240.103 16.1338 240.278 15.4525 240.278 14.5137V14.2744C240.278 13.2126 240.101 12.4561 239.745 12.0049C239.394 11.5492 238.831 11.3213 238.057 11.3213C237.391 11.3213 236.881 11.5811 236.525 12.1006C236.174 12.6156 235.999 13.3447 235.999 14.2881C235.999 15.2451 236.174 15.9674 236.525 16.4551C236.876 16.9427 237.391 17.1865 238.07 17.1865Z" fill="#525252"/>
<path d="M42.4392 2C37.2425 2 33.5922 4.76269 33.56 8.71303C33.5271 11.6395 36.1705 13.2713 38.1587 14.244C40.2098 15.2383 40.8949 15.8773 40.8882 16.7669C40.8678 18.1304 39.2469 18.7516 37.7407 18.7516C35.6408 18.7516 34.5213 18.4449 32.8006 17.6882L32.1183 17.3639L31.3833 21.9168C32.6119 22.4834 34.8807 22.9744 37.2393 23C42.7538 23 46.3418 20.269 46.3844 16.0523C46.4062 13.7312 45.0031 11.9745 41.9693 10.5241C40.138 9.58109 39.0055 8.9558 39.0224 8.00028C39.0238 7.156 39.9727 6.25115 42.0324 6.25115C43.7525 6.22219 44.9897 6.61704 45.9637 7.03292L46.4322 7.26668L47.1469 2.85619C46.1089 2.44617 44.4708 2.00012 42.4389 2.00012L42.4392 2ZM26.1257 2.35484L22.839 22.6992H28.0903L31.3789 2.3546H26.1264L26.1257 2.35484ZM18.4324 2.37458L13.2903 16.2399L12.7421 13.4226C11.4615 9.96781 8.68933 6.34392 5.46094 4.87522L10.1647 22.6798L15.7253 22.6772L23.9944 2.37473L18.4324 2.37458ZM56.5619 2.37589C55.3037 2.37589 54.3609 2.73453 53.8055 4.06448L46.0074 22.7059H51.5247C51.5247 22.7059 52.4268 20.1967 52.6308 19.6474C53.2329 19.6474 58.5915 19.6589 59.3561 19.6589C59.5186 20.3683 59.9957 22.7057 59.9957 22.7057H64.874L60.6204 2.3759L56.5619 2.37589ZM56.9331 7.86073L57.2832 9.61459C57.2832 9.61459 58.2926 14.4688 58.5032 15.4854H54.1423C54.5786 14.318 56.2349 9.79878 56.2349 9.79878C56.2027 9.85406 56.6659 8.62211 56.9331 7.86073Z" fill="#0023A0"/>
<path d="M8.52186 2.3643H0.049355L0 2.71439C6.58723 4.39907 10.9331 8.53611 12.7426 13.4283L10.9013 4.0779C10.5848 2.79198 9.66293 2.40967 8.52185 2.36426" fill="#FFAB00"/>
<path d="M81.8628 27.9334C81.7488 27.8179 81.6111 27.7292 81.4543 27.6643C81.296 27.601 81.1234 27.5693 80.9366 27.5693C80.8368 27.5693 80.7339 27.5772 80.6278 27.5946C80.5202 27.612 80.4157 27.6421 80.3128 27.6849C80.2099 27.7276 80.1133 27.7878 80.0199 27.8638C79.9264 27.9398 79.8473 28.0364 79.7776 28.1519C79.6668 27.9699 79.518 27.8274 79.3295 27.7229C79.1411 27.62 78.9258 27.5677 78.682 27.5677C78.5997 27.5677 78.5157 27.5756 78.4287 27.5899C78.3416 27.6041 78.2545 27.631 78.169 27.6675C78.0835 27.7039 78.0012 27.7529 77.922 27.8163C77.8444 27.8796 77.7732 27.9588 77.7083 28.0538V27.6532H77.0195V30.929H77.7146V29.113C77.7146 28.9737 77.7368 28.8502 77.7811 28.7425C77.8254 28.6348 77.884 28.543 77.9584 28.4702C78.0328 28.3973 78.1183 28.3419 78.2181 28.3039C78.3178 28.2659 78.4239 28.2469 78.5363 28.2469C78.7706 28.2469 78.9511 28.3214 79.081 28.4686C79.2092 28.6174 79.2741 28.828 79.2741 29.1051V30.9274H79.9692V29.1114C79.9692 28.9721 79.9914 28.8486 80.0357 28.7409C80.08 28.6333 80.1386 28.5414 80.213 28.4686C80.2874 28.3958 80.3729 28.3403 80.4727 28.3024C80.5724 28.2644 80.6785 28.2454 80.7909 28.2454C81.0252 28.2454 81.2057 28.3198 81.3356 28.467C81.4638 28.6158 81.5287 28.8264 81.5287 29.1035V30.9259H82.2238V28.8676C82.2238 28.676 82.1921 28.5003 82.1288 28.3403C82.0655 28.1868 81.9768 28.049 81.8628 27.9334Z" fill="black"/>
<path d="M85.5265 28.0522C85.4125 27.9065 85.2716 27.7894 85.1022 27.7023C84.9328 27.6152 84.7317 27.5709 84.4974 27.5709C84.2678 27.5709 84.0525 27.6136 83.8546 27.6991C83.6567 27.7846 83.4825 27.9034 83.3353 28.0569C83.1864 28.2089 83.0709 28.391 82.9869 28.6016C82.903 28.8122 82.8603 29.0433 82.8603 29.2935C82.8603 29.5436 82.903 29.7748 82.9869 29.9854C83.0709 30.196 83.188 30.378 83.3353 30.53C83.4841 30.682 83.6567 30.8024 83.8546 30.8879C84.0525 30.9734 84.2678 31.0161 84.4974 31.0161C84.7317 31.0161 84.9344 30.9734 85.1022 30.8863C85.2716 30.7992 85.4125 30.6836 85.5265 30.5379V30.9306H86.2406V27.6548H85.5265V28.0522ZM85.4996 29.7099C85.4521 29.8381 85.384 29.9474 85.2985 30.0408C85.2115 30.1342 85.1085 30.207 84.9882 30.2609C84.8679 30.3147 84.7333 30.3416 84.5845 30.3416C84.4293 30.3416 84.2916 30.3131 84.1697 30.2577C84.0477 30.2023 83.9448 30.1263 83.8609 30.0313C83.777 29.9363 83.7121 29.8255 83.6662 29.6972C83.6203 29.569 83.5981 29.4344 83.5981 29.2903C83.5981 29.1462 83.6203 29.0117 83.6662 28.8834C83.7121 28.7552 83.777 28.6443 83.8609 28.5493C83.9448 28.4543 84.0477 28.3799 84.1697 28.3229C84.2916 28.2675 84.4293 28.239 84.5845 28.239C84.7333 28.239 84.8663 28.2659 84.9882 28.3198C85.1085 28.3736 85.213 28.4464 85.2985 28.5398C85.3856 28.6333 85.4521 28.7441 85.4996 28.8707C85.5471 28.999 85.5709 29.1367 85.5709 29.2872C85.5709 29.4376 85.5471 29.5832 85.4996 29.7099Z" fill="black"/>
<path d="M89.5259 29.2887C89.3248 29.132 89.0462 29.0291 88.6884 28.9752L88.3495 28.9246C88.2735 28.9135 88.2039 28.9008 88.1374 28.885C88.0709 28.8707 88.0139 28.8502 87.9664 28.8248C87.9189 28.7995 87.8809 28.7678 87.8524 28.7298C87.8239 28.6918 87.8096 28.6428 87.8096 28.5858C87.8096 28.4702 87.8635 28.3752 87.9727 28.3039C88.0804 28.2327 88.2324 28.1963 88.4287 28.1963C88.5316 28.1963 88.6314 28.2058 88.7311 28.2232C88.8308 28.2422 88.9243 28.2644 89.0129 28.2913C89.1016 28.3182 89.1823 28.3483 89.2552 28.3815C89.328 28.4148 89.3897 28.4464 89.4404 28.4749L89.7476 27.9176C89.5766 27.8084 89.3771 27.7229 89.1491 27.6627C88.9211 27.6025 88.6789 27.5725 88.4208 27.5725C88.2118 27.5725 88.0234 27.5962 87.8571 27.6453C87.6909 27.6944 87.5484 27.764 87.4312 27.8543C87.3141 27.9445 87.2238 28.0538 87.1605 28.1836C87.0971 28.3134 87.0671 28.4591 87.0671 28.6206C87.0671 28.885 87.1605 29.0987 87.3489 29.2618C87.5373 29.4249 87.8128 29.531 88.1785 29.5816L88.5205 29.626C88.7169 29.6529 88.8609 29.6972 88.9512 29.7574C89.043 29.8176 89.0873 29.8951 89.0873 29.9885C89.0873 30.112 89.024 30.2086 88.8989 30.2815C88.7738 30.3527 88.587 30.3891 88.3416 30.3891C88.207 30.3891 88.0867 30.3796 87.9806 30.3622C87.8745 30.3432 87.778 30.3195 87.6893 30.2894C87.6022 30.2593 87.5231 30.2229 87.4534 30.1833C87.3837 30.1437 87.3188 30.101 87.2602 30.055L86.9293 30.5918C87.0481 30.6804 87.1716 30.7533 87.3014 30.8071C87.4312 30.8625 87.5595 30.9053 87.6845 30.9354C87.8096 30.9654 87.9284 30.986 88.0408 30.9971C88.1516 31.0066 88.2498 31.0129 88.3353 31.0129C88.5696 31.0129 88.7802 30.986 88.9654 30.9338C89.1507 30.8815 89.3074 30.8071 89.4341 30.7137C89.5607 30.6187 89.6573 30.5063 89.7254 30.3749C89.7919 30.2435 89.8267 30.0994 89.8267 29.9426C89.8267 29.6624 89.727 29.4439 89.5259 29.2887Z" fill="black"/>
<path d="M96.2169 28.0474C96.0807 27.8954 95.9176 27.7783 95.7276 27.696C95.5376 27.612 95.3287 27.5709 95.1007 27.5709C94.8584 27.5709 94.6383 27.612 94.4388 27.696C94.2394 27.7799 94.0684 27.897 93.9243 28.0474C93.7802 28.1994 93.6694 28.3815 93.5886 28.5921C93.5095 28.8043 93.4683 29.037 93.4683 29.2935C93.4683 29.5531 93.5095 29.7891 93.5918 30.0012C93.6741 30.2134 93.7881 30.3939 93.9369 30.5443C94.0858 30.6947 94.2615 30.8103 94.4673 30.8926C94.6732 30.9749 94.898 31.0161 95.145 31.0161C95.3936 31.0161 95.6295 30.9813 95.8543 30.9132C96.0791 30.8451 96.2913 30.7248 96.4924 30.5538L96.1361 30.044C96 30.1532 95.848 30.2387 95.6833 30.2989C95.5187 30.359 95.354 30.3891 95.1893 30.3891C95.0737 30.3891 94.9613 30.3733 94.8537 30.3416C94.746 30.31 94.6494 30.2609 94.5623 30.1928C94.4753 30.1263 94.4024 30.0392 94.3407 29.9347C94.2789 29.8302 94.2362 29.7036 94.214 29.5547H96.6349C96.6396 29.5136 96.6428 29.4708 96.646 29.4249C96.6475 29.379 96.6491 29.3331 96.6491 29.2887C96.6491 29.0338 96.6111 28.8011 96.5351 28.5889C96.4575 28.3799 96.3515 28.1979 96.2169 28.0474ZM94.2172 29.0132C94.2362 28.8945 94.2679 28.7853 94.3122 28.6871C94.3581 28.5873 94.4167 28.5018 94.4879 28.4306C94.5592 28.3593 94.6447 28.3039 94.7444 28.2644C94.8442 28.2264 94.9566 28.2058 95.0848 28.2058C95.3128 28.2058 95.4981 28.277 95.6421 28.4179C95.7862 28.5588 95.8765 28.7583 95.9161 29.0132H94.2172Z" fill="black"/>
<path d="M105.71 28.0522C105.596 27.9065 105.455 27.7894 105.286 27.7023C105.117 27.6152 104.915 27.5709 104.681 27.5709C104.452 27.5709 104.236 27.6136 104.038 27.6991C103.84 27.7846 103.666 27.9034 103.519 28.0569C103.37 28.2089 103.255 28.391 103.171 28.6016C103.087 28.8122 103.044 29.0433 103.044 29.2935C103.044 29.5436 103.087 29.7748 103.171 29.9854C103.255 30.196 103.372 30.378 103.519 30.53C103.668 30.682 103.84 30.8024 104.038 30.8879C104.236 30.9734 104.452 31.0161 104.681 31.0161C104.915 31.0161 105.118 30.9734 105.286 30.8863C105.454 30.7992 105.596 30.6836 105.71 30.5379V30.9306H106.424V27.6548H105.71V28.0522ZM105.682 29.7099C105.634 29.8381 105.566 29.9474 105.481 30.0408C105.394 30.1342 105.291 30.207 105.169 30.2609C105.048 30.3147 104.914 30.3416 104.765 30.3416C104.61 30.3416 104.472 30.3131 104.35 30.2577C104.228 30.2023 104.125 30.1263 104.041 30.0313C103.958 29.9363 103.893 29.8255 103.847 29.6972C103.801 29.569 103.779 29.4344 103.779 29.2903C103.779 29.1462 103.801 29.0117 103.847 28.8834C103.893 28.7552 103.958 28.6443 104.041 28.5493C104.125 28.4543 104.228 28.3799 104.35 28.3229C104.472 28.2675 104.61 28.239 104.765 28.239C104.914 28.239 105.048 28.2659 105.169 28.3198C105.289 28.3736 105.394 28.4464 105.481 28.5398C105.568 28.6333 105.634 28.7441 105.682 28.8707C105.729 28.999 105.753 29.1367 105.753 29.2872C105.753 29.4376 105.731 29.5832 105.682 29.7099Z" fill="black"/>
<path d="M92.5896 30.2783C92.474 30.321 92.3616 30.3432 92.2492 30.3432C92.1763 30.3432 92.1083 30.3321 92.0465 30.3084C91.9832 30.2862 91.9293 30.2498 91.8818 30.2007C91.8343 30.1516 91.7979 30.0883 91.771 30.0107C91.7441 29.9331 91.7298 29.8397 91.7298 29.7305V28.3055H92.8777V27.6564H91.7298V26.6652H91.0126V27.6564H90.3587V28.3055H91.011V29.7447C91.011 30.1801 91.1139 30.5015 91.3198 30.7074C91.5256 30.9132 91.8153 31.0161 92.1858 31.0161C92.3932 31.0161 92.5801 30.9844 92.7447 30.9211C92.854 30.8784 92.9553 30.8309 93.0503 30.777L92.8065 30.1785C92.7384 30.215 92.6671 30.2482 92.5896 30.2783Z" fill="black"/>
<path d="M99.0415 27.5693C98.8404 27.5693 98.6599 27.6057 98.4984 27.6785C98.3369 27.7514 98.2007 27.9271 98.0915 28.0839V27.6548H97.4423V30.9306H98.0978V29.1288C98.0978 28.9895 98.1168 28.866 98.1564 28.7568C98.1944 28.6475 98.2482 28.5557 98.3163 28.4797C98.3844 28.4037 98.4667 28.3483 98.5617 28.3087C98.6567 28.2707 98.7628 28.2501 98.8768 28.2501C98.9639 28.2501 99.0573 28.2596 99.157 28.2802C99.2077 28.2913 99.2552 28.3039 99.3011 28.3182L99.5117 27.6342C99.4547 27.6168 99.3961 27.601 99.336 27.5899C99.2489 27.5772 99.1507 27.5693 99.0415 27.5693Z" fill="black"/>
<path d="M108.975 27.5693C108.774 27.5693 108.593 27.6057 108.432 27.6785C108.27 27.7514 108.134 27.9271 108.025 28.0839V27.6548H107.376V30.9306H108.031V29.1288C108.031 28.9895 108.05 28.866 108.09 28.7568C108.128 28.6475 108.182 28.5557 108.25 28.4797C108.318 28.4037 108.4 28.3483 108.495 28.3087C108.59 28.2707 108.696 28.2501 108.81 28.2501C108.897 28.2501 108.991 28.2596 109.091 28.2802C109.141 28.2913 109.189 28.3039 109.235 28.3182L109.445 27.6342C109.388 27.6168 109.33 27.601 109.269 27.5899C109.182 27.5772 109.084 27.5693 108.975 27.5693Z" fill="black"/>
<path d="M112.313 28.0522C112.199 27.9065 112.058 27.7894 111.888 27.7023C111.719 27.6152 111.518 27.5709 111.283 27.5709C111.054 27.5709 110.839 27.6136 110.641 27.6991C110.443 27.7846 110.269 27.9034 110.121 28.0569C109.972 28.2089 109.857 28.391 109.773 28.6016C109.689 28.8122 109.646 29.0433 109.646 29.2935C109.646 29.5436 109.689 29.7748 109.773 29.9854C109.857 30.196 109.974 30.378 110.121 30.53C110.27 30.682 110.443 30.8024 110.641 30.8879C110.839 30.9734 111.054 31.0161 111.283 31.0161C111.518 31.0161 111.72 30.9734 111.888 30.8863C112.056 30.7992 112.199 30.6836 112.313 30.5379V30.9306H113.027V26.3232H112.313V28.0522ZM112.284 29.7099C112.237 29.8381 112.168 29.9474 112.083 30.0408C111.996 30.1342 111.893 30.207 111.773 30.2609C111.652 30.3147 111.518 30.3416 111.369 30.3416C111.214 30.3416 111.076 30.3131 110.954 30.2577C110.832 30.2023 110.729 30.1263 110.645 30.0313C110.561 29.9363 110.497 29.8255 110.451 29.6972C110.405 29.569 110.383 29.4344 110.383 29.2903C110.383 29.1462 110.405 29.0117 110.451 28.8834C110.497 28.7552 110.561 28.6443 110.645 28.5493C110.729 28.4543 110.832 28.3799 110.954 28.3229C111.076 28.2675 111.214 28.239 111.369 28.239C111.518 28.239 111.651 28.2659 111.773 28.3198C111.893 28.3736 111.997 28.4464 112.083 28.5398C112.17 28.6333 112.237 28.7441 112.284 28.8707C112.332 28.999 112.355 29.1367 112.355 29.2872C112.355 29.4376 112.332 29.5832 112.284 29.7099Z" fill="black"/>
<path d="M100.751 28.5351C100.843 28.4433 100.951 28.3704 101.076 28.3198C101.201 28.2691 101.337 28.2422 101.483 28.2422C101.643 28.2422 101.793 28.2675 101.931 28.3198C102.064 28.3688 102.18 28.4385 102.278 28.5272L102.621 27.9556C102.493 27.8527 102.347 27.7688 102.186 27.7023C101.971 27.6152 101.736 27.5709 101.483 27.5709C101.23 27.5709 100.995 27.6152 100.78 27.7023C100.565 27.7894 100.379 27.9113 100.223 28.0649C100.066 28.2184 99.9439 28.4005 99.8553 28.6095C99.7666 28.8185 99.7223 29.0465 99.7223 29.2935C99.7223 29.5405 99.7666 29.7669 99.8553 29.9775C99.9439 30.1865 100.067 30.3685 100.223 30.5221C100.379 30.6757 100.565 30.7976 100.78 30.8847C100.995 30.9718 101.23 31.0161 101.483 31.0161C101.736 31.0161 101.971 30.9718 102.186 30.8847C102.347 30.8182 102.493 30.7343 102.621 30.6314L102.278 30.0598C102.18 30.1485 102.064 30.2165 101.931 30.2672C101.793 30.3179 101.644 30.3448 101.483 30.3448C101.337 30.3448 101.201 30.3195 101.076 30.2672C100.951 30.2165 100.842 30.1437 100.751 30.0519C100.66 29.9601 100.588 29.8492 100.536 29.721C100.484 29.5927 100.457 29.4502 100.457 29.2951C100.457 29.1399 100.484 28.999 100.536 28.8692C100.588 28.7393 100.66 28.6285 100.751 28.5351Z" fill="black"/>
<path d="M95.001 22.0233C97.5893 22.0233 99.6875 17.69 99.6875 12.3446C99.6875 6.99929 97.5893 2.66602 95.001 2.66602C92.4127 2.66602 90.3145 6.99929 90.3145 12.3446C90.3145 17.69 92.4127 22.0233 95.001 22.0233Z" fill="#EB610A"/>
<path d="M90.3135 12.3433C90.3135 8.41992 92.147 4.9256 95.0001 2.66467C92.8959 0.99747 90.2375 0 87.3433 0C80.5273 0 75 5.52725 75 12.3433C75 19.1593 80.5273 24.6866 87.3433 24.6866C90.236 24.6866 92.8959 23.6891 95.0001 22.0219C92.147 19.761 90.3135 16.2683 90.3135 12.3433Z" fill="#E30D17"/>
<path d="M102.657 0C99.7641 0 97.1042 0.99747 95 2.66467C97.8547 4.9256 99.6865 8.41992 99.6865 12.3433C99.6865 16.2667 97.8531 19.761 95 22.0219C97.1042 23.6891 99.7625 24.6866 102.657 24.6866C109.474 24.6866 115 19.1593 115 12.3433C115 5.52725 109.474 0 102.657 0Z" fill="#F69F00"/>
</svg>
