<svg width="25" height="25" viewBox="0 0 25 25" fill="none" xmlns="http://www.w3.org/2000/svg">
<path d="M24.6331 15.4106C24.8357 15.4106 25 15.2463 25 15.0437V7.2146C25 6.20298 24.177 5.37998 23.1654 5.37998H22.8715V0.366943C22.8715 0.164258 22.7072 0 22.5045 0H10.5399C10.3372 0 10.1729 0.164258 10.1729 0.366943V5.37998H8.77832V5.2187C8.77832 4.47686 8.1748 3.87329 7.43291 3.87329H4.33999C3.59814 3.87329 2.99458 4.47686 2.99458 5.2187V5.37998H1.83462C0.822998 5.37998 0 6.20298 0 7.2146V17.6864C0 17.8891 0.164258 18.0533 0.366943 18.0533C0.569629 18.0533 0.733887 17.8891 0.733887 17.6864V7.2146C0.733887 6.60767 1.22773 6.11382 1.83467 6.11382H2.99458V22.7594H1.83462C1.22769 22.7594 0.733838 22.2656 0.733838 21.6586V19.1541C0.733838 18.9514 0.56958 18.7871 0.366895 18.7871C0.164209 18.7871 0 18.9514 0 19.1541V21.6587C0 22.6703 0.822998 23.4933 1.83462 23.4933H2.99453V23.6546C2.99458 24.3964 3.59814 25 4.33999 25H7.43291C8.1748 25 8.77832 24.3964 8.77832 23.6546V23.4933H23.1654C24.177 23.4933 25 22.6703 25 21.6587V16.5114C25 16.3087 24.8357 16.1444 24.6331 16.1444C24.4304 16.1444 24.2661 16.3087 24.2661 16.5114V21.6587C24.2661 22.2657 23.7723 22.7595 23.1653 22.7595H8.77832V12.4505C8.77832 12.2478 8.61406 12.0835 8.41138 12.0835C8.20869 12.0835 8.04443 12.2478 8.04443 12.4505V23.6546C8.04443 23.9918 7.77012 24.2661 7.43286 24.2661H4.33999C4.00278 24.2661 3.72847 23.9918 3.72847 23.6546V5.2187C3.72847 4.88149 4.00278 4.60718 4.33999 4.60718H7.43291C7.77012 4.60718 8.04448 4.88149 8.04448 5.2187V10.9828C8.04448 11.1855 8.20874 11.3498 8.41143 11.3498C8.61411 11.3498 8.77837 11.1855 8.77837 10.9828V6.11387H23.1654C23.7724 6.11387 24.2662 6.60771 24.2662 7.21465V15.0437C24.2662 15.2463 24.4304 15.4106 24.6331 15.4106ZM10.9068 0.733838H22.1376V5.37998H10.9068V0.733838Z" fill="#D22630"/>
<path d="M21.0799 10.6343V8.47324C21.0799 8.00117 20.6958 7.61709 20.2237 7.61709H12.5133C12.0412 7.61709 11.6571 8.00117 11.6571 8.47324V10.6343C11.6571 11.1064 12.0412 11.4905 12.5133 11.4905H20.2237C20.6958 11.4905 21.0799 11.1064 21.0799 10.6343ZM20.346 10.6343C20.346 10.7018 20.2912 10.7566 20.2237 10.7566H12.5133C12.4458 10.7566 12.391 10.7018 12.391 10.6343V8.47324C12.391 8.40576 12.4458 8.35093 12.5133 8.35093H20.2237C20.2912 8.35093 20.346 8.40576 20.346 8.47324V10.6343Z" fill="#D22630"/>
<path d="M13.8202 13.3538H12.3951C12.1924 13.3538 12.0281 13.5181 12.0281 13.7208C12.0281 13.9234 12.1924 14.0877 12.3951 14.0877H13.8202C14.0229 14.0877 14.1872 13.9234 14.1872 13.7208C14.1872 13.5181 14.0229 13.3538 13.8202 13.3538Z" fill="#D22630"/>
<path d="M17.0811 13.3559H15.6559C15.4532 13.3559 15.289 13.5201 15.289 13.7228C15.289 13.9255 15.4532 14.0897 15.6559 14.0897H17.0811C17.2838 14.0897 17.448 13.9255 17.448 13.7228C17.448 13.5201 17.2838 13.3559 17.0811 13.3559Z" fill="#D22630"/>
<path d="M20.3419 13.3538H18.9168C18.7141 13.3538 18.5499 13.5181 18.5499 13.7208C18.5499 13.9234 18.7141 14.0877 18.9168 14.0877H20.3419C20.5446 14.0877 20.7089 13.9234 20.7089 13.7208C20.7089 13.5181 20.5446 13.3538 20.3419 13.3538Z" fill="#D22630"/>
<path d="M13.8202 15.4106H12.3951C12.1924 15.4106 12.0281 15.5749 12.0281 15.7775C12.0281 15.9802 12.1924 16.1445 12.3951 16.1445H13.8202C14.0229 16.1445 14.1872 15.9802 14.1872 15.7775C14.1872 15.5749 14.0229 15.4106 13.8202 15.4106Z" fill="#D22630"/>
<path d="M17.0811 15.4126H15.6559C15.4532 15.4126 15.289 15.5769 15.289 15.7796C15.289 15.9823 15.4532 16.1465 15.6559 16.1465H17.0811C17.2838 16.1465 17.448 15.9823 17.448 15.7796C17.448 15.5769 17.2838 15.4126 17.0811 15.4126Z" fill="#D22630"/>
<path d="M20.3419 15.4106H18.9168C18.7141 15.4106 18.5499 15.5749 18.5499 15.7775C18.5499 15.9802 18.7141 16.1445 18.9168 16.1445H20.3419C20.5446 16.1445 20.7089 15.9802 20.7089 15.7775C20.7089 15.5749 20.5446 15.4106 20.3419 15.4106Z" fill="#D22630"/>
<path d="M13.8202 17.4674H12.3951C12.1924 17.4674 12.0281 17.6316 12.0281 17.8343C12.0281 18.037 12.1924 18.2013 12.3951 18.2013H13.8202C14.0229 18.2013 14.1872 18.037 14.1872 17.8343C14.1872 17.6316 14.0229 17.4674 13.8202 17.4674Z" fill="#D22630"/>
<path d="M17.0811 17.4694H15.6559C15.4532 17.4694 15.289 17.6336 15.289 17.8363C15.289 18.039 15.4532 18.2033 15.6559 18.2033H17.0811C17.2838 18.2033 17.448 18.039 17.448 17.8363C17.448 17.6336 17.2838 17.4694 17.0811 17.4694Z" fill="#D22630"/>
<path d="M20.3419 17.4674H18.9168C18.7141 17.4674 18.5499 17.6316 18.5499 17.8343C18.5499 18.037 18.7141 18.2013 18.9168 18.2013H20.3419C20.5446 18.2013 20.7089 18.037 20.7089 17.8343C20.7088 17.6316 20.5446 17.4674 20.3419 17.4674Z" fill="#D22630"/>
<path d="M13.8202 19.5241H12.3951C12.1924 19.5241 12.0281 19.6884 12.0281 19.8911C12.0281 20.0938 12.1924 20.258 12.3951 20.258H13.8202C14.0229 20.258 14.1872 20.0938 14.1872 19.8911C14.1872 19.6884 14.0229 19.5241 13.8202 19.5241Z" fill="#D22630"/>
<path d="M17.0811 19.5261H15.6559C15.4532 19.5261 15.289 19.6904 15.289 19.8931C15.289 20.0958 15.4532 20.26 15.6559 20.26H17.0811C17.2838 20.26 17.448 20.0958 17.448 19.8931C17.448 19.6904 17.2838 19.5261 17.0811 19.5261Z" fill="#D22630"/>
<path d="M20.3419 19.5241H18.9168C18.7141 19.5241 18.5499 19.6884 18.5499 19.8911C18.5499 20.0938 18.7141 20.258 18.9168 20.258H20.3419C20.5446 20.258 20.7089 20.0938 20.7089 19.8911C20.7089 19.6884 20.5446 19.5241 20.3419 19.5241Z" fill="#D22630"/>
</svg>
