<svg width="20" height="20" viewBox="0 0 20 20" fill="none" xmlns="http://www.w3.org/2000/svg">
<path d="M19.5264 17.2037L14.9282 12.5423C15.7095 11.2815 16.1629 9.79126 16.1629 8.19198C16.1629 3.66741 12.5446 0 8.0813 0C3.61803 0 0 3.66741 0 8.19198C0 12.7167 3.61786 16.3838 8.0813 16.3838C9.79821 16.3838 11.3885 15.8397 12.6971 14.9151L17.2405 19.5211C17.5562 19.8408 17.9701 20 18.3835 20C18.7973 20 19.2107 19.8408 19.5269 19.5211C20.1578 18.8808 20.1578 17.8438 19.5264 17.2037ZM8.0813 13.7297C5.06453 13.7297 2.61873 11.2506 2.61873 8.19232C2.61873 5.13407 5.06453 2.65476 8.0813 2.65476C11.0982 2.65476 13.5439 5.13407 13.5439 8.19232C13.5439 11.2506 11.0982 13.7297 8.0813 13.7297Z" fill="#C4C4C4"/>
</svg>
