<svg width="29" height="29" viewBox="0 0 29 29" fill="none" xmlns="http://www.w3.org/2000/svg">
<path d="M12.2039 24.6904C15.1519 24.6904 17.8595 23.6234 19.9736 21.8566L27.3298 28.7072C27.5211 28.9007 27.7713 29 28.0214 29C28.2716 29 28.5218 28.9007 28.7131 28.7072C29.0957 28.3201 29.0957 27.6898 28.7131 27.3027L21.3765 20.472C23.2601 18.2982 24.403 15.4545 24.403 12.3477C24.403 5.5386 18.9289 0 12.199 0C5.46921 0 0 5.53364 0 12.3427C0 19.1518 5.47411 24.6904 12.2039 24.6904ZM12.2039 1.9802C17.8497 1.9802 22.4458 6.62547 22.4458 12.3427C22.4458 18.06 17.8497 22.7053 12.2039 22.7053C6.55814 22.7053 1.96205 18.055 1.96205 12.3427C1.96205 6.63044 6.55814 1.9802 12.2039 1.9802Z" fill="#D22630"/>
</svg>
