<svg width="164" height="38" viewBox="0 0 164 38" fill="none" xmlns="http://www.w3.org/2000/svg">
<path fill-rule="evenodd" clip-rule="evenodd" d="M53.1027 21.6466H44.1882V24.3171H50.51C50.198 28.0613 47.1126 29.658 44.198 29.658C40.4709 29.658 37.2187 26.6983 37.2187 22.5499C37.2187 18.5085 40.3178 15.3962 44.2059 15.3962C47.2049 15.3962 48.9713 17.3258 48.9713 17.3258L50.8241 15.3903C50.8241 15.3903 48.4473 12.7198 44.1117 12.7198C38.5906 12.7198 34.3198 17.4229 34.3198 22.5024C34.3198 27.4808 38.3374 32.3345 44.253 32.3345C49.4561 32.3345 53.2637 28.7368 53.2637 23.4176C53.2637 22.2944 53.1027 21.6466 53.1027 21.6466Z" fill="#9B9B9B"/>
<path fill-rule="evenodd" clip-rule="evenodd" d="M60.7157 22.1891C62.5135 22.1891 64.2191 23.6571 64.2191 26.0225C64.2191 28.3364 62.5214 29.848 60.7079 29.848C58.7138 29.848 57.1417 28.2374 57.1417 26.0047C57.1417 23.8196 58.6942 22.1891 60.7157 22.1891ZM60.6804 19.7128C57.0219 19.7128 54.4018 22.5992 54.4018 25.9651C54.4018 29.3805 56.9434 32.3204 60.7236 32.3204C64.1445 32.3204 66.9472 29.6816 66.9472 26.0384C66.9472 21.8623 63.6853 19.7128 60.6804 19.7128Z" fill="#9B9B9B"/>
<path fill-rule="evenodd" clip-rule="evenodd" d="M74.5196 22.1891C76.3175 22.1891 78.023 23.6571 78.023 26.0225C78.023 28.3364 76.3253 29.848 74.5118 29.848C72.5177 29.848 70.9456 28.2374 70.9456 26.0047C70.9456 23.8196 72.4981 22.1891 74.5196 22.1891ZM74.4843 19.7128C70.8259 19.7128 68.2057 22.5992 68.2057 25.9651C68.2057 29.3805 70.7474 32.3204 74.5275 32.3204C77.9484 32.3204 80.7512 29.6816 80.7512 26.0384C80.7512 21.8623 77.4911 19.7128 74.4843 19.7128Z" fill="#9B9B9B"/>
<path fill-rule="evenodd" clip-rule="evenodd" d="M88.2466 22.1913C89.8933 22.1913 91.5831 23.6098 91.5831 26.0326C91.5831 28.4951 89.8972 29.8521 88.2112 29.8521C86.4213 29.8521 84.7569 28.3861 84.7569 26.0564C84.7569 23.6355 86.486 22.1913 88.2466 22.1913ZM88.0052 19.7189C84.649 19.7189 82.0091 22.6866 82.0091 26.0187C82.0091 29.8125 85.069 32.3305 87.9482 32.3305C89.7284 32.3305 90.6744 31.6173 91.3731 30.7991V32.0412C91.3731 34.2165 90.064 35.518 88.0896 35.518C86.1818 35.518 85.224 34.0857 84.8923 33.2735L82.492 34.2858C83.3438 36.1024 85.0572 37.9983 88.1092 37.9983C91.4477 37.9983 93.9913 35.8766 93.9913 31.4251V20.0973H91.3731V21.1651C90.5665 20.2895 89.4654 19.7189 88.0052 19.7189Z" fill="#9B9B9B"/>
<path fill-rule="evenodd" clip-rule="evenodd" d="M106.293 22.1278C107.434 22.1278 108.256 22.7399 108.605 23.4749L103.012 25.8344C102.77 24.0078 104.486 22.1278 106.293 22.1278ZM106.183 19.7049C103.018 19.7049 100.358 22.2486 100.358 26.0008C100.358 29.9709 103.322 32.3264 106.488 32.3264C109.129 32.3264 110.752 30.8663 111.72 29.5608L109.561 28.1106C109 28.9882 108.064 29.8461 106.501 29.8461C104.745 29.8461 103.938 28.8753 103.438 27.9363L111.812 24.4278L111.377 23.3996C110.57 21.3849 108.682 19.7049 106.183 19.7049Z" fill="#9B9B9B"/>
<path d="M98.8431 13.3694H96.0914V31.9519H98.8431V13.3694Z" fill="#9B9B9B"/>
<path d="M135.726 13.3694H132.974V31.9519H135.726V13.3694Z" fill="#9B9B9B"/>
<path d="M121.137 13.3694H118.385V31.9519H121.137V13.3694Z" fill="#9B9B9B"/>
<path fill-rule="evenodd" clip-rule="evenodd" d="M118.385 13.3694H125.039C128.263 13.3694 130.903 16.0339 130.903 19.2888C130.903 22.5438 128.263 25.2083 125.039 25.2083H118.385V13.3694ZM121.135 16.1468V22.4328H125.039C126.746 22.4328 128.154 21.0124 128.154 19.2908C128.154 17.5673 126.746 16.1488 125.039 16.1488H121.135V16.1468Z" fill="#9B9B9B"/>
<path fill-rule="evenodd" clip-rule="evenodd" d="M156.034 38.0002L164 19.7049H160.995L153.029 38.0002H156.034Z" fill="#9B9B9B"/>
<path fill-rule="evenodd" clip-rule="evenodd" d="M156.923 33.8122L150.781 19.7049H153.786L158.022 29.434H156.923V33.8122Z" fill="#9B9B9B"/>
<path fill-rule="evenodd" clip-rule="evenodd" d="M146.982 31.9522H149.733V25.27C150.163 18.3778 141.506 16.7553 138.23 21.7258L140.444 23.2255C142.046 20.3985 146.617 21.0483 146.917 24.0794C145.543 23.7129 144.059 23.4454 142.703 23.5841C140.587 23.8 138.776 25.1571 138.487 27.3798C138.332 28.5804 138.597 30.0602 139.427 30.9636C140.721 32.3682 142.846 32.5584 144.591 32.079C145.574 31.8076 146.348 31.2192 146.982 30.4584V31.9522ZM146.982 26.5795C146.63 28.1247 145.443 29.2361 143.938 29.6502C140.756 30.5258 139.965 25.3076 144.693 26.0268C145.504 26.1258 146.212 26.3279 146.982 26.5795Z" fill="#9B9B9B"/>
<path fill-rule="evenodd" clip-rule="evenodd" d="M1.9274 37.1881C2.04712 37.1425 2.17273 37.085 2.30227 37.0137L19.5052 27.5085L15.4287 23.3978L1.9274 37.1881ZM20.2687 27.0885L16.0136 22.7995L20.2648 18.4569L26.1175 21.6802C27.5601 22.4746 26.8221 23.4671 26.1175 23.8554L20.2687 27.0885ZM19.5032 18.0389L2.30423 8.56739C2.11974 8.46636 1.91169 8.40494 1.70365 8.37721L15.4248 22.2071L19.5032 18.0389ZM0.69483 8.54758L14.8399 22.8034L0.761561 37.1841C0.35136 36.9206 0.129577 36.3501 0.127614 35.6131C0.119763 34.2006 0.00789005 11.7728 3.93062e-05 10.0908C-0.00388606 9.28256 0.286591 8.79125 0.69483 8.54758Z" fill="#9B9B9B"/>
<path fill-rule="evenodd" clip-rule="evenodd" d="M42.9773 3.64306H39.6649V4.73137H42.0142C41.8988 6.25818 40.7514 6.90975 39.6697 6.90975C38.2852 6.90975 37.0769 5.70249 37.0769 4.01056C37.0769 2.36302 38.2291 1.09363 39.6729 1.09363C40.7867 1.09363 41.4437 1.88012 41.4437 1.88012L42.1312 1.09008C42.1312 1.09008 41.2482 0 39.6377 0C37.5865 0 36 1.9174 36 3.98926C36 6.02029 37.4935 7.99805 39.6906 7.99805C41.6232 7.99805 43.0382 6.53159 43.0382 4.36209C43.0366 3.90759 42.9773 3.64306 42.9773 3.64306Z" fill="#9B9B9B"/>
<path d="M57.5377 0.268251H56.5153V7.84731H57.5377V0.268251Z" fill="#9B9B9B"/>
<path fill-rule="evenodd" clip-rule="evenodd" d="M50.7911 7.84554H51.8135V1.40094H53.4913V0.268251C52.0314 0.268251 50.5731 0.268251 49.1132 0.268251V1.40094H50.7911V7.84554Z" fill="#9B9B9B"/>
<path fill-rule="evenodd" clip-rule="evenodd" d="M44.115 7.84554H48.0347V6.71285H45.1374V4.62324H47.687V3.49055H45.1374V1.40094H48.0347V0.268251H44.115C44.115 2.79461 44.115 5.32096 44.115 7.84554Z" fill="#9B9B9B"/>
<path fill-rule="evenodd" clip-rule="evenodd" d="M60.0473 7.84554H61.0697V1.40094H62.7475V0.268251C61.2876 0.268251 59.8294 0.268251 58.3695 0.268251V1.40094H60.0473V7.84554Z" fill="#9B9B9B"/>
<path fill-rule="evenodd" clip-rule="evenodd" d="M69.0149 6.90992C67.6432 6.89217 66.4541 5.69024 66.4541 4.01074C66.4541 2.37562 67.5871 1.11511 69.0149 1.0938C70.4428 1.11511 71.5757 2.37562 71.5757 4.01074C71.5757 5.69024 70.3867 6.89039 69.0149 6.90992ZM69.0149 0.00194923C66.9637 0.00194923 65.3773 1.91935 65.3773 3.99121C65.3773 6.00448 66.8468 7.96982 69.0149 8C71.1847 7.96804 72.6526 6.00448 72.6526 3.99121C72.6526 1.91935 71.0662 0.00194923 69.0149 0.00194923Z" fill="#9B9B9B"/>
<path fill-rule="evenodd" clip-rule="evenodd" d="M73.6748 7.84554H74.6956V2.32591L77.9792 7.84554H79V0.268251H77.9776V5.78611L74.6956 0.268251H73.6748V7.84554Z" fill="#9B9B9B"/>
</svg>
