<svg width="12" height="12" viewBox="0 0 12 12" fill="none" xmlns="http://www.w3.org/2000/svg">
<path d="M6.45703 9H5.53906V4.67969H6.45703V9ZM5.48438 3.53516C5.48438 3.37109 5.52865 3.24479 5.61719 3.15625C5.70833 3.06771 5.83724 3.02344 6.00391 3.02344C6.16536 3.02344 6.29036 3.06771 6.37891 3.15625C6.47005 3.24479 6.51562 3.37109 6.51562 3.53516C6.51562 3.69141 6.47005 3.8151 6.37891 3.90625C6.29036 3.99479 6.16536 4.03906 6.00391 4.03906C5.83724 4.03906 5.70833 3.99479 5.61719 3.90625C5.52865 3.8151 5.48438 3.69141 5.48438 3.53516Z" fill="white"/>
<circle cx="6" cy="6" r="5.5" stroke="white"/>
</svg>
