<svg width="64" height="69" viewBox="0 0 64 69" fill="none" xmlns="http://www.w3.org/2000/svg">
<path d="M57.7272 19.0264C57.166 19.0264 56.7109 19.4791 56.7109 20.0374V22.1679C56.7109 27.2574 52.5485 31.3982 47.4323 31.3982H44.7158C45.205 30.751 45.6518 30.0761 46.0521 29.3761H47.4323C51.4277 29.3761 54.6782 26.1426 54.6782 22.1679V9.89219C54.6782 9.33383 54.2232 8.88116 53.6619 8.88116H49.4183L49.5669 6.8591H54.2522C55.0902 6.8591 55.8633 7.28023 56.3202 7.98566C56.5145 8.28573 56.8415 8.44911 57.1754 8.44911C57.3641 8.44911 57.5547 8.39695 57.7251 8.28775C58.1969 7.98525 58.333 7.35963 58.0289 6.89024C57.196 5.60448 55.7843 4.83691 54.2523 4.83691H49.7155L49.9001 2.32389C49.944 1.72563 49.7337 1.13047 49.3232 0.69114C48.9127 0.251814 48.3313 0 47.7281 0H42.8532C42.2919 0 41.8368 0.452672 41.8368 1.01103C41.8368 1.56939 42.2919 2.02206 42.8532 2.02206H47.7281C47.7803 2.02206 47.8147 2.04713 47.8343 2.06803C47.854 2.08906 47.8765 2.12492 47.8727 2.17668L46.9806 14.324C46.9397 14.8809 47.3603 15.3654 47.9202 15.4059C47.9455 15.4078 47.9705 15.4088 47.9953 15.4088C48.523 15.4088 48.9688 15.0032 49.0079 14.4714L49.2699 10.9031H52.6457V22.1677C52.6457 25.0273 50.307 27.3539 47.4324 27.3539H47.0535C47.8553 25.459 48.35 23.4299 48.5039 21.334L48.6914 18.7801C48.7324 18.2232 48.3117 17.7387 47.7518 17.6982C47.1931 17.6572 46.705 18.076 46.6642 18.6329L46.4766 21.1868C46.16 25.499 44.2323 29.4951 41.0488 32.4391C37.8654 35.383 33.7185 37.0043 29.3719 37.0043C25.0254 37.0043 20.8785 35.383 17.695 32.4391C14.5116 29.4953 12.5839 25.4991 12.2672 21.1868L10.871 2.17668C10.8672 2.12492 10.8899 2.08906 10.9094 2.06803C10.929 2.047 10.9633 2.02206 11.0156 2.02206H38.5221C39.0834 2.02206 39.5384 1.56939 39.5384 1.01103C39.5384 0.452672 39.0834 0 38.5221 0H11.0155C10.4125 0 9.83112 0.251949 9.42052 0.691275C9.00991 1.1306 8.7996 1.72576 8.84364 2.32402L9.02821 4.83704H4.49141C2.01479 4.83704 0 6.84131 0 9.30499V13.458C0 14.0164 0.455049 14.4691 1.01634 14.4691C1.57763 14.4691 2.03268 14.0164 2.03268 13.458V9.30499C2.03268 7.95627 3.13561 6.8591 4.49141 6.8591H9.17673L9.32525 8.88116H5.0817C4.5204 8.88116 4.06536 9.33383 4.06536 9.89219V22.1679C4.06536 26.1424 7.31588 29.3761 11.3113 29.3761H12.6915C13.0919 30.0761 13.5387 30.751 14.0278 31.3982H11.3113C6.19506 31.3982 2.03268 27.2575 2.03268 22.1679V17.7668C2.03268 17.2084 1.57763 16.7557 1.01634 16.7557C0.455049 16.7557 0 17.2084 0 17.7668V22.1679C0 28.3723 5.07424 33.4202 11.3113 33.4202H15.792C15.9618 33.5894 16.1342 33.7566 16.3109 33.9201C19.0149 36.4206 22.3406 38.0669 25.9133 38.7149V40.9001C25.9133 41.9936 25.7922 43.0803 25.5533 44.1432C25.3059 43.9521 24.9962 43.8464 24.6705 43.8553C24.1597 43.8686 23.6997 44.158 23.4698 44.6107C22.9735 45.5883 22.294 46.2861 21.3923 46.7436C20.9156 46.9856 20.6245 47.4657 20.6328 47.9969C20.641 48.5253 20.945 48.994 21.4263 49.2201C21.9575 49.4695 22.3912 49.7481 22.7336 50.0603C21.7041 51.3688 20.4733 52.4905 19.065 53.3929L18.7903 53.569H16.3473C14.7543 53.569 13.4582 54.8582 13.4582 56.443V62.6831C12.4237 62.7029 11.5879 63.5448 11.5879 64.5786V67.1026C11.5879 68.1488 12.4435 69 13.4952 69H45.2485C46.3002 69 47.1558 68.1488 47.1558 67.1026V64.5786C47.1558 63.5448 46.32 62.703 45.2855 62.6831V56.443C45.2855 54.8582 43.9895 53.569 42.3964 53.569H39.9534L39.6786 53.3929C35.3903 50.6448 32.8302 45.9745 32.8302 40.9002V38.7151C36.403 38.0671 39.7287 36.4207 42.4327 33.9202C42.6095 33.7567 42.7818 33.5895 42.9516 33.4204H47.4323C53.6693 33.4204 58.7436 28.3726 58.7436 22.168V20.0375C58.7436 19.4791 58.2887 19.0264 57.7272 19.0264ZM11.3114 27.354C8.43683 27.354 6.09817 25.0276 6.09817 22.1679V10.9032H9.47391L10.24 21.334C10.3939 23.43 10.8885 25.4591 11.6903 27.3539H11.3114V27.354ZM24.7378 46.4358C25.1612 46.9787 25.6599 47.4678 26.2306 47.8998C25.6371 48.2914 25.1422 48.7407 24.7392 49.2539C24.3587 48.7625 23.8738 48.324 23.2876 47.9413C23.8425 47.5253 24.327 47.0224 24.7378 46.4358ZM45.1231 64.7031V66.9778H13.6206V64.7031H45.1231ZM42.3964 55.5909C42.8686 55.5909 43.2528 55.9731 43.2528 56.4429V62.6811H15.4909V56.4429C15.4909 55.9731 15.8751 55.5909 16.3473 55.5909H42.3964ZM36.5493 53.5688H22.1886C22.8554 52.9855 23.4749 52.3508 24.0435 51.6676C24.2379 51.7769 24.4588 51.8421 24.6941 51.8475C24.7053 51.8478 24.7164 51.8479 24.7275 51.8479C25.2492 51.8479 25.7178 51.5639 25.9559 51.1007C26.3671 50.3011 27.0571 49.6737 28.0655 49.1826C28.5255 48.9587 28.8234 48.5038 28.8428 47.9958C28.8623 47.4881 28.6003 47.0127 28.1594 46.7549C27.7748 46.5302 27.4298 46.2836 27.1197 46.0143C27.1578 45.9486 27.1914 45.8798 27.2144 45.8043C27.6998 44.2141 27.9459 42.564 27.9459 40.9001V38.9735C28.4186 39.0081 28.894 39.0263 29.3717 39.0263C29.8493 39.0263 30.3248 39.0081 30.7974 38.9735V40.9001C30.7975 45.8124 32.9103 50.3904 36.5493 53.5688Z" fill="#D22630"/>
<path d="M28.8674 29.6433H32.3678C33.1587 29.6433 33.8021 29.0031 33.8021 28.2164V10.6947C33.8021 8.71859 32.186 7.11105 30.1996 7.11105H25.1562C24.3653 7.11105 23.7219 7.7511 23.7219 8.53782V12.0199C23.7219 12.8067 24.3653 13.4468 25.1562 13.4468H27.433V28.2164C27.4332 29.0031 28.0766 29.6433 28.8674 29.6433ZM25.7546 11.4248V9.13311H30.1996C31.0653 9.13311 31.7694 9.83369 31.7694 10.6947V27.6211H29.4657V12.8515C29.4657 12.0648 28.8223 11.4248 28.0314 11.4248H25.7546Z" fill="#D22630"/>
<path d="M63.3153 12.4702C62.3201 11.8885 61.5827 11.1651 61.061 10.2593C60.8087 9.82115 60.3371 9.55626 59.8267 9.57028C59.316 9.58363 58.8559 9.87305 58.6261 10.3256C58.1299 11.3032 57.4503 12.0009 56.5488 12.4585C56.072 12.7004 55.7809 13.1807 55.7892 13.7119C55.7974 14.2404 56.1015 14.709 56.5826 14.9349C57.6163 15.4202 58.2827 16.0155 58.6203 16.7549C58.842 17.2408 59.3131 17.5501 59.8502 17.5627C59.8614 17.563 59.8725 17.5631 59.8836 17.5631C60.4055 17.5631 60.874 17.2791 61.1121 16.8159C61.5232 16.0162 62.2132 15.3888 63.2216 14.8977C63.6816 14.6738 63.9795 14.219 63.999 13.7109C64.0182 13.2035 63.7564 12.7279 63.3153 12.4702ZM59.8952 14.969C59.5146 14.4777 59.0298 14.0393 58.4436 13.6565C58.9983 13.2405 59.4829 12.7374 59.8939 12.151C60.3173 12.6937 60.8161 13.183 61.3867 13.6149C60.7931 14.0067 60.2982 14.4558 59.8952 14.969Z" fill="#D22630"/>
</svg>
