<svg width="68" height="68" viewBox="0 0 68 68" fill="none" xmlns="http://www.w3.org/2000/svg">
<path d="M67.7195 32.4324C68.1668 31.6024 68.0733 30.5921 67.4811 29.8585L64.1949 25.7867C64.1367 25.7146 64.1099 25.6205 64.1216 25.5285L64.7811 20.3285C64.9001 19.3914 64.4477 18.4818 63.629 18.011L59.104 15.4085C59.0236 15.3622 58.9646 15.2839 58.9423 15.1938L57.6876 10.1095C57.4607 9.18984 56.7088 8.5035 55.7724 8.36113L50.6229 7.57691C50.5309 7.56283 50.4473 7.51104 50.3938 7.43454L47.3982 3.15379C46.8538 2.37581 45.9034 2.00674 44.9759 2.21392L39.8953 3.34994C39.8039 3.37026 39.7072 3.35247 39.6297 3.30014L35.3002 0.39739C34.5102 -0.132508 33.4895 -0.132375 32.6997 0.397257L28.37 3.29988C28.2925 3.35194 28.1957 3.36986 28.1047 3.34955L23.0238 2.21352C22.0963 2.00607 21.1459 2.37528 20.6017 3.15339L17.6062 7.43454C17.5528 7.5109 17.4692 7.5627 17.3771 7.57678L12.2276 8.36086C11.2911 8.50337 10.5393 9.18971 10.3123 10.1095L9.05768 15.1936C9.03537 15.2839 8.97654 15.3622 8.89579 15.4085L4.371 18.0107C3.55224 18.4816 3.10003 19.3914 3.21889 20.3282L3.87842 25.5286C3.8901 25.6204 3.86341 25.7144 3.80524 25.7865L0.518892 29.8584C-0.0733009 30.592 -0.166798 31.6024 0.280634 32.4326L2.76668 37.0428C2.81064 37.1244 2.81953 37.2218 2.79151 37.3099L1.19117 42.3006C0.903107 43.1989 1.18041 44.1753 1.89771 44.7882L5.87147 48.183C5.942 48.2433 5.98556 48.3311 5.991 48.4237L6.29407 53.6553C6.34879 54.5993 6.9609 55.4113 7.85364 55.7238L12.7749 57.4459C12.8628 57.4766 12.9352 57.5428 12.9737 57.6274L15.1359 62.3908C15.528 63.2547 16.3963 63.7976 17.3421 63.7591L22.5455 63.5798C22.6376 63.5762 22.7306 63.6122 22.7973 63.6777L26.5233 67.3311C26.97 67.7691 27.557 68.0001 28.1553 68C28.4661 68 28.78 67.9376 29.0787 67.8093L33.8649 65.7553C33.9506 65.7185 34.0492 65.7185 34.135 65.7553L38.9209 67.8093C39.7943 68.1842 40.7973 67.9964 41.4764 67.3309L45.2024 63.6774C45.2693 63.6121 45.3608 63.5778 45.4543 63.5797L50.6574 63.759C51.6045 63.7961 52.4717 63.2547 52.8638 62.3907L55.026 57.6274C55.0645 57.5427 55.1369 57.4764 55.2248 57.4457L60.1461 55.7236C61.0388 55.411 61.6509 54.5992 61.7056 53.6552L62.0087 48.4237C62.0141 48.3311 62.0577 48.2433 62.1282 48.1829L66.102 44.7881C66.8193 44.1752 67.0966 43.1987 66.8085 42.3005L65.2085 37.3102C65.1802 37.2217 65.1891 37.1244 65.2332 37.0427L67.7195 32.4324ZM63.3116 37.9181L64.9118 42.9089C64.9539 43.0406 64.9132 43.1838 64.808 43.2737L60.8343 46.6685C60.3535 47.0794 60.0568 47.677 60.02 48.3085L59.717 53.5402C59.7089 53.6786 59.6191 53.7977 59.488 53.8435L54.5668 55.5656C53.9681 55.7752 53.4743 56.2266 53.2121 56.8041L51.0499 61.5675C50.9922 61.6942 50.8634 61.774 50.7261 61.7683L45.5228 61.589C44.8845 61.5682 44.2619 61.8099 43.8078 62.2553L40.0818 65.9087C39.9821 66.0064 39.835 66.0339 39.7068 65.979L34.9209 63.925C34.3355 63.6736 33.6643 63.6737 33.0792 63.9248L28.2931 65.979C28.1652 66.0339 28.0178 66.0064 27.9182 65.9087L24.1921 62.2555C23.7569 61.8285 23.1645 61.5877 22.5562 61.5877C22.5299 61.5877 22.5036 61.5882 22.4772 61.5892L17.2738 61.7685C17.1363 61.7726 17.0076 61.6943 16.95 61.5676L14.7877 56.8041C14.5254 56.2266 14.0318 55.7753 13.4331 55.5657L8.51184 53.8436C8.38089 53.7978 8.29098 53.6787 8.28288 53.5403L7.97981 48.3085C7.94315 47.6772 7.64633 47.0795 7.16543 46.6686L3.1918 43.2738C3.08661 43.1839 3.04584 43.0407 3.08807 42.909L4.68842 37.9179C4.88099 37.3165 4.81963 36.653 4.52001 36.0975L2.0341 31.4874C1.96836 31.3656 1.98204 31.2174 2.0689 31.1097L5.35538 27.0378C5.75221 26.5461 5.93416 25.9045 5.85461 25.278L5.19508 20.0777C5.17755 19.9404 5.24395 19.8069 5.36401 19.7379L9.88867 17.1355C10.4378 16.8197 10.8398 16.286 10.9915 15.6711L12.2461 10.5871C12.2795 10.452 12.3897 10.3515 12.5272 10.3304L17.6767 9.54616C18.3049 9.45054 18.8741 9.09715 19.2383 8.57654L22.2336 4.29579C22.3137 4.18158 22.4541 4.12779 22.5891 4.15794L27.6699 5.29396C28.2914 5.43261 28.9508 5.30897 29.4795 4.95464L33.8092 2.05203C33.9249 1.97447 34.0748 1.97447 34.1905 2.05203C34.1906 2.05216 34.1906 2.05216 34.1906 2.05216L38.5201 4.95451C39.0485 5.30911 39.7082 5.43301 40.3298 5.29396L45.4104 4.15794C45.547 4.12753 45.686 4.18184 45.7661 4.29579L48.7615 8.57641C49.1256 9.09715 49.6947 9.45054 50.323 9.54616L55.4725 10.3305C55.61 10.3514 55.7202 10.452 55.7536 10.587L57.0082 15.6711C57.1599 16.286 57.5619 16.8197 58.1109 17.1354L62.6357 19.7379C62.7557 19.8069 62.8222 19.9403 62.8046 20.0778L62.1451 25.2778C62.0654 25.9045 62.2475 26.5461 62.6445 27.0378L65.9308 31.1098C66.0175 31.2174 66.0313 31.3656 65.9657 31.4873L63.4797 36.0975C63.1802 36.6529 63.1189 37.3164 63.3116 37.9181Z" fill="#D22630"/>
<path d="M51.0317 50.4337C46.5048 55.1235 40.4325 57.7062 33.9335 57.7062C21.187 57.9095 9.94192 46.7587 10.1608 33.9338C10.0929 25.9017 14.5022 17.9576 21.4133 13.7325C21.8803 13.4419 22.0235 12.8277 21.7328 12.3606C21.4422 11.8935 20.8281 11.7506 20.3609 12.0411C12.9357 16.5858 8.09841 25.1366 8.16866 33.9339C8.1668 48.5367 20.187 59.7335 33.9335 59.6984C40.9779 59.6984 47.5594 56.8995 52.4651 51.8174C52.847 51.4216 52.836 50.7909 52.4401 50.409C52.0442 50.0266 51.4136 50.0381 51.0317 50.4337Z" fill="#D22630"/>
<path d="M33.9335 8.16936C30.927 8.16989 27.709 8.72423 24.8122 9.83648C24.298 10.0321 24.0397 10.6074 24.235 11.1215C24.4305 11.6359 25.0064 11.8935 25.5201 11.6987C28.0292 10.7345 31.1062 10.1447 33.9335 10.1616C42.4716 10.1616 50.4014 14.7912 54.6281 22.2442C58.3706 28.7487 58.7424 37.2245 55.4375 44.0652C55.0015 44.9869 54.4998 45.8906 53.947 46.7511C53.6496 47.2138 53.7837 47.8302 54.2464 48.1275C54.4131 48.2347 54.5996 48.2857 54.7841 48.2857C55.1117 48.2857 55.4327 48.1241 55.6229 47.828C56.2221 46.8956 56.7656 45.9161 57.2381 44.9172C60.7809 37.5941 60.4649 28.3828 56.3609 21.2614C51.7813 13.1859 43.1875 8.16936 33.9335 8.16936Z" fill="#D22630"/>
<path d="M18.1293 29.318V31.4843C18.1293 32.0345 18.5751 32.4804 19.1254 32.4804C19.6756 32.4804 20.1214 32.0345 20.1214 31.4843V29.318C20.1214 28.9153 20.4492 28.5876 20.8519 28.5876H24.7033C25.106 28.5876 25.4338 28.9153 25.4338 29.318V45.3876C25.4338 45.7902 25.106 46.118 24.7033 46.118H20.8519C20.4492 46.118 20.1214 45.7902 20.1214 45.3876V36.1647C20.1214 35.6145 19.6756 35.1686 19.1254 35.1686C18.5751 35.1686 18.1293 35.6145 18.1293 36.1647V45.3876C18.1293 46.8888 19.3506 48.1101 20.8519 48.1101H24.7033C25.9357 48.1101 26.9779 47.2864 27.3123 46.1612C29.1739 46.838 31.1228 47.1805 33.1234 47.1805H37.5421C38.0923 47.1805 38.5381 46.7346 38.5381 46.1844C38.5381 45.6342 38.0923 45.1884 37.5421 45.1884H33.1234C31.1526 45.1884 29.2393 44.8111 27.4259 44.0685V31.3579C29.097 31.0817 30.5396 29.6657 31.6379 28.415C33.3405 26.4762 34.3439 23.942 34.463 21.2792L34.6629 16.8139C34.6636 16.7991 34.664 16.7841 34.664 16.7694C34.664 16.5862 34.8128 16.4374 34.996 16.4374H35.0459C35.7134 16.4379 36.3384 16.7014 36.8059 17.1795C37.2748 17.659 37.5252 18.2927 37.5107 18.9633L37.3577 26.0332C37.3573 26.0515 37.3574 26.0697 37.358 26.088C37.4057 27.5129 38.4469 28.5876 39.7799 28.5876H49.0737C49.806 28.5876 50.4018 29.1833 50.4018 29.9156C50.4018 30.6479 49.806 31.2437 49.0737 31.2437C48.6895 31.2437 48.1758 31.2437 47.6792 31.2437C47.129 31.2437 46.6831 31.6895 46.6831 32.2397C46.6831 32.79 47.129 33.2358 47.6792 33.2358H48.6753C49.4076 33.2358 50.0033 33.8316 50.0033 34.5638C50.0033 35.2961 49.4076 35.8919 48.6753 35.8919C48.0928 35.8922 47.1146 35.8923 46.4839 35.8919C45.9337 35.8919 45.4879 36.3377 45.4879 36.888C45.4879 37.4382 45.9337 37.884 46.4839 37.884H47.48C48.2123 37.884 48.8081 38.4798 48.8081 39.2121C48.8081 39.9444 48.2123 40.5401 47.48 40.5401C46.9575 40.5401 45.9834 40.5401 45.4215 40.5401C44.8712 40.5401 44.4254 40.986 44.4254 41.5362C44.4254 42.0864 44.8712 42.5322 45.4215 42.5322H46.4175C47.1498 42.5322 47.7456 43.128 47.7456 43.8603C47.7456 44.5926 47.1498 45.1884 46.4175 45.1884H42.2226C41.6724 45.1884 41.2266 45.6342 41.2266 46.1844C41.2266 46.7346 41.6724 47.1805 42.2226 47.1805H46.4175C48.2483 47.1805 49.7377 45.691 49.7377 43.8603C49.7377 43.1933 49.5393 42.5722 49.1996 42.0513C50.1585 41.4685 50.8002 40.4138 50.8002 39.2121C50.8002 38.5688 50.6157 37.9681 50.2978 37.459C51.3099 36.8896 51.9955 35.8056 51.9955 34.5638C51.9955 33.757 51.706 33.0168 51.2257 32.4409C51.9398 31.8315 52.3939 30.9259 52.3939 29.9156C52.3939 28.0849 50.9044 26.5955 49.0737 26.5955H39.7799C39.5167 26.5955 39.3664 26.3215 39.3501 26.0436L39.5023 19.0064C39.5285 17.796 39.0768 16.6524 38.2303 15.7867C37.3853 14.9227 36.255 14.4462 35.0467 14.4453H34.996C33.7229 14.4453 32.6856 15.4741 32.672 16.7441L32.473 21.1902C32.3739 23.4021 31.5459 25.5011 30.1409 27.1008C29.7133 27.5878 28.5423 28.9208 27.4254 29.3076C27.4197 27.8113 26.201 26.5956 24.7033 26.5956H20.8519C19.3507 26.5955 18.1293 27.8167 18.1293 29.318Z" fill="#D22630"/>
</svg>
