<svg width="60" height="38" viewBox="0 0 60 38" fill="none" xmlns="http://www.w3.org/2000/svg">
<path d="M57.7869 21.1659L50.3979 8.20367C51.0627 7.31972 51.1058 6.07797 50.4175 5.14029C49.9661 4.52512 49.443 3.95181 48.8623 3.43627C48.5021 3.1164 47.9464 3.14408 47.6209 3.49876C47.2957 3.85334 47.3242 4.40013 47.6844 4.72022C48.1732 5.15435 48.6133 5.63634 48.9924 6.15303C49.2761 6.53955 49.1873 7.08115 48.7946 7.36031C48.401 7.64016 47.8518 7.55322 47.5674 7.16555C46.5282 5.74969 45.0078 4.73556 43.2865 4.30996L39.742 3.43373C39.2707 3.3175 38.9853 2.84797 39.1038 2.3842C39.2218 1.92159 39.698 1.63954 40.1703 1.75635L43.715 2.63257C43.9558 2.69207 44.2044 2.76472 44.4543 2.84877C44.9133 3.00352 45.4132 2.76206 45.5701 2.31017C45.7272 1.85817 45.4821 1.36661 45.0228 1.21221C44.727 1.1127 44.431 1.02622 44.1432 0.955076L40.5985 0.0788515C39.1813 -0.270531 37.7532 0.574675 37.3988 1.96298C37.0438 3.35382 37.9001 4.76184 39.3138 5.11146L42.8583 5.98768C44.1788 6.314 45.3451 7.0921 46.1423 8.17818C46.7888 9.05948 47.9012 9.43354 48.9347 9.1726L53.4926 17.1682C51.3348 14.9533 48.2998 13.5721 44.9428 13.5721H40.4987C37.6631 13.5721 35.0424 14.8322 33.3008 17.0305H26.6992C24.9576 14.8322 22.3369 13.5721 19.5013 13.5721H15.0572C11.7002 13.5721 8.66518 14.9532 6.50741 17.168L11.0653 9.1726C12.0956 9.43273 13.2091 9.06213 13.8576 8.17842C14.655 7.0921 15.8213 6.314 17.1417 5.98768L20.6862 5.11146C22.0998 4.76196 22.9562 3.35394 22.6012 1.96298C22.2461 0.572023 20.8154 -0.270185 19.4015 0.0788515L15.8568 0.955076C13.3338 1.57878 11.1055 3.06521 9.58252 5.1404C8.89416 6.07831 8.93729 7.31995 9.60209 8.2039L2.21296 21.1659C0.987654 21.1968 0 22.1848 0 23.3979V25.2247C0 26.457 1.01883 27.4595 2.27132 27.4595H3.26589C3.79277 32.8529 7.99932 37.0898 13.2854 37.8702C13.7662 37.9411 14.2132 37.615 14.285 37.1433C14.357 36.6708 14.0263 36.2305 13.5463 36.1597C8.6558 35.4375 4.96792 31.2175 4.96792 26.3432V25.2287C4.96792 19.7411 9.50717 15.3014 15.0572 15.3014H19.5013C24.1094 15.3014 28.0013 19.5114 26.5376 24.774C25.1663 29.7164 22.449 34.8942 17.3244 36.0297C16.8508 36.1347 16.5534 36.5974 16.66 37.0634C16.7667 37.5294 17.2371 37.8224 17.7105 37.717C22.9231 36.562 25.9422 32.0667 27.6514 27.1068H32.3479C34.8052 34.2456 39.1275 38 44.9428 38C51.0926 38 56.1622 33.3652 56.7352 27.4594H57.7287C58.9812 27.4594 60 26.4569 60 25.2246V23.3978C59.9999 22.1848 59.0122 21.1968 57.7869 21.1659ZM11.0076 6.1528C12.2888 4.40716 14.163 3.15699 16.2852 2.63246L19.8298 1.75623C20.3019 1.63954 20.7784 1.92135 20.8964 2.38408C21.0147 2.84762 20.7295 3.31727 20.2582 3.43362L16.7136 4.30984C14.9924 4.73532 13.472 5.74946 12.4326 7.16555C12.1488 7.55229 11.6 7.64062 11.2057 7.36031C10.8128 7.08103 10.7239 6.53943 11.0076 6.1528ZM3.21023 25.7298H2.27132C1.993 25.7298 1.75781 25.4984 1.75781 25.2246V23.3978C1.75781 23.1239 1.993 22.8925 2.27132 22.8925H3.44847C3.1855 24.1641 3.21023 25.0981 3.21023 25.7298ZM28.1922 25.3773C28.33 24.8912 28.437 24.4926 28.518 24.0064H31.4818C31.5659 24.5058 31.6676 24.8844 31.8076 25.3773H28.1922ZM31.3654 22.2767H28.6346C28.5971 21.0601 28.3072 19.8664 27.7792 18.7599H32.2208C31.6928 19.8664 31.4029 21.0601 31.3654 22.2767ZM55.0318 26.3432C55.0318 31.8172 50.506 36.2705 44.9427 36.2705C38.3369 36.2705 35.0379 30.7044 33.3656 24.42C32.1263 19.765 35.7155 15.3015 40.4986 15.3015H44.9427C50.5278 15.3015 55.0318 19.7773 55.0318 25.2289V26.3432ZM58.2421 25.2247C58.2421 25.4986 58.0069 25.7299 57.7286 25.7299H56.7897C56.7897 25.1001 56.8153 24.1685 56.5514 22.8927H57.7286C58.0069 22.8927 58.2421 23.1241 58.2421 23.398V25.2247Z" fill="#D22630"/>
</svg>
