<svg width="25" height="25" viewBox="0 0 25 25" fill="none" xmlns="http://www.w3.org/2000/svg">
<path d="M8.20187 17.1907C9.23146 18.6669 10.2594 19.9871 10.9406 20.8375C11.0398 20.9612 11.1327 21.076 11.2227 21.1866H9.16691C8.93678 21.1866 8.75026 21.3762 8.75026 21.6102C8.75026 21.8442 8.93678 22.0339 9.16691 22.0339H15.8335C16.0637 22.0339 16.2502 21.8442 16.2502 21.6102C16.2502 21.3762 16.0637 21.1866 15.8335 21.1866H13.7777C13.8677 21.076 13.9606 20.9611 14.0602 20.8375C14.7411 19.9901 15.7686 18.6669 16.7986 17.1907C17.8205 15.7556 18.7403 14.248 19.5511 12.6797C20.4019 10.9807 20.8336 9.57022 20.8336 8.48726C20.8364 6.237 19.9583 4.07815 18.3932 2.48731C18.2886 2.37709 18.1337 2.3328 17.988 2.37148C17.8423 2.41016 17.7285 2.52574 17.6902 2.67386C17.652 2.82197 17.6953 2.97951 17.8036 3.08596C19.2124 4.51812 20.0027 6.46153 20.0002 8.48721C20.0002 9.43546 19.5994 10.7167 18.8086 12.2949C18.0162 13.8269 17.1172 15.2995 16.1186 16.7014C15.1028 18.1585 14.0873 19.4638 13.4144 20.3028C13.1907 20.5816 12.9894 20.8281 12.8178 21.0366C12.7376 21.1297 12.6219 21.183 12.5003 21.183C12.3786 21.183 12.2629 21.1296 12.1828 21.0366C12.0111 20.8282 11.8099 20.5816 11.5861 20.3028C10.9132 19.4643 9.89777 18.1589 8.88195 16.7014C7.88336 15.2995 6.98438 13.8269 6.19195 12.2949C5.4003 10.7167 5.00029 9.43546 5.00029 8.48721C5.00005 5.4183 6.80494 2.64685 9.58366 1.44925C11.4508 0.653135 13.5541 0.653135 15.4212 1.44925C15.5583 1.50833 15.716 1.48862 15.8349 1.39741C15.9538 1.30625 16.0158 1.1575 15.9975 1.0072C15.9793 0.856905 15.8837 0.72791 15.7466 0.668825C11.5035 -1.15101 6.61295 0.87051 4.82197 5.18454C4.38765 6.22951 4.16489 7.35277 4.16699 8.48721C4.16699 9.57017 4.59868 10.9807 5.44951 12.6818C6.26016 14.2494 7.18004 15.7563 8.20187 17.1907Z" fill="#D22630"/>
<path d="M12.5002 4.66255C12.7303 4.66255 12.9168 4.47288 12.9168 4.23887C12.9168 4.00487 12.7303 3.8152 12.5002 3.8152C10.5124 3.81515 8.80133 5.24303 8.41349 7.22552C8.02565 9.20801 9.06906 11.193 10.9055 11.9666C12.742 12.7401 14.8601 12.0868 15.9645 10.4061C17.0689 8.72544 16.852 6.48551 15.4464 5.05619C15.3418 4.94606 15.1869 4.90187 15.0412 4.94065C14.8955 4.97943 14.7818 5.09512 14.7436 5.24323C14.7055 5.39139 14.749 5.54888 14.8573 5.65529C15.9818 6.79871 16.1554 8.59059 15.2719 9.93515C14.3885 11.2797 12.694 11.8025 11.2248 11.1837C9.75558 10.5649 8.92082 8.97698 9.23097 7.39096C9.54113 5.80494 10.9099 4.6626 12.5002 4.66255Z" fill="#D22630"/>
<path d="M24.8431 23.1233L22.2806 18.4627C22.0489 18.0486 21.6154 17.7941 21.1469 17.797H18.1773C17.9472 17.797 17.7606 17.9867 17.7606 18.2207C17.7606 18.4547 17.9472 18.6444 18.1773 18.6444H21.1469C21.3137 18.6411 21.4693 18.7295 21.554 18.8757L24.1156 23.5364C24.1854 23.6576 24.184 23.808 24.1119 23.9279C24.0268 24.0709 23.8729 24.1565 23.7086 24.1524H1.29183C1.12767 24.1564 0.973961 24.0707 0.888902 23.9279C0.816832 23.808 0.815416 23.6576 0.885143 23.5364L3.44682 18.8757C3.53134 18.7296 3.68681 18.6412 3.85346 18.6444H6.82305C7.05318 18.6444 7.23971 18.4547 7.23971 18.2207C7.23971 17.9867 7.05318 17.797 6.82305 17.797H3.85351C3.38476 17.7939 2.95087 18.0484 2.71894 18.4627L0.15682 23.1233C-0.056804 23.507 -0.0518723 23.9777 0.169759 24.3567C0.403256 24.7603 0.831432 25.0057 1.29183 24.9999H23.7086C24.1688 25.0056 24.5968 24.7602 24.8302 24.3567C25.0519 23.9777 25.0568 23.507 24.8431 23.1233Z" fill="#D22630"/>
<path d="M20.4169 19.9155H18.7502C18.668 19.9157 18.5875 19.9404 18.519 19.9867L17.269 20.8341C17.0775 20.964 17.0259 21.2271 17.1536 21.4218C17.2813 21.6165 17.54 21.669 17.7315 21.5392L18.8752 20.763H20.4169C20.647 20.763 20.8336 20.5733 20.8336 20.3393C20.8336 20.1052 20.647 19.9155 20.4169 19.9155Z" fill="#D22630"/>
<path d="M17.9169 22.8814C17.9169 23.1154 18.1034 23.305 18.3335 23.305H21.6669C21.897 23.305 22.0836 23.1154 22.0836 22.8814C22.0836 22.6474 21.897 22.4577 21.6669 22.4577H18.3335C18.1034 22.4577 17.9169 22.6474 17.9169 22.8814Z" fill="#D22630"/>
<path d="M7.50016 21.6103C7.68385 21.6105 7.84601 21.4884 7.89938 21.3096C7.95275 21.1309 7.88468 20.9377 7.73185 20.8341L6.48184 19.9867C6.41319 19.9403 6.33257 19.9155 6.25015 19.9155H4.5835C4.35337 19.9155 4.16684 20.1052 4.16684 20.3392C4.16684 20.5732 4.35342 20.7628 4.5835 20.7628H6.12515L7.27018 21.539C7.33829 21.5853 7.41832 21.6101 7.50016 21.6103Z" fill="#D22630"/>
<path d="M3.33349 22.4577C3.10336 22.4577 2.91684 22.6474 2.91684 22.8814C2.91684 23.1154 3.10336 23.305 3.33349 23.305H6.66685C6.89698 23.305 7.08351 23.1154 7.08351 22.8814C7.08351 22.6474 6.89698 22.4577 6.66685 22.4577H3.33349Z" fill="#D22630"/>
</svg>
