<svg width="160" height="50" viewBox="0 0 160 50" fill="none" xmlns="http://www.w3.org/2000/svg">
<path d="M160 45.1913C160 45.8233 159.876 46.449 159.636 47.0327C159.396 47.6165 159.044 48.1468 158.6 48.5934C158.155 49.04 157.628 49.3941 157.048 49.6355C156.468 49.8768 155.847 50.0007 155.219 50H4.78674C3.51876 50.0013 2.30216 49.4955 1.40451 48.5938C0.506856 47.6921 0.00165205 46.4683 0 45.1916V4.81462C0.0016513 3.53734 0.506656 2.31293 1.40413 1.41023C2.3016 0.507531 3.51818 0.000331379 4.78674 1.02338e-08H155.218C155.846 -4.12151e-05 156.468 0.124471 157.048 0.366426C157.628 0.60838 158.155 0.963035 158.599 1.41013C159.043 1.85723 159.395 2.38802 159.635 2.97217C159.876 3.55632 159.999 4.18239 159.999 4.81462L160 45.1913Z" fill="#202020"/>
<path d="M39.2101 23.6833C39.178 20.1458 42.1345 18.4248 42.2696 18.3447C40.5953 15.9269 38.0002 15.5967 37.0881 15.5703C34.9086 15.3429 32.7944 16.8621 31.6838 16.8621C30.5514 16.8621 28.8417 15.592 26.9991 15.6296C24.6276 15.6658 22.409 17.0258 21.1924 19.1372C18.6814 23.443 20.5542 29.7703 22.9597 33.2505C24.1633 34.9561 25.5693 36.8582 27.41 36.7912C29.2108 36.7188 29.8833 35.6553 32.0562 35.6553C34.2092 35.6553 34.841 36.791 36.718 36.7485C38.6506 36.7188 39.8671 35.0362 41.0286 33.3163C42.4191 31.3637 42.9778 29.4389 43 29.3399C42.9557 29.3245 39.2478 27.922 39.2101 23.6833ZM35.6642 13.2807C36.6327 12.0811 37.2952 10.449 37.1114 8.79297C35.7096 8.85441 33.9567 9.75305 32.9472 10.9266C32.054 11.9604 31.2563 13.6551 31.4623 15.2486C33.0369 15.3649 34.6536 14.4619 35.6642 13.2807Z" fill="white"/>
<path d="M64.6623 36.9008H62.1644L60.796 32.6024H56.04L54.7364 36.9008H52.3047L57.0178 22.267H59.9283L64.6623 36.9008ZM60.3837 30.7992L59.1461 26.978C59.0153 26.5877 58.7688 25.6681 58.4082 24.2211H58.3642C58.2188 24.8436 57.9869 25.7629 57.6689 26.9777L56.4525 30.7992H60.3837ZM76.7594 31.4951C76.7594 33.2898 76.2722 34.7082 75.2965 35.7496C74.4231 36.6766 73.3375 37.1397 72.0427 37.1397C70.6449 37.1397 69.6396 36.6414 69.0289 35.6429V41.1797H66.684V29.8173C66.684 28.6899 66.6543 27.5342 66.5972 26.3489H68.6595L68.7903 28.0215H68.8343C69.6165 26.7614 70.8032 26.1312 72.3962 26.1312C73.6412 26.1312 74.6806 26.6226 75.512 27.607C76.3425 28.5932 76.7594 29.8887 76.7594 31.4951ZM74.3703 31.5809C74.3703 30.5538 74.1394 29.7071 73.675 29.0398C73.1682 28.3458 72.4871 27.9981 71.6338 27.9981C71.055 27.9981 70.5292 28.1919 70.0598 28.5734C69.589 28.9581 69.2809 29.4611 69.1369 30.0833C69.0725 30.3161 69.0359 30.5557 69.0278 30.797V32.5574C69.0278 33.3241 69.2633 33.9717 69.7341 34.5015C70.2049 35.0292 70.8164 35.2944 71.5686 35.2944C72.452 35.2944 73.1396 34.9525 73.6313 34.274C74.1238 33.5932 74.3703 32.6959 74.3703 31.5809ZM88.8994 31.4951C88.8994 33.2898 88.4121 34.7082 87.4365 35.7496C86.562 36.6766 85.4775 37.1397 84.1816 37.1397C82.7838 37.1397 81.7785 36.6414 81.1678 35.6429V41.1797H78.8229V29.8173C78.8229 28.6899 78.7932 27.5342 78.736 26.3489H80.7984L80.9292 28.0215H80.9732C81.754 26.7614 82.941 26.1312 84.5348 26.1312C85.7787 26.1312 86.8181 26.6226 87.6519 27.607C88.4814 28.5932 88.8994 29.8887 88.8994 31.4951ZM86.5092 31.5809C86.5092 30.5538 86.277 29.7071 85.8128 29.0398C85.3057 28.3458 84.6271 27.9981 83.7735 27.9981C83.195 27.9981 82.6692 28.1919 82.1973 28.5734C81.7265 28.9581 81.4195 29.4611 81.2758 30.0833C81.2043 30.3735 81.1659 30.6099 81.1659 30.797V32.5574C81.1659 33.3241 81.4022 33.9717 81.8708 34.5015C82.3416 35.0284 82.9531 35.2944 83.7075 35.2944C84.5919 35.2944 85.2796 34.9525 85.7699 34.274C86.2627 33.5932 86.5092 32.6959 86.5092 31.5809ZM102.472 32.7962C102.472 34.042 102.037 35.0548 101.171 35.8367C100.219 36.6898 98.8888 37.1174 97.184 37.1174C95.6089 37.1174 94.3461 36.8143 93.3935 36.2061L93.9358 34.252C94.9642 34.8613 96.094 35.1644 97.3236 35.1644C98.2081 35.1644 98.8957 34.9646 99.386 34.5675C99.8779 34.1695 100.126 33.6372 100.126 32.9732C100.126 32.3782 99.9205 31.8802 99.5168 31.4742C99.1112 31.0697 98.44 30.6923 97.4973 30.346C94.9345 29.3904 93.6521 27.9929 93.6521 26.1543C93.6521 24.9532 94.1053 23.9704 95.0095 23.2017C95.9137 22.4341 97.1126 22.0502 98.6041 22.0502C99.9359 22.0502 101.046 22.2824 101.927 22.7455L101.338 24.6564C100.509 24.2079 99.5729 23.9836 98.5258 23.9836C97.6985 23.9836 97.0499 24.187 96.5854 24.5916C96.1952 24.9535 95.9973 25.3944 95.9973 25.9179C95.9973 26.4951 96.2227 26.9747 96.6715 27.3506C97.0609 27.6969 97.7713 28.0743 98.7987 28.4788C100.059 28.987 100.985 29.5784 101.578 30.2581C102.176 30.9378 102.472 31.7856 102.472 32.7962ZM110.246 28.1083H107.661V33.2315C107.661 34.5345 108.116 35.1845 109.029 35.1845C109.448 35.1845 109.796 35.1493 110.071 35.0757L110.136 36.856C109.674 37.0286 109.065 37.1155 108.312 37.1155C107.386 37.1155 106.662 36.833 106.139 36.2676C105.619 35.7023 105.358 34.7558 105.358 33.4231V28.1037H103.818V26.3445H105.358V24.4124L107.661 23.7173V26.3447H110.246V28.1083ZM121.885 31.5383C121.885 33.1598 121.421 34.4916 120.495 35.533C119.526 36.6051 118.237 37.1397 116.63 37.1397C115.079 37.1397 113.846 36.626 112.926 35.6001C112.007 34.5722 111.547 33.2766 111.547 31.7139C111.547 30.0786 112.022 28.7394 112.969 27.698C113.918 26.6556 115.196 26.1342 116.803 26.1342C118.352 26.1342 119.596 26.649 120.538 27.676C121.437 28.6723 121.885 29.9594 121.885 31.5383ZM119.454 31.5919C119.454 30.6253 119.246 29.7964 118.826 29.1024C118.334 28.2645 117.631 27.8456 116.719 27.8456C115.779 27.8456 115.059 28.2645 114.568 29.1024C114.148 29.7964 113.939 30.6396 113.939 31.6358C113.939 32.6035 114.148 33.4349 114.568 34.1267C115.075 34.9646 115.783 35.3835 116.699 35.3835C117.595 35.3835 118.298 34.9558 118.806 34.1055C119.238 33.3953 119.454 32.5609 119.454 31.5919ZM129.511 28.4107C129.267 28.3666 129.019 28.3449 128.772 28.3458C127.947 28.3458 127.309 28.6558 126.86 29.2805C126.471 29.8302 126.275 30.5255 126.275 31.3643V36.9011H123.93V29.6719C123.932 28.5642 123.909 27.4566 123.862 26.35H125.904L125.99 28.3689H126.055C126.304 27.6749 126.693 27.1154 127.228 26.6962C127.717 26.3302 128.311 26.132 128.922 26.1312C129.139 26.1312 129.335 26.1466 129.509 26.1741L129.511 28.4107ZM139.999 31.1258C140.005 31.4821 139.976 31.8382 139.913 32.1891H132.878C132.904 33.2315 133.245 34.0299 133.899 34.5796C134.491 35.0702 135.258 35.3164 136.199 35.3164C137.241 35.3164 138.191 35.1515 139.046 34.8184L139.414 36.4446C138.415 36.8802 137.236 37.0968 135.875 37.0968C134.239 37.0968 132.954 36.615 132.019 35.6539C131.086 34.692 130.618 33.3986 130.618 31.7788C130.618 30.1888 131.053 28.8639 131.923 27.8071C132.834 26.6787 134.065 26.1147 135.613 26.1147C137.134 26.1147 138.286 26.6787 139.068 27.8071C139.687 28.7009 139.999 29.8096 139.999 31.1258ZM137.762 30.5175C137.779 29.8217 137.625 29.2222 137.307 28.7152C136.901 28.0622 136.277 27.7368 135.44 27.7368C134.673 27.7368 134.048 28.0545 133.573 28.6921C133.183 29.1992 132.95 29.8085 132.879 30.5153L137.762 30.5175ZM55.3636 17.0933C54.7111 17.0933 54.1469 17.0614 53.6772 17.0075V9.93246C54.3341 9.83103 54.9979 9.78104 55.6626 9.78295C58.3521 9.78295 59.5905 11.1057 59.5905 13.2621C59.5905 15.7493 58.1276 17.0933 55.3636 17.0933ZM55.7572 10.6899C55.3944 10.6899 55.0852 10.7119 54.829 10.7649V16.1432C54.9676 16.1652 55.2336 16.175 55.6076 16.175C57.3699 16.175 58.373 15.1719 58.373 13.294C58.373 11.6191 57.4655 10.6899 55.7572 10.6899ZM63.4503 17.1471C61.9346 17.1471 60.9521 16.0156 60.9521 14.4793C60.9521 12.8784 61.9552 11.7367 63.5361 11.7367C65.0298 11.7367 66.034 12.8146 66.034 14.3947C66.034 16.0156 64.999 17.1471 63.4503 17.1471ZM63.4943 12.5794C62.6615 12.5794 62.1281 13.3577 62.1281 14.4463C62.1281 15.5141 62.6725 16.2927 63.483 16.2927C64.2935 16.2927 64.8382 15.4602 64.8382 14.4244C64.8382 13.369 64.3051 12.5794 63.4943 12.5794ZM74.6773 11.8437L73.0547 17.0295H71.9977L71.3257 14.7775C71.1586 14.2266 71.0194 13.6676 70.9088 13.1027H70.8868C70.8021 13.6677 70.6416 14.2342 70.471 14.7775L69.7561 17.0295H68.6881L67.1614 11.8434H68.3459L68.9333 14.3089C69.0721 14.8962 69.1886 15.4503 69.2853 15.9739H69.3073C69.392 15.5372 69.5305 14.9919 69.7341 14.3199L70.471 11.8448H71.4103L72.1156 14.2671C72.279 14.8301 72.4181 15.3999 72.5322 15.975H72.563C72.638 15.4418 72.7554 14.8754 72.9151 14.2671L73.5453 11.8448L74.6773 11.8437ZM80.6497 17.0295H79.4971V14.0517C79.4971 13.1346 79.1453 12.6748 78.451 12.6748C77.7681 12.6748 77.2984 13.2621 77.2984 13.945V17.0295H76.1455V13.3256C76.1455 12.8671 76.1345 12.3755 76.1026 11.8423H77.1167L77.1706 12.6426H77.2027C77.5128 12.0885 78.1419 11.7365 78.8471 11.7365C79.936 11.7365 80.6508 12.5692 80.6508 13.9239L80.6497 17.0295ZM83.8287 17.0295H82.6747V9.46387H83.8287V17.0295ZM88.0315 17.1471C86.5169 17.1471 85.5332 16.0156 85.5332 14.4793C85.5332 12.8784 86.5364 11.7367 88.1161 11.7367C89.611 11.7367 90.6141 12.8146 90.6141 14.3947C90.6152 16.0156 89.5791 17.1471 88.0315 17.1471ZM88.0744 12.5794C87.2416 12.5794 86.7084 13.3577 86.7084 14.4463C86.7084 15.5141 87.2537 16.2927 88.0623 16.2927C88.8739 16.2927 89.4172 15.4602 89.4172 14.4244C89.4186 13.369 88.886 12.5794 88.0744 12.5794ZM95.159 17.0295L95.0755 16.4323H95.0447C94.6926 16.913 94.179 17.1469 93.5276 17.1469C92.5984 17.1469 91.9383 16.496 91.9383 15.6207C91.9383 14.3408 93.0483 13.6787 94.9697 13.6787V13.5831C94.9697 12.9004 94.608 12.5582 93.8929 12.5582C93.3817 12.5582 92.9326 12.6868 92.5379 12.943L92.3035 12.1856C92.7831 11.8865 93.3814 11.7367 94.0844 11.7367C95.4394 11.7367 96.1237 12.4516 96.1237 13.8824V15.7925C96.1237 16.3158 96.1468 16.7214 96.1985 17.0306L95.159 17.0295ZM95.0005 14.4463C93.7203 14.4463 93.078 14.7566 93.078 15.4921C93.078 16.0363 93.4089 16.3026 93.8687 16.3026C94.4549 16.3026 95.0005 15.8551 95.0005 15.2469V14.4463ZM101.721 17.0295L101.667 16.1968H101.636C101.304 16.8261 100.748 17.1471 99.97 17.1471C98.7195 17.1471 97.7933 16.0475 97.7933 14.5005C97.7933 12.8784 98.7536 11.7356 100.065 11.7356C100.759 11.7356 101.25 11.9701 101.528 12.4406H101.551V9.46414H102.705V15.6314C102.705 16.133 102.717 16.6024 102.747 17.0292L101.721 17.0295ZM101.551 13.978C101.551 13.2522 101.07 12.633 100.336 12.633C99.4816 12.633 98.9594 13.3907 98.9594 14.4573C98.9594 15.5031 99.5014 16.219 100.313 16.219C101.038 16.219 101.551 15.5888 101.551 14.8421L101.551 13.978ZM110.02 17.1469C108.506 17.1469 107.523 16.0156 107.523 14.4793C107.523 12.8784 108.526 11.7367 110.106 11.7367C111.601 11.7367 112.604 12.8146 112.604 14.3947C112.605 16.0156 111.57 17.1469 110.02 17.1469ZM110.063 12.5791C109.231 12.5791 108.698 13.3577 108.698 14.4463C108.698 15.5141 109.242 16.2927 110.052 16.2927C110.864 16.2927 111.407 15.4602 111.407 14.4244C111.409 13.369 110.876 12.5791 110.063 12.5791ZM118.803 17.0295H117.649V14.0517C117.649 13.1346 117.297 12.6748 116.603 12.6748C115.92 12.6748 115.452 13.2621 115.452 13.945V17.0295H114.298V13.3256C114.298 12.8671 114.287 12.3755 114.255 11.8423H115.269L115.323 12.6426H115.355C115.664 12.0885 116.294 11.7356 116.998 11.7356C118.087 11.7356 118.803 12.5678 118.803 13.9228V17.0295ZM126.559 12.7077H125.29V15.226C125.29 15.8672 125.513 16.1871 125.961 16.1871C126.165 16.1871 126.335 16.1652 126.473 16.1333L126.505 17.0086C126.282 17.0944 125.983 17.1372 125.611 17.1372C124.702 17.1372 124.159 16.6357 124.159 15.3228V12.7077H123.402V11.8437H124.159V10.8933L125.29 10.5511V11.8423H126.559L126.559 12.7077ZM132.661 17.0295H131.509V14.0737C131.509 13.1455 131.158 12.6759 130.463 12.6759C129.866 12.6759 129.31 13.0818 129.31 13.9033V17.0295H128.158V9.46387H129.31V12.5791H129.333C129.696 12.0141 130.222 11.7356 130.892 11.7356C131.99 11.7356 132.661 12.589 132.661 13.945V17.0295ZM138.913 14.7135H135.454C135.476 15.6955 136.126 16.2498 137.088 16.2498C137.6 16.2498 138.071 16.1641 138.486 16.0046L138.666 16.8052C138.175 17.0185 137.598 17.1251 136.926 17.1251C135.303 17.1251 134.343 16.1 134.343 14.5115C134.343 12.9213 135.326 11.7258 136.796 11.7258C138.121 11.7258 138.953 12.7077 138.953 14.191C138.96 14.3661 138.947 14.5415 138.913 14.7135ZM137.856 13.8923C137.856 13.0917 137.452 12.5263 136.716 12.5263C136.053 12.5263 135.53 13.1027 135.455 13.8923H137.856Z" fill="white"/>
</svg>
