<svg width="350" height="132" viewBox="0 0 350 132" fill="none" xmlns="http://www.w3.org/2000/svg">
<g clip-path="url(#clip0)">
<path d="M110.763 3.93621C111.69 3.96207 112.037 2.76207 111.151 2.55C103.905 0.822414 96.6286 0 89.4244 0C52.6883 0 18.0498 21.5845 0.823799 56.3483C-0.849082 59.7259 -0.0100521 63.1966 3.6879 64.531L23.5398 71.6483C26.6576 72.781 30.1433 71.2707 31.2827 68.3483C47.7525 26.6741 76.4971 2.85 110.763 3.93621Z" fill="#D22630"/>
<path d="M142.941 31.8053C134.017 16.5829 119.95 8.62256 104.283 8.62256C102.673 8.62256 101.057 8.70532 99.4148 8.87601C99.1921 8.93808 99.0108 9.10877 98.8762 9.32601C98.814 9.48118 98.7622 9.6467 98.7622 9.8329C98.7622 10.2674 99.0315 10.6346 99.3526 10.7639L99.653 10.8415C106.629 12.6674 111.519 17.1984 116.18 25.8105C116.397 26.1519 117.071 27.5277 119.111 27.9984L141.201 34.4484C141.34 34.5105 141.48 34.5157 141.636 34.5157C142.501 34.5157 143.21 33.7398 143.21 32.7777C143.21 32.4208 143.117 32.1053 142.941 31.8053Z" fill="#D22630"/>
<path d="M69.8674 109.494V109.417C71.0069 108.936 71.9391 108.186 72.6642 107.172C73.3841 106.158 73.7467 105.041 73.7467 103.825C73.7467 98.9324 70.4113 96.4858 63.7353 96.4858C62.0106 96.4858 59.8043 96.7393 57.1111 97.2462V122.643C58.3023 122.844 59.4417 123.005 60.5138 123.119C61.5963 123.232 62.6425 123.289 63.6576 123.289C71.0172 123.289 74.6996 120.765 74.6996 115.727C74.6996 114.181 74.2749 112.841 73.4256 111.713C72.5762 110.591 71.3901 109.851 69.8674 109.494ZM61.8759 100.789C62.254 100.738 62.6166 100.691 62.9584 100.655C63.3002 100.619 63.6369 100.598 63.9683 100.598C65.4651 100.598 66.5942 100.774 67.3555 101.131C68.3707 101.663 68.8782 102.615 68.8782 103.981C68.8782 106.313 67.3141 107.482 64.1962 107.482H61.8759V100.789ZM64.0046 119.115C63.6731 119.115 63.3313 119.094 62.9791 119.058C62.6217 119.022 62.2592 118.975 61.8759 118.924V111.584H64.3102C67.9667 111.584 69.7949 112.851 69.7949 115.386C69.7949 117.869 67.8631 119.115 64.0046 119.115Z" fill="#54585A"/>
<path d="M86.4668 103.489C83.5975 103.489 81.2876 104.425 79.537 106.303C77.7864 108.181 76.9111 110.55 76.9111 113.41C76.9111 116.275 77.7709 118.634 79.5007 120.481C81.3031 122.353 83.6234 123.294 86.4668 123.294C89.336 123.294 91.646 122.369 93.3965 120.517C95.1471 118.665 96.0224 116.296 96.0224 113.405C96.0224 110.539 95.1471 108.17 93.3965 106.298C91.6408 104.425 89.3309 103.489 86.4668 103.489ZM89.9679 117.517C89.1548 118.784 87.9894 119.415 86.4668 119.415C84.9441 119.415 83.7788 118.784 82.9656 117.517C82.3027 116.477 81.9764 115.122 81.9764 113.446C81.9764 111.801 82.3027 110.431 82.9656 109.339C83.7788 108.072 84.9441 107.436 86.4668 107.436C87.9894 107.436 89.1548 108.082 89.9679 109.375C90.6308 110.467 90.9571 111.822 90.9571 113.441C90.9571 115.122 90.6308 116.477 89.9679 117.517Z" fill="#54585A"/>
<path d="M115.584 118.769V103.903H111.016V117.703C111.016 117.776 111.021 117.879 111.037 118.008C111.047 118.138 111.068 118.298 111.094 118.505C109.644 119.064 108.364 119.343 107.246 119.343C104.734 119.343 103.475 118.179 103.475 115.846V103.908H98.9071V116.571C98.9071 121.055 101.673 123.3 107.204 123.3C109.462 123.3 112.347 122.679 115.848 121.438C115.745 120.827 115.672 120.3 115.636 119.86C115.605 119.41 115.584 119.048 115.584 118.769Z" fill="#54585A"/>
<path d="M128.527 103.489C126.978 103.489 125.559 103.831 124.265 104.519V95.0117H119.697V119.798C119.697 120.051 119.676 120.367 119.64 120.75C119.598 121.127 119.557 121.572 119.505 122.079C121.737 122.891 124.161 123.294 126.776 123.294C129.718 123.294 132.194 122.369 134.198 120.517C136.223 118.639 137.244 116.27 137.244 113.405C137.244 110.539 136.524 108.212 135.074 106.412C133.504 104.462 131.319 103.489 128.527 103.489ZM130.889 117.553C129.925 118.769 128.62 119.379 126.968 119.379C125.901 119.379 124.99 119.239 124.228 118.96C124.254 118.836 124.27 118.717 124.27 118.619C124.27 118.52 124.27 118.443 124.27 118.391V108.357C125.057 107.746 126.098 107.441 127.388 107.441C128.988 107.441 130.205 108.041 131.044 109.231C131.78 110.322 132.147 111.677 132.147 113.296C132.142 115.044 131.723 116.467 130.889 117.553Z" fill="#54585A"/>
<path d="M148.664 118.355L143.221 103.908H138.083L145.204 120.863C145.764 122.182 146.473 122.927 147.333 123.108C146.168 126.072 144.163 127.934 141.32 128.694L143.718 132C147.017 131.265 149.482 128.606 151.103 124.019L158.333 103.908H153.496L148.664 118.355Z" fill="#54585A"/>
<path d="M175.042 109.686C175.042 107.581 174.373 105.998 173.027 104.932C171.758 103.97 170.059 103.489 167.925 103.489C165.284 103.489 162.782 104.032 160.426 105.124L161.985 108.584C163.761 107.824 165.522 107.441 167.273 107.441C169.407 107.441 170.473 108.025 170.473 109.189C170.473 110.027 169.458 110.674 167.428 111.129C164.403 111.786 162.503 112.319 161.715 112.727C159.685 113.767 158.67 115.375 158.67 117.558C158.67 119.586 159.633 121.107 161.56 122.12C163.057 122.907 164.937 123.3 167.195 123.3C169.329 123.3 172.032 122.819 175.306 121.856C175.13 120.817 175.036 120.02 175.036 119.462V109.686H175.042ZM167.242 119.529C164.88 119.529 163.699 118.753 163.699 117.212C163.699 116.4 164.17 115.794 165.108 115.386C165.543 115.184 166.522 114.92 168.039 114.589C169.262 114.336 170.069 114.005 170.479 113.601V118.277C170.479 118.355 170.484 118.448 170.499 118.562C170.515 118.675 170.53 118.82 170.556 118.996C169.412 119.353 168.309 119.529 167.242 119.529Z" fill="#54585A"/>
<path d="M187.72 103.489C185.54 103.489 182.66 104.125 179.081 105.393C179.185 105.998 179.252 106.525 179.294 106.97C179.33 107.415 179.351 107.777 179.351 108.057V122.922H183.919V109.122C183.919 109.024 183.913 108.91 183.898 108.781C183.882 108.651 183.862 108.501 183.841 108.325C185.291 107.772 186.57 107.493 187.689 107.493C190.201 107.493 191.46 108.657 191.46 110.989V122.927H196.028V110.27C196.017 105.744 193.252 103.489 187.72 103.489Z" fill="#54585A"/>
<path d="M227.538 117.325H227.465C227.186 116.844 226.994 116.467 226.896 116.188L216.237 96.91H209.115V122.912H213.875V102.232H213.948C213.999 102.362 214.067 102.507 214.16 102.672C214.248 102.838 214.346 103.008 214.445 103.184L224.114 119.87C225.383 122.053 227.175 123.139 229.48 123.139C230.371 123.139 231.308 122.963 232.297 122.607V96.9048H227.538V117.325Z" fill="#D22630"/>
<path d="M252.279 109.686C252.279 107.581 251.605 105.998 250.264 104.932C248.99 103.97 247.291 103.489 245.163 103.489C242.521 103.489 240.02 104.032 237.663 105.124L239.222 108.584C240.999 107.824 242.759 107.441 244.51 107.441C246.644 107.441 247.711 108.025 247.711 109.189C247.711 110.027 246.696 110.674 244.665 111.129C241.641 111.786 239.74 112.319 238.953 112.727C236.922 113.767 235.907 115.375 235.907 117.558C235.907 119.586 236.871 121.107 238.803 122.12C240.299 122.907 242.179 123.3 244.437 123.3C246.571 123.3 249.27 122.819 252.548 121.856C252.372 120.817 252.279 120.02 252.279 119.462V109.686ZM244.479 119.529C242.117 119.529 240.936 118.753 240.936 117.212C240.936 116.4 241.408 115.794 242.345 115.386C242.78 115.184 243.754 114.92 245.277 114.589C246.499 114.336 247.307 114.005 247.711 113.601V118.277C247.711 118.355 247.716 118.448 247.731 118.562C247.747 118.675 247.768 118.82 247.788 118.996C246.649 119.353 245.546 119.529 244.479 119.529Z" fill="#D22630"/>
<path d="M263.813 119.607C262.647 119.607 262.062 119.063 262.062 117.972V107.86H267.392V103.908H262.062V98.6997H257.494V103.981L255.324 104.095V107.705L257.494 107.819V118.313C257.494 121.81 259.447 123.558 263.357 123.558C264.652 123.558 266.356 123.217 268.459 122.529L267.2 118.841C265.682 119.353 264.553 119.607 263.813 119.607Z" fill="#D22630"/>
<path d="M273.332 94.7065C272.545 94.7065 271.893 94.9652 271.369 95.4876C270.852 96.0048 270.593 96.6462 270.593 97.4065C270.593 98.1927 270.852 98.8341 271.369 99.3255C271.887 99.8221 272.545 100.065 273.332 100.065C274.12 100.065 274.788 99.8169 275.332 99.3255C275.875 98.8341 276.145 98.1927 276.145 97.4065C276.145 96.6462 275.865 96.0048 275.306 95.4876C274.746 94.9703 274.094 94.7065 273.332 94.7065Z" fill="#D22630"/>
<path d="M275.694 103.903H271.126V122.912H275.694V103.903Z" fill="#D22630"/>
<path d="M288.823 103.489C285.954 103.489 283.644 104.425 281.894 106.303C280.143 108.181 279.268 110.55 279.268 113.41C279.268 116.275 280.128 118.634 281.857 120.481C283.66 122.353 285.98 123.294 288.823 123.294C291.693 123.294 294.003 122.369 295.753 120.517C297.504 118.665 298.379 116.296 298.379 113.405C298.379 110.539 297.504 108.17 295.753 106.298C294.003 104.425 291.693 103.489 288.823 103.489ZM292.33 117.517C291.517 118.784 290.351 119.415 288.823 119.415C287.301 119.415 286.135 118.784 285.322 117.517C284.664 116.477 284.333 115.122 284.333 113.446C284.333 111.801 284.664 110.431 285.322 109.339C286.135 108.072 287.301 107.436 288.823 107.436C290.346 107.436 291.517 108.082 292.33 109.375C292.987 110.467 293.319 111.822 293.319 113.441C293.319 115.122 292.987 116.477 292.33 117.517Z" fill="#D22630"/>
<path d="M310.068 103.489C307.888 103.489 305.008 104.125 301.424 105.393C301.528 105.998 301.595 106.525 301.631 106.97C301.673 107.415 301.688 107.777 301.688 108.056V122.922H306.256V109.122C306.256 109.024 306.251 108.91 306.236 108.781C306.225 108.651 306.205 108.501 306.179 108.325C307.624 107.772 308.908 107.493 310.022 107.493C312.534 107.493 313.792 108.656 313.792 110.989V122.927H318.36V110.27C318.365 105.744 315.6 103.489 310.068 103.489Z" fill="#D22630"/>
<path d="M337.855 109.686C337.855 107.581 337.181 105.998 335.84 104.932C334.571 103.97 332.872 103.489 330.739 103.489C328.097 103.489 325.601 104.032 323.239 105.124L324.798 108.584C326.574 107.824 328.341 107.441 330.091 107.441C332.22 107.441 333.292 108.025 333.292 109.189C333.292 110.027 332.277 110.674 330.247 111.129C327.227 111.786 325.326 112.319 324.539 112.727C322.504 113.767 321.494 115.375 321.494 117.558C321.494 119.586 322.457 121.107 324.389 122.12C325.886 122.907 327.766 123.3 330.024 123.3C332.152 123.3 334.861 122.819 338.134 121.856C337.958 120.817 337.865 120.02 337.865 119.462V109.686H337.855ZM330.05 119.529C327.693 119.529 326.512 118.753 326.512 117.212C326.512 116.4 326.978 115.794 327.921 115.386C328.351 115.184 329.33 114.92 330.852 114.589C332.07 114.336 332.883 114.005 333.292 113.601V118.277C333.292 118.355 333.297 118.448 333.313 118.562C333.323 118.675 333.344 118.82 333.37 118.996C332.22 119.353 331.117 119.529 330.05 119.529Z" fill="#D22630"/>
<path d="M348.933 119.074C348.25 119.353 347.768 119.493 347.488 119.493C346.882 119.493 346.571 119.1 346.571 118.313V95.0117H342.003V119.379C342.003 121.991 343.402 123.294 346.193 123.294C347.359 123.294 348.628 123.077 350 122.648L348.933 119.074Z" fill="#D22630"/>
<path d="M230.107 68.0894H225.746V71.7773H230.107V68.0894Z" fill="#54585A"/>
<path d="M233.737 74.4204C233.737 78.3618 230.842 80.9429 227.559 80.9429C224.472 80.9429 221.509 77.9532 221.509 74.5187C221.509 71.5963 222.467 69.6566 222.467 69.6566H218.008C217.47 71.3429 217.34 72.4239 217.34 74.5187C217.34 80.5601 221.955 85.236 227.559 85.236C233.421 85.236 238 81.0722 238 74.5808V65.6118H233.732V74.4204H233.737Z" fill="#54585A"/>
<path d="M268.526 81.5737H264.196V85.2306H268.526V81.5737Z" fill="#54585A"/>
<path d="M274.829 81.5737H270.5V85.2306H274.829V81.5737Z" fill="#54585A"/>
<path d="M299.26 73.6237C299.26 74.8651 298.56 75.5323 297.416 75.5323H277.854C275.948 75.5323 274.798 74.322 274.798 72.4496V66.5995H270.499V72.9927C270.499 74.803 269.609 75.5375 267.951 75.5375H248.524C247.405 75.5375 246.706 74.8702 246.706 73.6289V59.1616H242.439V73.3754C242.439 75.1858 242.822 79.7685 248.172 79.7685H269.163C271.142 79.7685 272.794 78.8789 273.555 77.5444C274.384 78.6875 275.782 79.7685 278.108 79.7685H297.799C303.144 79.7685 303.563 75.1858 303.563 73.3754V65.6168H299.265V73.6237H299.26Z" fill="#54585A"/>
<path d="M302.637 81.5737H298.276V85.2306H302.637V81.5737Z" fill="#54585A"/>
<path d="M349.078 81.5737H344.712V85.2306H349.078V81.5737Z" fill="#54585A"/>
<path d="M345.701 65.6118V73.6239C345.701 74.8653 344.997 75.5325 343.852 75.5325H321.68V65.6118H314.771C310.182 65.6118 307.256 68.5394 307.256 72.5118C307.256 76.5825 310.503 79.7635 314.771 79.7635H317.159C316.392 81.5428 314.036 81.5118 313.367 81.5118C312.347 81.5118 311.332 81.2894 310.597 81.067L311.715 84.848C312.285 85.0084 313.176 85.1687 313.942 85.1997C316.998 85.2928 321.012 84.0566 321.582 79.7635H344.23C349.58 79.7635 349.995 75.1808 349.995 73.3704V65.6118H345.701ZM317.35 75.5325H314.642C312.762 75.5325 311.679 74.0997 311.679 72.5118C311.679 71.048 312.762 69.4291 314.642 69.4291H317.35V75.5325Z" fill="#54585A"/>
<path d="M62.5597 58.7739H58.2299V62.4619H62.5597V58.7739Z" fill="#D22630"/>
<path d="M68.8679 58.7739H64.5381V62.4619H68.8679V58.7739Z" fill="#D22630"/>
<path d="M101.994 81.5737H97.6643V85.2306H101.994V81.5737Z" fill="#D22630"/>
<path d="M108.297 81.5737H103.967V85.2306H108.297V81.5737Z" fill="#D22630"/>
<path d="M123.141 59.1567H118.811V62.8447H123.141V59.1567Z" fill="#D22630"/>
<path d="M145.66 79.7636C149.637 79.7636 153.076 76.9964 153.076 72.6722C153.076 67.7119 148.301 65.2291 144.381 65.2291C142.371 65.2291 138.554 66.1498 136.104 69.0774L136.487 59.1567H132.189V75.5326H126.233C124.322 75.5326 123.177 74.3223 123.177 72.4498V66.5998H118.878V72.9929C118.878 74.8033 117.987 75.5378 116.33 75.5378H111.327C109.416 75.5378 108.271 74.3274 108.271 72.455V66.605H103.972V72.9981C103.972 74.8085 103.082 75.5429 101.424 75.5429H72.3068C71.1933 75.5429 70.4941 74.8757 70.4941 73.6343V63.7757L66.1954 64.8257V65.9067C60.8763 65.9378 57.0282 67.7171 57.1214 72.7395C57.1577 75.5378 59.5712 78.2119 62.601 78.3671C64.7348 78.4964 66.1021 77.4153 66.7703 76.6498C67.4384 78.2688 68.873 79.7688 71.9287 79.7688H102.636C104.615 79.7688 106.267 78.8791 107.033 77.5447C107.862 78.6878 109.26 79.7688 111.586 79.7688H117.542C119.515 79.7688 121.173 78.8791 121.934 77.5447C122.763 78.6878 124.161 79.7688 126.486 79.7688H145.66V79.7636ZM66.1902 72.3205C66.1902 74.3585 65.0093 75.3722 63.6109 75.3412C61.793 75.3102 61.1923 73.4947 61.2233 72.4136C61.3166 69.455 63.9942 68.5343 66.1902 68.5343V72.3205ZM145.339 75.5326H136.203C136.778 72.9257 139.771 68.886 144.64 69.2378C145.976 69.336 148.653 70.0964 148.653 72.7343C148.653 74.2912 147.094 75.5326 145.339 75.5326Z" fill="#D22630"/>
<path d="M192.91 79.7636C198.26 79.7636 198.669 75.1809 198.669 73.3705V59.1567H194.37V73.624C194.37 74.8654 193.671 75.5326 192.526 75.5326H171.582V65.6119H164.673C160.089 65.6119 157.158 68.5395 157.158 72.5119C157.158 76.5826 160.405 79.7636 164.673 79.7636H167.06C166.299 81.5429 163.942 81.5119 163.274 81.5119C162.254 81.5119 161.234 81.2895 160.503 81.0671L161.617 84.8481C162.192 85.0085 163.083 85.1688 163.849 85.1998C166.905 85.2929 170.914 84.0567 171.488 79.7636H192.91ZM167.257 75.5326H164.548C162.673 75.5326 161.591 74.0998 161.591 72.5119C161.591 71.0481 162.673 69.4291 164.548 69.4291H167.257V75.5326Z" fill="#D22630"/>
<path d="M207.593 59.1567H203.325V79.7636H207.593V59.1567Z" fill="#D22630"/>
</g>
<defs>
<clipPath id="clip0">
<rect width="350" height="132" fill="white"/>
</clipPath>
</defs>
</svg>
